{
    "dataset_reader": {
        "type": "semeval-reader-2",
        "token_indexers": {
            "eng": {
                "type": "single_id"
            },
            "hin": {
                "type": "single_id"
            },
            "token_characters": {
                "type": "characters",
                "min_padding_length": 5,
                "token_min_padding_length": 5
            }
        }
    },
    "model": {
        "type": "hinglish-classifier",
        "dropout": 0.5,
        "seq2vec_encoder": {
            "type": "cnn",
            "embedding_dim": 100,
            "num_filters": 40,
            "output_dim": 80
        },
        "text_field_embedder": {
            "type": "hinglish-embedder",
            "token_embedders": {
                "eng": {
                    "type": "embedding",
                    "embedding_dim": 300,
                    "pretrained_file": "allennlp_tests/wiki.en.align.vec",
                    "projection_dim": 50
                },
                "hin": {
                    "type": "embedding",
                    "embedding_dim": 300,
                    "pretrained_file": "allennlp_tests/wiki.hi.align.vec",
                    "projection_dim": 50
                },
                "token_characters": {
                    "type": "character_encoding",
                    "dropout": 0.2,
                    "embedding": {
                        "embedding_dim": 8,
                        "vocab_namespace": "token_characters"
                    },
                    "encoder": {
                        "type": "cnn",
                        "embedding_dim": 8,
                        "ngram_filter_sizes": [
                            5
                        ],
                        "num_filters": 50
                    }
                }
            }
        }
    },
    "train_data_path": "allennlp_tests/datasets/tsd_processed_split_train.txt",
    "validation_data_path": "allennlp_tests/datasets/tsd_processed_split_val.txt",
    "trainer": {
        "cuda_device": -1,
        "num_epochs": 60,
        "optimizer": "adam",
        "patience": 10
    },
    "data_loader": {
        "type": "default",
        "batch_size": 32
    }
}