{
  "best_epoch": 0,
  "peak_cpu_memory_MB": 1942.456,
  "training_duration": "0:20:20.156920",
  "training_start_epoch": 0,
  "training_epochs": 5,
  "epoch": 5,
  "training_accuracy": 0.9813981398139814,
  "training_loss": 0.06429504237387675,
  "training_reg_loss": 0.0,
  "training_cpu_memory_MB": 1942.456,
  "validation_accuracy": 0.5125987213238059,
  "validation_loss": 2.3882638953980946,
  "validation_reg_loss": 0.0,
  "best_validation_accuracy": 0.5054531778864235,
  "best_validation_loss": 0.9802716722091039,
  "best_validation_reg_loss": 0.0
}