{
  "best_epoch": 0,
  "peak_cpu_memory_MB": 1942.152,
  "training_duration": "0:13:38.665790",
  "training_start_epoch": 0,
  "training_epochs": 3,
  "epoch": 3,
  "training_accuracy": 0.9317931793179318,
  "training_loss": 0.19615623774453284,
  "training_reg_loss": 0.0,
  "training_cpu_memory_MB": 1942.152,
  "validation_accuracy": 0.5129748025573524,
  "validation_loss": 1.8187773419278008,
  "validation_reg_loss": 0.0,
  "best_validation_accuracy": 0.5054531778864235,
  "best_validation_loss": 0.9802716722091039,
  "best_validation_reg_loss": 0.0
}