{
  "best_epoch": 0,
  "peak_cpu_memory_MB": 634.44,
  "training_duration": "0:00:19.323568",
  "training_start_epoch": 0,
  "training_epochs": 0,
  "epoch": 0,
  "training_accuracy": 0.38375973303670746,
  "training_loss": 1.0740845861106083,
  "training_reg_loss": 0.0,
  "training_cpu_memory_MB": 634.44,
  "validation_accuracy": 0.44,
  "validation_loss": 1.0329207181930542,
  "validation_reg_loss": 0.0,
  "best_validation_accuracy": 0.44,
  "best_validation_loss": 1.0329207181930542,
  "best_validation_reg_loss": 0.0
}