{
  "best_epoch": 1,
  "peak_cpu_memory_MB": 1113.028,
  "training_duration": "0:02:24.372967",
  "training_start_epoch": 0,
  "training_epochs": 6,
  "epoch": 6,
  "training_accuracy": 0.9733036707452726,
  "training_loss": 0.13067508694426766,
  "training_reg_loss": 0.0,
  "training_cpu_memory_MB": 1100.808,
  "validation_accuracy": 0.41,
  "validation_loss": 1.7804729087012154,
  "validation_reg_loss": 0.0,
  "best_validation_accuracy": 0.465,
  "best_validation_loss": 0.9935702851840428,
  "best_validation_reg_loss": 0.0
}