{
  "best_epoch": 19,
  "peak_cpu_memory_MB": 278.076,
  "training_duration": "0:00:09.440139",
  "training_start_epoch": 0,
  "training_epochs": 19,
  "epoch": 19,
  "training_accuracy": 0.5233333333333333,
  "training_loss": 0.9403118552832768,
  "training_reg_loss": 0.0,
  "training_cpu_memory_MB": 278.076,
  "validation_accuracy": 0.525,
  "validation_loss": 1.009503892489842,
  "validation_reg_loss": 0.0,
  "best_validation_accuracy": 0.525,
  "best_validation_loss": 1.009503892489842,
  "best_validation_reg_loss": 0.0
}