{
  "best_epoch": 16,
  "peak_cpu_memory_MB": 278.076,
  "training_duration": "0:00:08.510502",
  "training_start_epoch": 0,
  "training_epochs": 17,
  "epoch": 17,
  "training_accuracy": 0.5411111111111111,
  "training_loss": 0.9550576641641814,
  "training_reg_loss": 0.0,
  "training_cpu_memory_MB": 278.076,
  "validation_accuracy": 0.505,
  "validation_loss": 1.0172224470547266,
  "validation_reg_loss": 0.0,
  "best_validation_accuracy": 0.495,
  "best_validation_loss": 1.0136114699499947,
  "best_validation_reg_loss": 0.0
}