{
  "best_epoch": 22,
  "peak_cpu_memory_MB": 278.08,
  "training_duration": "0:00:11.346536",
  "training_start_epoch": 0,
  "training_epochs": 23,
  "epoch": 23,
  "training_accuracy": 0.5444444444444444,
  "training_loss": 0.9181411595180117,
  "training_reg_loss": 0.0,
  "training_cpu_memory_MB": 278.08,
  "validation_accuracy": 0.51,
  "validation_loss": 1.0324679187365942,
  "validation_reg_loss": 0.0,
  "best_validation_accuracy": 0.53,
  "best_validation_loss": 0.9912315351622445,
  "best_validation_reg_loss": 0.0
}