{
  "best_epoch": 5,
  "peak_cpu_memory_MB": 277.972,
  "training_duration": "0:00:02.894948",
  "training_start_epoch": 0,
  "training_epochs": 5,
  "epoch": 5,
  "training_accuracy": 0.45666666666666667,
  "training_loss": 1.0286625664809654,
  "training_reg_loss": 0.0,
  "training_cpu_memory_MB": 277.972,
  "validation_accuracy": 0.475,
  "validation_loss": 1.0389428905078344,
  "validation_reg_loss": 0.0,
  "best_validation_accuracy": 0.475,
  "best_validation_loss": 1.0389428905078344,
  "best_validation_reg_loss": 0.0
}