{
  "best_epoch": 0,
  "peak_cpu_memory_MB": 259.468,
  "training_duration": "0:00:00.487071",
  "training_start_epoch": 0,
  "training_epochs": 0,
  "epoch": 0,
  "training_accuracy": 0.3933333333333333,
  "training_loss": 1.0925591526360348,
  "training_reg_loss": 0.0,
  "training_cpu_memory_MB": 259.468,
  "validation_accuracy": 0.415,
  "validation_loss": 1.0867203984941756,
  "validation_reg_loss": 0.0,
  "best_validation_accuracy": 0.415,
  "best_validation_loss": 1.0867203984941756,
  "best_validation_reg_loss": 0.0
}