{
  "best_epoch": 1,
  "peak_cpu_memory_MB": 275.756,
  "training_duration": "0:00:01.042940",
  "training_start_epoch": 0,
  "training_epochs": 1,
  "epoch": 1,
  "training_accuracy": 0.42,
  "training_loss": 1.0701628574009598,
  "training_reg_loss": 0.0,
  "training_cpu_memory_MB": 275.756,
  "validation_accuracy": 0.415,
  "validation_loss": 1.0673742124012537,
  "validation_reg_loss": 0.0,
  "best_validation_accuracy": 0.415,
  "best_validation_loss": 1.0673742124012537,
  "best_validation_reg_loss": 0.0
}