{
  "best_epoch": 0,
  "peak_cpu_memory_MB": 587.388,
  "training_duration": "0:00:39.036859",
  "training_start_epoch": 0,
  "training_epochs": 9,
  "epoch": 9,
  "training_accuracy": 0.985539488320356,
  "training_loss": 0.06392387181905837,
  "training_reg_loss": 0.0,
  "training_cpu_memory_MB": 587.388,
  "validation_accuracy": 0.455,
  "validation_loss": 2.7899983610425676,
  "validation_reg_loss": 0.0,
  "best_validation_accuracy": 0.39,
  "best_validation_loss": 1.0734830924442835,
  "best_validation_reg_loss": 0.0
}