{
  "best_epoch": 3,
  "peak_cpu_memory_MB": 503.836,
  "training_duration": "0:00:29.268152",
  "training_start_epoch": 0,
  "training_epochs": 8,
  "epoch": 8,
  "training_accuracy": 0.5472747497219133,
  "training_loss": 0.9168292314841829,
  "training_reg_loss": 0.0,
  "training_cpu_memory_MB": 503.836,
  "validation_accuracy": 0.48,
  "validation_loss": 1.1039403251239233,
  "validation_reg_loss": 0.0,
  "best_validation_accuracy": 0.48,
  "best_validation_loss": 1.0684359499386378,
  "best_validation_reg_loss": 0.0
}