{
    "dataset_reader": {
        "type": "semeval-reader-2",
        "token_indexers": {
            "token_characters": {
                "type": "characters"
            },
            "tokens": {
                "type": "single_id"
            }
        }
    },
    "model": {
        "type": "basic_classifier",
        "seq2vec_encoder": {
            "type": "cnn",
            "embedding_dim": 100,
            "num_filters": 10,
            "output_dim": 20
        },
        "text_field_embedder": {
            "token_embedders": {
                "token_characters": {
                    "type": "character_encoding",
                    "dropout": 0.2,
                    "embedding": {
                        "embedding_dim": 8,
                        "vocab_namespace": "token_characters"
                    },
                    "encoder": {
                        "type": "cnn",
                        "embedding_dim": 8,
                        "ngram_filter_sizes": [
                            5
                        ],
                        "num_filters": 50
                    }
                },
                "tokens": {
                    "type": "embedding",
                    "embedding_dim": 50
                }
            }
        }
    },
    "train_data_path": "allennlp_tests/datasets/nice_tweets_train.txt",
    "validation_data_path": "allennlp_tests/datasets/nice_tweets_val.txt",
    "trainer": {
        "cuda_device": -1,
        "num_epochs": 20,
        "optimizer": "adam",
        "patience": 10
    },
    "data_loader": {
        "type": "default",
        "batch_size": 32
    }
}