{
  "best_epoch": 0,
  "peak_cpu_memory_MB": 551.4,
  "training_duration": "0:01:01.996432",
  "training_start_epoch": 0,
  "training_epochs": 4,
  "epoch": 4,
  "training_accuracy": 0.9502,
  "training_loss": 0.1638172193531208,
  "training_reg_loss": 0.0,
  "training_cpu_memory_MB": 551.4,
  "validation_accuracy": 0.5049019607843137,
  "validation_loss": 2.1710471919938628,
  "validation_reg_loss": 0.0,
  "best_validation_accuracy": 0.4993872549019608,
  "best_validation_loss": 0.9847613584761526,
  "best_validation_reg_loss": 0.0
}