{
  "best_epoch": 10,
  "peak_cpu_memory_MB": 325.544,
  "training_duration": "0:00:24.349199",
  "training_start_epoch": 0,
  "training_epochs": 10,
  "epoch": 10,
  "training_accuracy": 0.5721572157215722,
  "training_loss": 0.895034713295702,
  "training_reg_loss": 0.0,
  "training_cpu_memory_MB": 325.544,
  "validation_accuracy": 0.5754042873260624,
  "validation_loss": 0.8861922685589109,
  "validation_reg_loss": 0.0,
  "best_validation_accuracy": 0.5754042873260624,
  "best_validation_loss": 0.8861922685589109,
  "best_validation_reg_loss": 0.0
}