{
  "best_epoch": 17,
  "peak_cpu_memory_MB": 325.568,
  "training_duration": "0:00:39.640684",
  "training_start_epoch": 0,
  "training_epochs": 17,
  "epoch": 17,
  "training_accuracy": 0.5797579757975797,
  "training_loss": 0.87639451560121,
  "training_reg_loss": 0.0,
  "training_cpu_memory_MB": 325.568,
  "validation_accuracy": 0.5945844302369312,
  "validation_loss": 0.8710786664769763,
  "validation_reg_loss": 0.0,
  "best_validation_accuracy": 0.5945844302369312,
  "best_validation_loss": 0.8710786664769763,
  "best_validation_reg_loss": 0.0
}