{
  "best_epoch": 8,
  "peak_cpu_memory_MB": 325.544,
  "training_duration": "0:00:19.935017",
  "training_start_epoch": 0,
  "training_epochs": 8,
  "epoch": 8,
  "training_accuracy": 0.5665566556655666,
  "training_loss": 0.8966060956826987,
  "training_reg_loss": 0.0,
  "training_cpu_memory_MB": 325.544,
  "validation_accuracy": 0.5757803685596089,
  "validation_loss": 0.8869419587509972,
  "validation_reg_loss": 0.0,
  "best_validation_accuracy": 0.5757803685596089,
  "best_validation_loss": 0.8869419587509972,
  "best_validation_reg_loss": 0.0
}