{
  "best_epoch": 1,
  "peak_cpu_memory_MB": 1142.52,
  "training_duration": "0:01:43.079827",
  "training_start_epoch": 0,
  "training_epochs": 4,
  "epoch": 4,
  "training_accuracy": 0.8976640711902113,
  "training_loss": 0.2602460864160595,
  "training_reg_loss": 0.0,
  "training_cpu_memory_MB": 1142.52,
  "validation_accuracy": 0.44,
  "validation_loss": 2.0851853915623257,
  "validation_reg_loss": 0.0,
  "best_validation_accuracy": 0.455,
  "best_validation_loss": 1.0782563260623388,
  "best_validation_reg_loss": 0.0
}