{
  "best_epoch": 0,
  "peak_cpu_memory_MB": 549.324,
  "training_duration": "0:01:05.145568",
  "training_start_epoch": 0,
  "training_epochs": 4,
  "epoch": 4,
  "training_accuracy": 0.963,
  "training_loss": 0.12955059605846359,
  "training_reg_loss": 0.0,
  "training_cpu_memory_MB": 549.324,
  "validation_accuracy": 0.5165441176470589,
  "validation_loss": 2.219544064764883,
  "validation_reg_loss": 0.0,
  "best_validation_accuracy": 0.4987745098039216,
  "best_validation_loss": 0.9633703231811523,
  "best_validation_reg_loss": 0.0
}