{
  "best_epoch": 0,
  "peak_cpu_memory_MB": 307.38,
  "training_duration": "0:00:13.659575",
  "training_start_epoch": 0,
  "training_epochs": 0,
  "epoch": 0,
  "training_accuracy": 0.4182,
  "training_loss": 1.047288120552233,
  "training_reg_loss": 0.0,
  "training_cpu_memory_MB": 307.38,
  "validation_accuracy": 0.4987745098039216,
  "validation_loss": 0.9633703231811523,
  "validation_reg_loss": 0.0,
  "best_validation_accuracy": 0.4987745098039216,
  "best_validation_loss": 0.9633703231811523,
  "best_validation_reg_loss": 0.0
}