{
  "best_epoch": 0,
  "peak_cpu_memory_MB": 549.484,
  "training_duration": "0:01:40.809918",
  "training_start_epoch": 0,
  "training_epochs": 7,
  "epoch": 7,
  "training_accuracy": 0.9956,
  "training_loss": 0.018159792251709942,
  "training_reg_loss": 0.0,
  "training_cpu_memory_MB": 549.484,
  "validation_accuracy": 0.5214460784313726,
  "validation_loss": 2.7746895785425223,
  "validation_reg_loss": 0.0,
  "best_validation_accuracy": 0.4987745098039216,
  "best_validation_loss": 0.9633703231811523,
  "best_validation_reg_loss": 0.0
}