{
  "best_epoch": 3,
  "peak_cpu_memory_MB": 1181.072,
  "training_duration": "0:01:53.891374",
  "training_start_epoch": 0,
  "training_epochs": 3,
  "epoch": 3,
  "training_accuracy": 0.5075507550755075,
  "training_loss": 0.9680268396965612,
  "training_reg_loss": 0.0,
  "training_cpu_memory_MB": 1181.072,
  "validation_accuracy": 0.5171116961263633,
  "validation_loss": 0.9655182822829201,
  "validation_reg_loss": 0.0,
  "best_validation_accuracy": 0.5171116961263633,
  "best_validation_loss": 0.9655182822829201,
  "best_validation_reg_loss": 0.0
}