@@UNKNOWN@@
है
में
तो
के
हैं
हो
नहीं
तुम
की
भी
RT
सब
से
को
और
गया
आया
का
ही
https://t
कर
था
मैं
क्या
हूँ
कोई
कुछ
एक
यह
कि
ये
अब
मुझे
न
पर
लिए
भाई
रहे
रहा
जो
लोग
वह
ने
अभी
आप
रही
बात
वो
किया
फिर
पे
हम
आ
करो
तक
आज
हुआ
थी
मेरे
जब
पहले
कभी
इस
देख
बस
समझ
and
साथ
ना
पता
या
अपना
करते
दिया
कैसे
बोल
अपनी
घर
किसी
जी
जैसे
बार
मेरी
लेकिन
😂
दिल
होता
नही
क्यों
वाले
होगा
बहुत
लोगों
गई
अच्छा
ठीक
करने
अगर
यार
अपने
सिर्फ
बाद
खुद
@sidharth_shukla
दिन
चल
सही
दे
:
नाम
काम
hai
but
पास
लगता
बन
नई
कौन
दो
होती
याद
थे
Shona
#ShonaShonaWithSidNaaz
तुम्हारे
कल
I
देश
ऐसे
?
song
मिल
यही
कह
तब
sir
सोना
ले
करता
मेरा
Sidharth
तेरे
गए
जाओ
हुए
तू
अरे
पसंद
हू
होते
time
इतना
@ishehnaaz_gill
2
चाहिए
वैसे
उसको
हर
लो
उस
सकते
you
करना
लगा
बड़े
आता
गलत
भूत
लग
यहाँ
सोच
तुम्हें
दी
देखो
हाथ
ज्यादा
होना
ऐसा
मैंने
करके
खुश
जाता
इसलिए
@narendramodi
शादी
देना
होगी
लेना
कम
चला
😂😂
बाहर
@ColorsTV
@BeingSalmanKhan
इन
जा
बड़ी
हिन्दू
Sid
बाप
रह
प्यार
of
तरह
गये
साल
सारे
शोना
करती
देखा
सकता
अकेले
देते
जगह
छोड़
मिले
fans
गाना
पूरी
वही
😂😂😂
आपके
मत
बाकी
माँ
हैं?
लिया
हमें
इतनी
सबसे
10
लिखा
आने
करे
🤣
@myogiadityanath
जाए
post
उसके
बोलते
कहा
कहाँ
हमारे
लगती
व
कहीं
आये
#KyaHua
हुई
1
-
कितने
दुनिया
जाना
दोस्ती
मजा
भूल
मतलब
ho
कब
लगे
तेरी
बोला
trend
पहली
थोड़ा
सच
बता
@TonyKakkar
दोनों
आगे
it
is
रहो
views
MV
ज्ञान
हाँ
हमारी
साला
वाली
ऐसी
my
बुरा
जनता
जाने
बना
भाग
थोड़ी
मान
लेकर
इतने
इधर
उसे
कहते
please
#SSRDishaAwaitsJustice
उसकी
India
@jasminbhasin
जिस
tweet
😅
मे
मगर
धर्म
Me
twitter
5
सुन
डाल
डाला
Sir
सर
Sana
जय
मार
सबको
party
वाला
पूरा
जेल
BJP
लेके
आपकी
सा
बंद
उसका
उनका
हों
पागल
मस्त
मिला
जमीन
करोगे
Tony
बिल्कुल
@BiggBoss
आपको
रात
जाती
@Iamkavitak
बच्चे
be
बोहोत
जाते
i
पीछे
होने
@SushilModi
शेर
😭
h
to
गलती
गाड़ी
बोलो
trending
आम
नफरत
for
जिसको
उधर
तेरा
अलग
वक्त
बढ़िया
phone
लेते
अल्लाह
लड़की
निकल
लाख
सूरज
fan
family
मैने
आएगा
जिंदगी
आना
life
सकती
बातें
चाहता
दिखा
बी
किस
मिली
😂😂😂😂😂
मुंह
vote
#SidNaaz
❤️
रोज
जाएगा
#ShonaShona
बेटी
चुप
चाँद
छटा
दूसरे
वे
ऐक
role
तुम्हारी
रखा
last
job
कानून
हमारा
देने
the
योगी
मर
Song
बिना
सिर
video
team
वजह
इंसान
अकेला
गाली
तुम्हारा
#LoneWarriorSidharthShukla
नेह
@AmitShah
इनको
चोर
बड़ा
मौत
आदमी
बनाने
are
करें
उन
सवाल
खाना
समझा
नजर
his
बोलने
#SidharthShukla
बातों
…
समाज
रख
करार
🙄
फालतू
समझे
सो
3
खत्म
औकात
award
हमने
गा
दिमाग
शर्म
कितनी
@AlyGoni
दोस्त
ते
अछि
Modi
जायेगा
उनकी
ऊपर
चले
गयी
रहेगी
पी
सामने
कहना
पैदा
बोले
मजाक
matter
डर
#BB14
वहां
Muslim
बिन
जीना
@RubiDilaik
बारे
#KavitaKaushik
लगेंगे
गरीब
छोटे
जिसने
जाके
शहनाज
@GooglePayIndia
गया?
देखने
देती
मज़ा
plus
हो?
उनको
😒
block
😅😅
Corona
हिंदू
like
इसके
देखना
कितना
इज्जत
news
देंगे
जल्दी
खामोश
मुह
सी
दुम
सिर्फ़
pressure
Mumbai
फैला
move
जाये
s
वापस
बहनों
am
लोगो
उसने
हे
हां
@yadavtejashwi
खुल
support
आते
बीच
गया😂
खाने
चूतिये
m
लिख
मारने
जवाब
चली
होगये
जितना
Mummy
ठंड
इसी
पूछ
चाहते
busy
😉
seriously
🙂
किसने
बेकार
@YouTube
सभी
बीवी
app
ए
ग
हमेशा
अछी
road
सुबह
हूं
सरकार
उठा
not
help
😂❤️
करूँ
आई
बेच
class
a
तुझे
no
call
side
जानता
जानते
मौसम
@VootSelect
😁
bill
चोरी
खेल
4
इक
बढ़
@ABPNews
@ANI
बारिश
यूँ
will
🙏
आसमान
Side
गोली
इनका
@ChalPakaMatt
आओ
रोना
सुना
me
नीचे
ओ
आमीन
लाल
Kashmir
खुदा
जान
उसी
परिवार
खुशी
Rohit
लगी
पूरे
day
सबकी
@iArmySupporter
Ram
बहन
हवा
use
friend
talent
पानी
@PMOIndia
boring
@SaleemKhanSafi
लड़का
दोगे
झूठी
भर
in
समझदार
महान
रखी
सीख
वैसा
US
??
सिद्ध
Oh
बताओ
जिसमें
दिखाया
साहब
Kabir
सारी
मुश्किल
friends
on
चुकी
थक
hindustan
इसका
कैसी
लेने
खिलाफ
करु
वाहियात
करदो
घमंड
पढ़
जायेंगे
छुप
मिलना
आपसे
@iamkamyapunjabi
इसको
ध्यान
क्योकि
हमको
तुम्हे
pic
share
@RealVinduSingh
@KoharJatin
रो
सारा
मुसलमान
कई
free
@DChaurasia2312
रहता
@ArvindKejriwal
@TheUpenYadav
समय
बेटा
दर्द
बची
कैद
गाने
kakkar
loss
आपने
Finally
नज़र
बकवास
@Twiinkle:
FINALLY
बनाया
comment
आए
नया
@SyyedSuhail
प
Hindustan
जिसका
जाकर
कुत्ते
Bangladesh
Pakistan
किये
भक्तों
यकीन
काफी
Last
india
खराब
बच्चों
उससे
Lalu
बोहत
देगा
always
मुद्दा
उतना
देखते
तुमको
know
दुख
भरोसा
shukla
रहते
घटिया
दिखता
माने
उठ
वालों
क्या?
घंटा
देखे
हाल
@OfficialDGISPR
उसमें
ED
गली
दिनों
problem
जानना
Role
केवल
Shehnaaz
कीमत
लगते
खाली
गुस्सा
आती
@INCIndia
अच्छाई
संभाल
SidNaaz
kochi
तड़प
वरना
muslim
जाहिल
दिये
उनके
कहां
stream
Rahul
&amp;
जहां
start
@Yash_Narvekar92
@AmaalMallik
करेंगे
भैया
तरफ
लिये
he
live
15
इसकी
ashram
ऎसे
top
72
निकाल
सुनके
2020
@sirfhumariRi:
सिद्धार्थ
शायद
वहीं
film
तुमने
ती
बोलता
School
बैठ
😑
यहीं
wish
result
best
आजाओ
मारो
लड़ाई
ख़याल
टकराता
चाह
मिठाई
पा
@HMOIndia
जरूर
ओह
नी
सपने
intelligent
दोस्तों
मारे
हजारों
sanjay
के…
london
And
फेकू
बहोत
चक्कर
बैठे
पड़ा
Bharat
भेजो
रहेगा
हिसाब
बेवकूफ
pappu
congress
रखना
साब
जोड़
all
😂🤣
जैसी
”
with
लगाया
बताया
सलाह
तबसे
justice
Salman
झूठ
सास
तभी
TV
खबर
मा
ढंग
@SheikhSaJiD007:
editing
industry
choice
n…
corona
mumbai
@Sarcastic_bae__:
(पता
kyo
pu…
जल
लेती
Thank
name
#RubinaDilaik
सर्दी
बोली
वी
Kavita
game
भाप
भगवान
तुम्ही
जहाँ
@shivamss110
Please
यहां
नगर
@AamAadmiParty
joke
बच्चा
@ashokgehlot51
जिनसे
कृपा
गे
🤣🤣
judge
degree
जिया
😜
भेज
@iAmNehaKakkar
पाप
टोनी
@Mahim_ajju:
End
😂😂😂😂😂🤭🤭🤭🤭
पे…
line
@alok_ajay
चाप
🥺
9
tweets
पाता
पड़ी
China
दूंगा
@iRaviTiwari
@shwetasinghkirt
true
दूसरों
झगड़े
गरम
Like
पाया
@Bhaskar21149095
My
😊
चलता
बोलना
इससे
google
@MUKHTAR63267158
@SethJi1406
सच्चाई
सुधर
आयत
तुमसे
air
@warrior0133:
@myogioffice
उन्हें
2014
show
मोह
open
गाया
बह
बिजली
season
शुक्रिया
etc
देर
edit
@dir_ed
किसानों
किसान
बहाना
@HemantSorenJMM
tooter
आधी
चलो
टक्कर
रूबी
समझो
दिखाने
अब्ब
पढाई
from
कहने
भाड़
दिख
was
भारत
@ZeeBiharNews
मुहब्बत
arjun
सना
गांजा
धो
कोशिश
देता
@iamkamyapunjabi:
#StayStrongKavitaKaushik
Watching…
Love
होंगे
him
खा
शुरू
🌝
खून
पिछले
मिलते
जन्नत
😌
बताना
चुका
@Itz__Atul:
बाबू
भले
कहो
कीड़े
डब्बा
आतंकी
#EkDujeKeVaaste2
छोटा
@23Tanushukla
love
😍
PM
@rautsanjay61
वासी
अच्छी
she
उनसे
मैं?
real
अच्छे
खोल
50
cute
वादा
@RahulGandhi
plan
जिहादी
ignore
बुएद
school
एसे
#हिंदुओं_का_हिंदुस्तान
ram
साफ
Pak
बजे
@rohini_sgh
समझने
दुश्मन
वक़्त
ली
🤔
test
@ImRo45
पड़ता
सुनो
लगेगा
reply
महीने
दुआ
खूब
likes
दूर
सन
CAA
proof
@Sid97277
we
#DelayMDCAT2020
बनी
शेरनी
कारण
Jail
हिंदी
अंदर
चुके
जाएंगे
PAK
आग
हूरों
सुभ
light
case
आय
करीब
जायें
gold
shree
धंधा
सबके
@ashuu_boss
शांत
Recovery
@Preet_Armaalian
@ashchanchlani:
खिलाने
काटने
☹️
हमसे
लायक
दिए
धर्मों
@NightKi20804397
कियों
मरता
मम्मा
Gill
जरूरी
promo
@MaryamNSharif
💯
फौजी
तरहा
90s
tum
👿
पट
#LoneWarriorSidharthshukla
Rajya
ऎसा
Teacher
उम्र
shows
toilet
paper
😑😑
try
same
शहर
रखते
आकर
@Sherazi82354389:
जंग
Sindh
@Sidhart59431262:
तो…
अरेरे
विधान
visit
TRP
इलाज
@MsTruth_wil_win:
@jawaidworld7
असर
😄😄
bomb
blast
संजू
people
death
फॉलो
चिल्लाते
right
prove
नींद
बिनती
भाटिया
लाओ
संस्कार
Moment
Arjun
माप
फेक
बुला
सालों
फटती
sab
survey
चलन
खड़ा
जिससे
अनपढ़
भारतीय
😪
t…
औकाद
मिलने
war
chinese
देशद्रोही
बोलोगे
डालो
Malik
@akshaykumar
निवेदन
कहती
sid
होगया
हासिल
आसान
मंजिल
क्योंकि
😇
that
जल्द
join
नाला
@BJP4India
@Tejasvi_Surya
its
मुल्क
series
सजना
by
कत्ल
मुजरिम
मां
समझता
चढ़ा
@SuryaEdwardSta1
Sushant
@rssurjewala
चिरागों
मदद
बादल
छोटी
दहन
aaya
@Its_SakshamR
अंग्रेजों
राज
जिनको
लिखना
सुन्न
कचरा
जैसों
तुझ
खाया
सनम
मुझको
students
दूसरी
delay
ज़रूरी
था?
imran
@sarcastic_chiku:
Missing
20
crores
क्यूँ
ab
@BrokeBeardo
पूजा
confirm
किए
मुझसे
करवा
हं
dhoni
डी
t
Ali
jasmean
they
their
second
🤭
@cr7_Akkian
@SaswatkumarMis8
@nilesh_parvate
ग्रहण
जबसे
चाहा
पल
काल
तीन
भविष्य
@itsSSR
❤
आँखों
इश्क
वहाँ
पहुच
@ravindervashi
करेगा
@RajatSharmaLive
SSR
सिखा
photo
shop
two
wheeler
जुर्म
शाम
जाम
#Allah_Prohibits_EatingMeat
नर
saheb
कहेंगे
@Ashishc81757846:
शिकायत
सा…
shoot
They
@sid_dhi1:
Dekho
एक-दो
खामियां
Jaise
lyrics
जो-जो
🤷
Lady
गागा
डाकू
सर…
चतु
सड़क
उतारने
temporary
uncle
episode
देखता
doctor
असली
आँखें
No
बोलेंगे
shah
कहानी
chad
@DesiMusicFactry
आधा
tony
@NobleDoom:
भेजा
co/TfK3cKtyav
good
8
24
Same
Neha
@Anurag_Cricket
पैसे
मी
@sachaanx
@abechalhatt123
@AR_Reigns
@Abhi24231
@sprinklefrosti1
@Ranoo1799
@IM_SNEHA__
@nhi_pta1
@Jasmine
@Vkrishture
@pkrina_1010
@Aryantewari2
@Shizuka77777
@XiXiping123
टू
बन्
heroine
🌚
@SupremeCourtIND
☺️
@Rashamians_Adda:
#RashamiDesai
#Rashamians
@TheRashamiDesai
co/v09sb07Ldh
@IamRealHasan
directly
general
statement
@KanganaTeam
@RubikaLiyaquat
@SwetaSinghAT
point
Note
pro
launch
होगा?
फरक
पढ़ना
But
मर्जी
अंत
#pubg
star
meko
भाई?
indirectly
तूने
@Wo_Sharma_Ji
@IamGroott0
@TiyaGhosh11
dont
मजे
@sandhya78005483
सीखना
@TheRealKhabri
@EndemolShineIND
खरीद
online
It
वार
आलू
नमस्कार
दिखाई
फिरसे
@Ravan03693623
@rajput_justice
@pradip103
@nidhileo
@Rhythms22
2nd
state
idea
protest
tring
बोलती
poke
गंदा
बिगाड़
#BiggBoss14
अच्चा
have
about
nice
करूँगी
rules
boss
🤧
@Swati_IKR:
से…
@gauri_budhiraja:
receive
verbally
beats
ac…
कौनसा
🤣😂
movie
ko
कुरान
33
@tum_pukar_lo
chat
finally
months
bubble
government
सोचते
सन्नाटा
भाई🙄😑
troll
kar
raha
@real_khabri_1
इनकी
उड़ा
जिम्मेदारियां
पड़ती
जिन
ख़त्म
देशभक्त
6
जरूरत
कमजोर
पुरी
माया
Nagin
@SonuKum59437675:
@IndianEmbRiyadh
November
flights
Saudi
कु…
@shehnaazgill199
@Battle__Angel
फंस
कारोबार
मकान
10000
हजार
मा…
सहारा
apps
इसीलिए
crore
मई
तैयारी
कांग्रेस
कोरोना
आत्मा
d
आया??
😳
@Mustafa20814448
@GouriBhide
@vivekanandg
@AUThackeray
modiji
भाइयो
what
there
sad
Bihar
दिलों
@yourBabulal
under
@Bolo_WaQar:
Corolla
Civic
#WeAreUnstoppable
against
बनती
@Tehzeeb54492175
scene
सुनता
figures
होसकते
emoji
फर्क
single
future
मामला
police
लड़कियां
हाथों
200
जादा
बनाना
अन्य
जलसा
@RiseofBurnol:
@one_by_two
never
@News18Bihar
Delhi
Asim
million
record
मौका
@IamNaveenKapoor
हिंदुओं
डाले
publicity
तीसरा
@jaun__elia:
“सब
समझते
गुमान
क्या?”
Mahira
सदी
गन्ने
flop
डेटा
अचानक
U
N
cost
भक्त-चोदी?
आदत
facts
पाना
Haha
@IlhamGoni
सफाई
#RAS_2018_INTERVIEW_CALL_THREE_TIMES
@NitishKumar
काट
70
खूबसूरत
बचे
चोमू
review
कबूल
You
Nainital
@Aastha:
Where
Rohan
रही?
निगल
Dear
मेहनत
जिसे
😆
@MHKhalid51
@majorgauravarya
तेरेको
आया?
beech
कुर्ता
Pajama
नशा
हमलोग
new
सब्जी
लेता
घोटालेबाज
Maharashtra
stuck
वापिस
देनी
break
इंतज़ार
hours
Form
बुत
ढूंढ
हैं😂
age
19
ताकि
Sara
Time
दिखी
Dance
देदिया
बेचारे
😂😂😂😂😂😂😂…
बल
Vikas
varanasi
पलट
चुटकी
oregano
ramesh
बौना
घिनौना
भिगोने
gaana
पूछो
propaganda
card
नाली
सीखो
singing
rail
बारी
संगठन
अपुन
We
Tum
गीत
गुम
शुक्र
national
view
धरती
देखिये
self
जानी
hope
ज़रूर
गधे
culture
समान
now
@divyadjj06
भक्त
Nation
First
YouTube
घबराया
Views
Complaints
दोहे
गिर
खानी
Only
days
left
till
2021
होय
positive
नुकसान
करलिया
😭😭
@SushantBSinha
महको
@KabirBackup
@aishwarya_10:
without
proud
feel
irritation
@kunalkamra88
@MumbaiPolice
शक्ल
खुले
नहाने
quarantine
सुनते
किसको
भाव
@LiveLawIndia
निकाह
किया?
गद्दारी
भूकंप
अन्दर
घुस
रखो
गवार
up
@SauravRnc
पढ़े
लिखे
समझाए
english
रोटी
बचा
रब
झूट
🤣🤣🤣🤣
जानती
#Nehru
दूध
बेहद
things
@FranceinIndia
@TejYadav14
photos
@SidheartChandan
चारा
त
कहे
तब्दीली
हें
जिहाद
चेहरा
@peaceforchange
attack
लाती
गाऊँ
???
मनुष्य
जीत
@imVkohli
ख़ुशी
@kkbawaji:
मुलाकात
do
कौ
सोचा
टूट
सूना
डरा
h?
बनके
हो😂
(
#SSRians
जीन
बे
@Aarzaai_Ishq:
“आज
sellar
सबब
शायिद
manager
history
औलाद
account
राह
DRIVER
That
@g_tripsy15
@iPriyankaBhatt
जिला
छुपा
निकालो
@Arshi_E_Sid
खतरा
करनी
@OpIndia_in:
चीन
दोबारा
बोलेगा
pistol
दिखाके
wrong
your
चूतिया
sidharth
Twitter
नाराज
ता
शादियों
शोर
रोता
year
मिलेगा
Rubina
dm
देखती
discussion
1st
picture:-
@sagard:
आलोचना
हैं।
लिखेंगे
नाग
@thekomalchauhan
अकल
south
rest
बनाते
category
Tweet
यादें
release
se???
Killing
veg
रहा?
लेन
इतिहास
National
crush
@pinuwagh98
need
नौकरी
deepika
इसने
sushant
June
tell
बुरे
-#TwentyTwenty
दादा
He
market
mein
ताजा
an
@iHRX_dvn
@AimaDvn
@Ashukla90
@BB13_IAmShree
1M
auntie
बेटे
5-6
mummy
कसम
चाहती
करूंगी
#SSRDeservesJustice
विच
चार
Indians
end
virus
जवान
मानता
ज़रा
@Merasaya10:
आखिर
मुल्ले
पड़
शरीफ
आह
feeling
सज़ा
करवाने
fit
शख्स
mantri
आजकल
मुफ्त
मांगेः
singh
ढाल
यू
UP
😂😂😂😂
@Shaunak83804647
खो
जेटीए
कही
ids
gaya
Don
एकदम
हार
मानी
Bank
इनके
@ksb_thoughts
multan
@AniqaNisar
कीजिये
say
Toss
waste
unemployment
years
@SonuSood
so
बेशर्म
ज़रूरत
बनाएगा
चाहूं
tamil
महसूस
नंगी
रूठ
vaccine
लड़ने
aur
शामिल
उल्टा
भागोगे
पाई
@RagiSangit
जीवन
व्यर्थ
समझाना
😔
तोह
dead
Guys
कहें
Good
जन्म
प्रभु
मिसाल
govt
सफी
गांड
)
@Sid_Ki_Laadli:
Pure
expression
अलग…
देखें
सोचता
Sikh
इसाई
bharat
loan
😘😘😘
#रामपाल_चूतिया_है
@Himansh81759139
@RithikRaina6
@PrayagrajWale
@cadet_snakshi
@hariom11021995
रखने
बने
300
gautam
marathi
normal
🥺♥️
सुनकर
दुःख
retailer
आओगे
सबका
2018
था😂
Sharma
जनाज़े
लगा😭
dodge
co/9q9lv2lA…
@LahriSunil
@Asimxdeepu
@asim_aakanksha
आज़माइश
@bedazzledblue26:
dekho😭♥️
picture
लूंगी…
vanity
में:
ससुर
@deepshisid
आपलोगों
अल्फाज़
One
week
terrorist
area
@itsPiyush25
शांति
@StupidosaurXnwo
@RoyalFamily
ओर
म
Enough
ईद
बिचारे
@pragatic10
2011
World
Cup
cricket
@auqat_may_raho
आऊं
उड़ाते
कोना
रहने
कार्टिम
@PoS__community
गंदे
क्रोज
लोग?
वैध
boycott
wood
@@@
rubina
@Shikhas29517170
@GAUAHAR_KHAN
What
happened
dear??
bitching
gauhar
हराने
@MalikSaqlain71
@waleedkk90
औरते
फौजियो
बदनाम
गलतियाँ
@aktalkies
अगली
*किसी
भी*
moment
romanticise
@Raghavv_sharma:
co/oJBKuCpnf0
@RamRajy29997849
username
का😂😂
@AdityaSindhi:
बंगला
She
boyfriend
co/gVsZvn…
@bekhayaalii:
खुलवाइये
मांगने
writers
romant…
@ManavKiAai:
@asitaula99
@MadanSiwakoti11
@BidiBarman4
😛
@PinkiDhiman12
जगा
धोखा
तारों
pdega
😂😂😂😂😂😂
@billebichud
अन्न
कै
यारी
ताई
samosa
खिलते
थाई😌
@Laveena_xo:
कूर
फट
🔥
@sidharth_shukla…
@RajaMansoorAli1
@Hepinees
नारे
दिखाओ
भरके
जितनी
बर्दाश्त
केरसकों
#khote
हकूक
नौजवानों
फ़र्ज़
#WhyPCBIgnoreSindhiCricket…
@Samriddhi_KR:
:-
पासन…
@I_DntCare:
🙈🙈🙈😂😂😂😭😂
@Spotboye
#ShehnaazGill
co/eKNpkx0OFF
@sunnycarry:
@GBSatishGupta
@OfficeOfRSP
@smritiirani
कुर्सी
लालसा
अबतक…
@umashankarsingh
Bhahdurganj
सीखती
सभा
कीजिये🙏
@shubhangibhos20:
Bb14
पकव
irritating
आरही
v…
Haleem
adil
@HamidMirPAK
कुईं
rangers
भेजे
क्रावो
@NityaTiwari118
बाजपा
ye
मैम
@sondarvasandip4
@ashvini_parewa
वहम
🐒
दम
Serials
Movie
बनाता
टोक…
@Mere_khyalat
@praveen_bable
संगत
@SRKzFighter1:
Raj
Malhotra
list
हैं🔥
co/t6L7p0bD0n
@Republic_Bharat
lecture
देखूं
😀😀
@SaraSushant2020
@CancerResearch
@AmericanCancer
@CR_UK
जिम्मेदार
cancer
बेबकूफ
सड़क2
duty
responsible
lotus
@Waleed143Sana
😂😂mai
थी😂😂
@AAPNoorBano
@_avi4
@wafachaudhry8
@Abdulmannan0092
@DR_JAVEDAHMED
@AnjanaOmModi5
@Jahid_khan74
@GaddaJp
@mai_bhi_zoya
@afz900
@4hmadMukarim
@Deshwal240
@AMANSHAN02
@G5MSabir005
@Rayaan41
@alvi_vahid
@angeltime21
@RahmanA74234858
@Wamiqshaikh3
@ReahChakraborty
100%fb
@sidfanforever01:
लाओगे
@ishkarnBHANDARI
@Swamy39
System
गहरी
अराम
naitik
jimmedari
@Rajkuma51911001:
#SaveAdarshMembers
21lakh
निभेषक
पर्सन
सुने
जड़
समाधान…
अवाम
मुतालबा
भगोड़ा
co/f6WTE6ZSxN
@OfficialMonishk
हल्ला
*ये
हैं*
as
फांस
जाता😌
co/SDUVxlveoU
finely
back
Pune
👽
आटा
दुबारा
@anshkmr578
@Baliramyadav007
pseduos
उठाके
उठाकर
आदर
ओला
उभर
@Friend4Baan
@ShreyaKisan
@AnuradhaBhasin_
@Nidhi
संघों
जात
भड़वागिरी
दलाली
Fakenaazians
gobarian
ghina
फूटती
@Kuldeep_K_NMOPS
@TRKULDEEPKHATRI
@SamagraShiksha
@adeshguptabjp
@JPBhaiBJP
@ritugoelbjp
@garimaguptabjp
@BJP4Delhi
करवाओगे
मास्टरों
से?
कटवा
containment
zone
lab
clerk
भरा
झुकने
तैयार
salary
दिलवा
अटका
@Asli_Shivani2
Or
इन्ही
To
Alag
रहोगी
हिंद
@nut4messi
आंख
@nabaprava:
#BhulaDunga
कमीनों
92M
थो🔪🙄
network
खाड़ी…
@SSlove4evr:
hypocrite
@Meera51688347:
@imjytk
पक्के
लफ्ज़
मुकम्मल
🙏🙏
Jupiter
@hey_its_Insha_
@purpleisciouss
rashmi
चीखती
चीखने
@khanumarfa
speech
press
हंगामा
ticket
@GamingGreninja7
@nmtechiconic
@TheBharatGarg
@Micromax__India
border
अब्बी
trade
चीज़ें
घुमाके
चीज़
tech
component
@iamamitalok:
Murder
पकड़ो
#CBISpeedUpSSRCase
@LuvIsMyRealName
@Motto_Sana
समझी
@Shashik26476004
रंगदारी
@BharatMochi
@JmuKmrPolice
नेताओं
हरकत
Asaram
Chinmiyanand
@Dinesh_Jat_Kabir
God
Srishti
रचयिता
@Ssumier:
विनम्र
gf
“दिलादे
Chandigarh
में”
बुर्ज
khalifa
मान…
@Pradeep12945859:
image
गिराने
guys
जरुर…
@zehar_ka_teeka_:
काबिल
ढा…
निभाता
lucky
co/yM78YqzAZT
@nto1927:
मित्रों
स्क्वैक्स
नारद
नारदपाय
@SeemaSidheart:
gang
Slippers
हैं:(
वो…
@SampatOfficial
@rashtrapatibhvn
@drdineshbjp
@MahendraManiT12
@PareekGovind2
@JAIMAA1008
@jankibaat1
@Real_Tribhuvan_
@SHAILENDRA8621
@DineshShar80
@RealSarswat
@AkankshaSinghIN
@manojksingh9333
@JPNadda
@swatantrabjp
really
shame
#2022
&एमएप;
#2024
सुधरे
जागरूक
बराबरी
बुनियाद
क़ाइम
मख़सूस
#WhyPCBIgnoreSindhiCricketers
@sanket
सबकुछ
पूंछ
Mirzapur
campaign
MirzapurKiGaddi
खजोदबोंदती
highlight
co/arUJfs0DVI
@FilmHistoryPic:
“हो
तुझको
करले
इनकार
written
Anand
Bakshi
Jatin-Lalit
brother
Vish…
घाव
मरहम
@MarkusAtherton
@rouleau1
भई
language
कड़का
खुदको
मन
Duncan
मरानाका
शौक
@Ambreigns13
@srk_akjha
@harshitdwivedi_
@WWEAmanKumarJha
😂🙌
@DevilVirpal:
बही
co/GJnNdi42MB
@VinayaKantRai2:
बुझा
@avyukt:
Gujarati
food
बाटी
co/80oVn8gN0S
सोने
माह
उगले
स
पड़ेंगे
@vikramfan5
Epi
@NazSidheart:
मोती
dete
तुम्हेरे
गायन
tumare
पढ़ी
दूसरा
isilie
beta
@_Ek_Ladki
@DeepsUnique3434
लगा😅
@swati709786
गाड़ियां
चढ़ाने
होली
animal
sympathy
shot
आयेगी
Fake
feminist
@randm_indianguy:
Deepika
Aunty
Islam
#Arrest_Deepika_Rajawat
#Jus…
@DKhimdung:
दिलको
@chilledsex
णाःईईईईई
IDEA
रिस
@Monikakundu9466
@koko_hee_hun
reaction
त्राह
😏
@haroonsays__समझ
MILIND
flow
बोल्डियां
MA
च*दा
😶😧
@Mananstar3:
@LaghateParth
@niti_taylor
@BBCStudiosDgtl
@BBCSt…
vdihan
Sabha
polling
co/0h7JzkUbMb
@Wild_Squi
@fahadsultan51
हश्यर
literally
जिन्हें
नही?
exams
selfish
mpc
Pmdc
@asadowaisi
@khangirl_123
@ahmedpatel
Asad
shaikh
मिटाना
@gum_gum_star
@mrperfectshukla
@SatyamM1112
खाती
पतली
जाउगा
गाड़ी🤔🤔
@0o0MeR:
नफरतों
नजाने
@ChepMatHoo
😹😹
@deepxgagan
@Himachal___wali
पछता
Agar
पसन्द
लिखवा
लुंगी
😂😂😂🌟❤️
hussain
हुस्सनाए
माला
जप
co/BZWqHWinpX
@shyampa25125975
vs
#dustbin
searched
oh
@Soul12345Lost
direct
दूंगी
@R_Rsa24
हो🧐🧐🧐
1crore
हैं🤔
आगयी😹
मु
blanket
बेठ
हैं😂😂😂
@BestOfSalKat:
co/COs9c99aOD
@Areeba36092343
@Lovee_Sidharth
@nehakakar
@AnshulGarg80
@iamsrxx
अरीब
samar
@HappyHarsh09
एबस
Msd
Dhoni
राहु
हैना?😂😂
आगया
@TanayDebBarman2
@MahadasSoumya
किसकी
जली
niwasi
रहा🤣🤣😂😂🤣🤣
लूंगा
पाट
जाएंगी
बुदबुदा
don
ठहराएंगे
ठहराना
burnol🤣😂
normally
disrespect
gony
bhasin
#disgusting
cross
limits
गिरे
@Ittzz_Rahul
retweet
😦
@Kishan2
@rajat_jain_2
15-20
डम्ब
अंधे
Negativity
hatred
Reality
सहा
@pranavsawantyo:
स्वयं
किसका
Keshav?
#ShriKrishna
युग
इसमें
पढ़ोगे
शास्त्रों
important
@showwhatyoudoin
😂😂😂😂ek
फिदा
हवाओं
उड़ता
शोना…
@teluguchokri
@BombayBasanti:
#32YearsofTezaab
(Nov
11)
दिलबर
#AnilKapoor
#MadhuriDixit
#Chun…
अति
दुर्भाग्यपूर्ण
tha
सनातनियों
चेते
क्रियाएं
पुनः
उजागर
hogi
co/wZhpyi5gM9
साजिशें
मिलें
दुबारा…
@SalmaPa43527393
@swatisa00876523
नंगा
करों
फकेनाज़
उकत
@drsarakhan0
pak
दामन
@AdityaS_Indian
had
बचेगा
@jkd18:
मार्च
काशी
गई।
दश्वमेध
घाट
नौका
सवार
घाटों
दर्शन
हुए।
केवट
ज्ञानी-type
महाशय
थे।
उ…
30
बनाये
बैठी
MusaImanon
mandir
funds
Udhghatan
पंडितों
रूप
धारण
musaImano
SUNI
co/eNDGAElSJv
@iqrapz:
सब्र
Jameel
आजमाये
“Alhamdulillah”
कौड़ी
reported
समजे
खतना
चाहू
काला
आंखे
अंधी
कान
बहरे
@arynewsud
खुसरे
ठुमके
@shardulpandit11:
@pavitrapunia
@ColorsTV…
@DelhiPolice
दुकानदार
Gandhi
dekhiye
Mans
mans
मुर्गी
हिरनी
आँख
कट
नरकी
जाय
Sat
@SatyendarJain
Nice
नीतियां
मोदी-शाह
ने?
कित्ता
co/KVmWnl4fdD
@wanderer_haven:
sa
mars
took
Literally
#Shona…
@PriyankKharge
@ECISVEEP
गुलामी
तलवा
organization
द्रोही
लोकतंत्र
लड़िये
Sarkar
co/yVc9cjBRBy
जागे
permanent
Ambuja
cement
#ownwords
#TruthOfLife
@Thesanskariladk
Meanwhile
@sadafsheriff35
हाकिम
@drharshvardhan
पोंछनी
crime
patrol
IPS
@fakeluvin
@___Harsh_____सब
hai😂😂😂👍
@abetujaare
co/XfPfT010tm
@pratiksha_drdz
@DarshanRavalDZ
TO
तारे
PAR
🥴🍻
@IamYasif
chars
khan
ई
@Saudager5:
किंग
Bahadur
zafar
Rangoon
बगावत
कुचल
हिन्दुस्तानियों
Inquilab…
Raja
raja
जिंदा
जिन्दा
co/gmauyHIqFY
@inikhil16:
2mins
screen
space
गया😭
fair
है…
@stylistanu
winter
शक्कर
जमकर
@moni_2712
😚😎
खेले
anurag
pulses
cover
7259824071[PHINE
PE
NO]
#HELPME
#fanofanurag
#anuragcricexpert#dream11king
co/7Zfm8m8eM7
@FullGyro1110
@shayrana___khab
@PrashKiler
@_DreaMXGirL_
@Prshnt20
@sbmchyha
@marwa_raj
टेम्पलेटियां
तरह😂
शत
प्रतिशत
acting
tel
रे
co/ysv1xPmiqU
Judge
लोया
आंखों
हत्या
Court
चरणों
Aalok
@imShinde777
😂नहीं
London
पिछली
genuine
Meaning
बेहतर
intention
TOUCHED
आया?¿?
Writer
दीदी
Hain:)👇💙
co/JD0pHLh7GU
@vagishasoni
@Theindianmeme
@sudhirchaudhary
@AnupamPKher
@ManMundra
@sardanarohit
@anjanaomkashyap
@KirronKherBJP
trump
गरीबों
mohalle
slums
छुपाये
हाँ?
@stufflistings
price
@NamasteyBTS
घसीटी
नकलीपना
SM
बिकता
जायेगा🙏
@Jaspaljat7:
बीड़ी
co/RQxBDq9qTp
@Kashmiri_hon
रेहता
Mamta
amit
Brahmin
cook
five
hotel
@tweet_puns
@ShikhaVirgo23
आया😜
@Rinkulovessallu
GIF
aaya😭😂😂
@jack_of_al
@Ask_Anshul
@Aabhas24
elaborate
bro
wanna
fight
either
छत्
wo
जान-ए-नाथवान
tasawwer
मजूरियां
छाईं
सब-ए-वा
अदा
dil-e-muztar
बेताबियाँ
मैरी
@StfuAndStreamBE
हाय
TENSION
@aslisherALY
@OrmaxMedia
सस्ता
Chinese
लियो
iPhone
वगेरा
@atulamist7
@AB36015
sorry
@APOORVA_DZ
😴
@Atish99183611
@abebhaadmeja
@madhura___
@RiseofBurnol
😂😂😂Bhai
बोला?
developer
cold
चाहें
internal
बहादुरी
😂अभी
army
PUBG
लड़ेगी?
accept
@asad_alee1
पके
@p_sahibsingh
Arvind
kejriwal
mint
channels
dhanyavaad
सोगई
भेंचोड़
लाऊंगी
जरुर
12th
student
छैया
thing
रहती
जंतर
मंतर
CBI
office
@_tune_hurt_kiya:
उठती
उठाता
@KhanEijaz
Jasmine
actually
बंदी
sand
baad
#BBTrendMasterEijazKhan
#PreciousEijaz
@rameenistan
करों?
@VedantSawant888
wives
@haadheyaar
@Singh_Shelby7
Have
भाई😊
@Aapki_phopho
Dm
limit
हैं???
मुझ
गमला
phools
बढ़ो’
gig
चलाता
ड्रामेबाजी
राखी
@_bannokisaheli_में
@ppbajpai
मना
हाशिए
सदियों
idol
उसमे
hasty
रोते
Prophet
Muhammad
(Saw)
@SidNaazianHaqse:
देखू
co/xfyPVa0pdi
@jihadiyo_kabaap
@NeelamKha23
@vishal_patil47
@DilipMi75082467
अंधभुक्त
research
अंधभुक्तों
फायदे
circumcision
वेग
कुंडली
दोष
कराओ
स्वाहा😂
co/oipLsg5Xud
@GreeshmaShukla
लिब्रादु
IMF
बसानी
@s_wati_:
co/N0r8P3fJSL
surah
52
अनेक
बीबियों
farman😂🤣
co/BQWhzD1ZDa
डरने
🙈
@piyush_speaks
@MatrixSuperhero
बोलके
co/iRQCq4BIxv
@Easiilyannoyed
लूना
पहचान
❓😛
ना-महराम
ब्रोस
महरम
co/MhcUmfIhsh
बादलों
लूट
@Mrigank0712:
Jasmin
reality
saamne
@andha_katil
7
नागरिक
सूचो
ग़रीबों
😔🙏🙏🙏🙏
@DrSJaishanka
“हैप्पी
@Dark_Ajith69:
Abhe
MC
किउ
Streaming
ताला
TL
भोकना
का…
@dshah_9:
सूअरों
झुण्ड
strong
आग…
@BadmashBauva:
चाहे
बनियों
कमाए
पैसों
उठानी
बनिये…
जिनका
rape
लड़कियों
जलदिया
इंसाफ
kya?
@ZeeNews
Modiji
भ्रस्टाचार
hindustaan
@gooljaar:
@moronhumor
brownie
points
32
co/xiY1YP5t2a
@aNshu0218
चूमू
भारी
चुटियापा
दिखाना
Shakti
keyboard
warriors
@kairashivin2618:
@Janhavi91554884
मनोकामना
huwi
co/4n3a0STUb4
@i_squeak
padein😄
@GappistanRadio
Politicians
Al-Gore
जहरीली
कुतिया
@shinetruth1875
@Monusingh1237
@vishal_pratap05
@manoj_begu
@Ss_Dimpal
@PrinkaPatel1
@tina_nagar
@brandlalit
@Adityaagrawal77
@Rastvadi77
@gyan_rajawat01
@PoonsT06
@jal19jan
@MBBS_Khushi_
@real_alok007
@AKB_IND
87
@love_me_Jindgi
@IamAnaya33
@SimranIsLove
@Aishxtweets
@ProEyeson
@ProfessorEyesOn
@Cute__Ruchi
@zoyajannat22
@live_love_me_2
@nawsaba_2
@Armyy2110
America
kiya🤣🤣🤣
co/4r9VEVyrhD
@SaniaNishtar
@PakPMO
@RadioPakistan
@GovtofPakistan
@Ehsaas_Pk
@bisp_pakistan
@PPAFofficial
Madam
मुग्ध
देन
अज़ाब
हैसियत
बाती
किराय
privet
6000
rent
guess
@harshu_4:
#BiggBoss
weekend
@MirTharkiMir
@zaynumbb
@MudgalWorld
समझना
जानिए
प्यारे
रसूल
@deewanaTauhid
@Bollyhungama
celebrity
@manukumarjain
Xiaomi
43+
made
बदल
@yadavakhilesh
5400
घोटाला
मिर्ची
@shivarora719
कॉर्निया
14
नीत
September
मास्क
sanitized
Full
@manishkumarttp:
चाणक्य
अहमद
पटेल
निधन
गुरुग्राम
निःशब्द
शां…
@being_shuboo
@13Sidnaaz
😁😁
😂😂😭😭🤣🤣
co/rmjIAHASUI
😳😳😳😳😳
@ATULRAJ1965
अछे
😂🙏
co/fYpUtLjhVs
@Bharatfirst10
@ShivSena
🤣😂😂
co/8usn84jWYt
छीनना
माध्यम
shri
narendar
दास
modi
माता
घूमेगा
or
विधि
@mallikalicious:
ससुराल
🤫🤫
@Dolphin0778:
Namastey
Human
True
Soul
भारतीये
patna
(Long
लिव…
trial
अत्याचार
सजा
याफ्ता
meherbaniya
@vibrantvivek_:
पा…
rotu
जाओ😷🙂
co/9JTvUo91rR
co/B07LmmKjBK
@Damsel_is_high
Still
little
संस्कारी
Parents
आया😄
@Slient_ssh
भूतनी
kro
🤣🤣🤣🤣🤣🤣
@Muskannxoxo
खुन्नस
Rubi
negative
@tripathiak13890:
hardworking
story:
#EijazKhan
dialogue
पवित्र
@iEmNK
@ZeeshanKarimKh1
@ashirazeemgill
कराये
टैटू
धमकियां
@Taimur_Laal
china
अरब
USA
कर्ता
काश
हस्त
@03mg22
@zee_shh
कट्टा
@abdullah_0mar
@khushbookaur22:
@SamikshaWadhwa
Yup
mam
sense
board
jihad
गये😊
@AnUjjwal
बुलाएंगे
जाऊँगी
😂😑😑😂😂
टूटे
पार्टा
:))
:-Single
huu
🙂🤦🏼‍♀️
co/SeLbMYSVnr
court
appradhi
बेल
लगि
handle
Drug
पढ़के
छूट
@BiharKaLall
first
होंन
समझती
🥺🥺🥺🥺🥺
co/M9zHolsi6D
@_mr_zenitsu:
lips
पर👄
cheeks
पर☺️
forehead
Vaseline
@RVCJ_FB
captaincy
voice
जी****
मारना
ऑडी
run
मोटे
rohit
bare
kid
@Ashishissm
गुरु
@DhingDhongDhing:
@Sid_ki_Naz
Naziya
🤧🤧🤧😂😂😂😂😂😂
@ksz399
Saleem
lafafi
#PDM
#Coronaviruspakistan
फ़ैल
Mager
हकूमत
भौंको
opposition
pdm
@TOIIndiaNews
Beijing
part
Akhand
चूतियों
आएगी
कथा
हू…
गिरेगी
@Sufiyaan_Asim
रहें
बढ़ा
रहीं
असीम
co/2xBo11ErgV
shehnaz
@manish4525
pakistani
पुशों
%
क्यूकी
अनजान
दिखते
बर्दास्त
Kritika
Aditi
Diksha
Vishal
Happy
Birthday
#MahiraSharma
hawasnaaz
चूमिया
लेटी
ज्यादतल
hero
बनना
खुशाल
हवासनाज़
फसेगी
निकलेगा
@usmanAbbasi56
@JforJaish
@AkbaruddinIndia
चैन
defence
budget
diwali
पटकी
जलते
भीक
मांग
abhinandan
बर्तन
@ParodyOfShravan
social
distancing
co/Jeg4XJFEkK
@Iizlit
बनोगे
@NazirLeghari
25
उल
हक
क़ासिमी
सगाई
नूरे
पटवारी
कमा
ganja
अबसर
आलम
Naeem
bokhari
work
भौंकने
बेवजह
जितने
मांगेगा
बारो
उतने
रेहना:-)
co/owa0txKo7z
कुच
co/VYvO8Rh1Xr
कित्ती
कोटड़े
co/bZTdR9BWa9
@waddu_क्या
alright???
@oldschoolmonk
woh
scenario
कार्लो
उथलों
underestimate
😂😭
@Msdian_radhe:
@salmankhanhk
@diandrasoares13
ignored
@JiHarsh1:
युवा
सहन
karega
#RAS_2018_INT…
@Vibhor11111
बुदबक
nitish
शिबुआ
ऐस
जिन्होंने
लड़के
बला
Sanghi
@ArjunReddy_2
@TLP_AMEER_Fan
@TLP_AMEER
@TLPPresident
बदलो
टके
@tanusingh4567:
Honest
pure
वीडियो
टीक
#ShehnaazG…
Sikhon
हुकम
Guru
Maneyo
Granth
co/OoJnEJJrMV
BC
गपे
गजब
बसद
tickets
@Srkiananosua:
Sinus
headache
उठी😢
@iamsrk
❤️❤️
co/xGdb93RfJm
@Akkian_Sachin
@arunbothra
अदात
@LobantiPaul
हंसता
ज़माना
बीत
Gaya
corrupt
तारीफ
@theplacardbhai:
Article
370
@awanish45_IPL
meet
@someone_famous_बच
@WeAll_ISPR
@KhawarCh
@Nafees4217
पीर
@GarvPe
@mayfair1958
@mgnayak5
@venkate98507511
@1967Vandana
@ind_rajat92
🤔शक्
@deadman_tw
@starrytalks
तमाशा
😂🤣😂
co/HIb0n92xAA
@ShabajQureshi3:
munesh
हटवाड़ा
jaipur
garbage
कर…
वाह
@eshapalmal:
Sidnaazians
कबसे
Yo…
@JavedMa15945471
मदरसे
मौलवी
@TaslimTabassum:
सिडनाज़
sath
☆
@Bhaadmejaiye
yup
tried
हीं
खांसी
नाक
co/Lxr1gF9rjN
वषा
😭😭😭😂😂
co/166Iz8nKUq
@1MeraHindustaan
गोभी
मीठी
सरसों
@Brahmas92572355
समझाओ
😏😑
aly
रोक
@innerv0ice_कौन
Ajit
pawar
71000
irrigation
scam
clean
chit
ncp
नेता
dekhe
@NomanSarwarr
@IFENetwork24
Mehdi
Sabres
मेहंदी
चूड़ियां
पहनकर
मारता
🔫
@IFazilaBaloch:
Mix
Hindi
बलोची
निकला
में…
tag
बाट
hain
किसीको
project
आजाओगे
@sincerely_epic
@44Ananya
@nups_lostsoul
करदेना
inpe
😭😭🚶‍♀️
करवाती
खातिर
टोन
lunch
sy
@FierceNikki01
ओक
परियों
@BASTFRIENDSHIP
remove
hashtag
co/FSItKFwRk2
Khiladi
Akash
Kumar
@Ravishndtv10_में
बेचैन
@kanshika_B
तीसरी
hu🤭🤭😌😌😌😂😂
@narendermodi001
चटा
हल्का
कालका
umesh
sharma
vidhansaab
चुनाव
लड़ा
middle
चाटा
पेशे
@its_mk7
रुलाओ
Kaamil
चूहा
Successful
डिजीशनके
खैराती
winner
cringe
Karma
co/cqRl0POHYB
@syed_mahsoon
हों🤣
@Gujju_girl_
@Akshays_Devil_नहीं
वेला
😌😌
🤷‍♂️🤷‍♂️🤷‍♂️
co/4laMhk2YWy
आशिकाना
@rahikadam24
@diljitdosanjh
😂😂😂😂😂😂😂😂
अकाल
घुटनों
Dancer
Singer
@BharatHamara_:
Someone
सच्ची
@wingsoffly
@ForeverUrzz
@HiNavjot
Wings
🐱🤣😂🐱🤣
🙆😂😂😂😂
@mohtarma_ji
41
Soon
change
निभा
बनूं
कसमें
du
टूटने
मामले
@EkLovya15
@Akshay4Hindu
@shalabhmani
2017
पढ़ाई
डूबा
railway
platform
काया
bhagwan
350
seats
mile
जानें
Pizza
स्वाद
काहेका
आराम
डोना
दोना
आइंदा
बनौगों
co/fPWfO1aMTJ
रेहा
जुड़ा
ला-हासिली
भला
Zoya
Rao
Wafa
@kapsology:
fact-check
जीता
झूंठ
Croron
पहुँच
जा…
@mukhal1d6
अजय
किते
ज़बान
CHARACTER
लोगन
naked
सुनना
earphones
@being_prakx
@CricCrazyJohns
sentiment
सुधरने
गिरेवान
झांक
गंदी
vibrations
भलो
rule
मोम:
होजाओ
🙄🙄
@Roflkimjongun
@50ml6
@Kamrudd67494294
@MAHESHBHARTI1
@KhanBab74944433
आतंकियों
talluk
at
@CloudyTone:
Bawal
Pandey
😜😜😜😜😜
want
#SidNaazLive
🤭🤭🤭🤭
@girdhan…
Such
🤔🤔🤔😂😂😂
रेज़
दास्तान
हँसी
@FierceNikki01:
मोना
जादू
टोना
@Parody_Uday
@Riddharoyc
@Parody_Beena
लड़ाने
बनाया?
😒😒😒
gave
#EDKV2
co/VvbMvdYeFp
@aruncho98206025:
@ola_supports
@Olacabs
@Ola_Delhi
किराया
c…
@alittlealive
नष्ट
थे?
@Saurabh_Singh87:
@iamRashmika
🤗😊
@Simran777799
@abe_loveday
@hatefreeworldX
@mahuadey20
@TheDeshBhakt
Yes
kunal
karma
धीरू
रति
recharge
Chintu
co/o36UvBTZd6
@sabtv:
छाएगा
Raavan
होकर
बुराई
जीत?
B…
सलाम
शेनाज़
Haye
co/5Ke2HQWXyq
@NainaRaathore
बालों
गंजी
कार्लेट
@MaxxAryan_79
@TIGER_SALMANs
@Naazu__22
@Mayakhan0902
@urs_MD
@BeingSPradhyumn
@Salmankhanfan
@ZoyaKha0487843
@AninditaSharma_
@consciousalfi
@being_AyShA
याय
🤗🤗😊
@GautamGambhir
@ParodyofSuman
@Alvinakapoor56
sumo
dear
सबपे
परसों
shravan
smiles
blush
🤨🤨
@nakhrehiza
@SM01102017
मेहरा
सनातन
Prabhu
Sree
Ravan
respect
let
soul
understand
mistakes
Ga
co/FyN7zEnub2
@09smriti
@sanjiiv_singh
दलित
वैमनस्य
समझमें
Rahim
जेहाद
कैसे?प्यार
समझसक्ते
लाने
वनवास
bio
लिखती
कितना…
@KumarMti
खिसक
BSDK
Indira
बाला
बजा
🤣😂😍😻
co/wgqW26XagH
@join2manish
@BeerBicepsGuy
@supriyapaul93
@Swats26
@Sairee
@jetsetgoin
@AditiGP
@sandy_carter
@D_Roopa_IPS
@M_Raj03
@ImHarmanpreet
@DrBronKing
@PriyaSometimes
@VidyaVox
@Lilly
@salonay
@fayedsouza
@dipika_bajpai
@IAmAnushka
@mipalkar
थोडा
@Sanjay0_3:
आएंगी…
@slayymedical
सांझ
ब्रो
rood
Sheen
क्याज़ी
pewan
@SohailAAura
@arpitsi12509660
kick
shifts
झाड़ा
जोर
झटका
हैं😂😂
@Sid_Bhoir
@Beingsajiddarr
खायेंगे
@krithika_shukla
हटा
हाहा
37
🙄😏
@yuvikachoudhary
awArd
मेल
गया😂😂
जग
@Sukhen2065
Goa
@lavleet_1997
@ArnabFanclub7
प्रकृति
नियम
@Glittsmarshmalo
टीके
@sagarkinare
laao
jaldi
@chitraaum
@aajtak
Arun
Whole
टीएम
corruption
बचोगे
तकवालों
सिरजी
समझाऊँ?
@sardesairajdeep
आजतक
murdabad
WARNING⚠️
@Manisha56596903
cup
logic
@DhingDhongDhing
नो
नूर
समझ?
@Ananya241002:
बोलूं
😭😭🤧🤧🤧🤧🤧
Haaye
🤧😭
co/HkPLc9…
आएंगी
@FanSidna
@ModiShahi
चलेगा
‘मैं
अकेला’
चैहिये
ok
blocked
telling
fault
अफ़सोस
दिखाती
बुरी
even
upset
after
blocking
होप
शिकवा
@Drama_Queens___:
punjab
shehnaaz
घूमने
na😂😂😂
बेकॉ…
वेद
उन्हीं
चीजों
@ArmaanA89180538
आज़माओ
set
जाऊं
sath🤪😂😂😂😂
@SadiaDogar1
तेजाब
कसूर
@rhtsuhag:
#SidHearts
#SidHea…
@12am_queen
भेजते
@The___Phenom
Arijit
@ankitp0007
दोह
Arnab
खतम
@UnderRatedd_AF
@Ro_Subh45
@bhardwajshiva19
बगल
@Naveen27606011
येही
reason
राहत
मिलेगी😍
Jeddah
co/VBzC3U51vx
@Shikha89733359
Municipality
इन्हीं
तय
thaa
😂😂😂🙏
@LadyVelvet_HFQ
इंशाअल्लाह
औलादों
co/jUfUiprl3S
@raggedtag
नामक
उन्होनें
उठाया
शे:
गिरता
छोड़ता
@zaynmalik
बनदों
छोड़ो
practice
mutuals
@me_aftabalam
माना
Aftab
आकाश
फसाकर
@JoeBiden
चाकू
बुश
😕😑
@iamtigerkiller
@mehar_singla
@ndtv
counter
अंधभक्त
Atleast
घुसा
हथियार
सोंपों
Mind
धोका
respond
कृगा
धोके
PR
साबित
control
co/VdGrGh2yAI
@Me84988933
अबसे
पंचर
बनवाना
bike
repair
करवाना
नसीब
सोचो
बहा
तुरु
लॉबी
co/acnygeRX5Q
@Shankardev12
भड़वे
hafiz
said
niyazi
Govt
बनवा
हराम
खोर
tahir
Singh
चुनें
@paarkhisthe
@boldbalika
गये😭😭
@Surya38915921
@OfficeofVa
Get
lost
ताली
vibhur
co/XpTgE2fr4g
@Shushan70220634
गवारों
dictionary
देखी
wikitonary
whatever
agree
बोलूँगा
@rabai_l123:
बेइज्ज़
हैं🤞
@SaleemFarrukh
ओढा
खंजीर
दूं
@oye_gujju:
🥰
@AnishaGupta24
@Wandere43023454
बच्ची
😅😅😅❤️❤️❤️
@innocentkudi3
Swara
#Duniya
#Rahul
AhmedPatel
#Vohra
लता
@sofibushraa
@ShabaanZaira
malik
Old
old
#PratapSarnaik
दोषी
🤦
आरोप
बैल
चांदनी
keep
raiding
nation
@itniihappy
🤘
co/YfnKIRs0Kt
@Exoteric_savy:
Comment
Shukla
comment…
@Shivu_Memes:
लौकी
(Loky-key-Sab-G)
co/omdeE14Bqo
Didi
आउंटी
🤣😂🤣😂
#WeekendKaVaar
UNCLE
बुलाना
#KKA
घूस
खोया
सनातनी
खोए
😢😟
co/a5k5fumz2J
साथ।
विकाश
उलू
बनाओ
कला
लोकप्रिय
AAP
@sidheart
@muskaan1212
😲😲
बक
mood
खरब
@Mpyadav70980308
तोहरे
एच
कोइयो
कूची
टिमेवा
preacher
Media
भाषण
inn
इख़लाक़ियत
मियर
ति
co/jE2RbB8E2w
घरेलू
क्यू
फिरंगी
@BigBoss14Views:
Bigboss
supported
punished
Aly
Goni
Sher
🦁
भीगी
बिल्ली
🐱
@mocker_thug
माफ़ी
putra
nathu
aatankwadi
औलादोको
मरने
@Ash_imranhashmi
prob
co/LNU77XiC2T
@not_your_dactar
@rubiaabrar
Mood
🤭😉
Dr
Ahaana
47
बटवारे
islamic
सरण
देकर
तादाद
बढ़ाने
है?
co/sYHpsgpCM2
@SRKUniverse:
पिघलके
शीशे
ढलके
✨💖
#ShahRukhKhan
co/BfXkHdBP4K
@ismail0704
@raj_up
@AliHassanQaimi
@TheAvenger___
जी@नाद
missile
co/o5W8bAbkmg
@darknight_coder
बसतर
दोगला
पन
2भक्
jao
co/9D5eYZvaeI
@Abdulla30824754
बुहत
फ़र्क़
बंदूक़ें
तुम्हरे
मांगो
लागे
गी
@aayzedess:
खौफ
त0ऊ
ज़
नदाग
h0un
#MirzaGhalib
@Sshivi_
@Priyankaboliwal
@funcasterr
@DCtweets_इसको
@prhlyyaar
@backbencherdork
@Dr_AkashZ
@kamchorakro
@SyedaaHummah
@_theTaurus
@insane_medico
@Ja_bhen_sooja
@FoolishQuac
@DaccSaab
@Parh_Lo_ओह
होनी
मुझे😭😭
@Cactoideae_आपका
:)
@GabarSingh
@tarhub
@AliaChughtai
underground
Mr
Bhaskar??
go
dill
@ShopClues
abi
report
kya
@akshat200127
@tk_sayings
co/hwTiFaCCwA
@ArnabGofficial7
@Ash46973998
किसके
🤣🤔🤔
@NikhileshKumari
Ishwar
बराबर
भेद
संविधान
@AajKamranKhan
co/5JKYOesl6D
@naman_nan:
🔥🔥
co/k1TF3W4Aa5
@kashmircrownss:
बेसरा
यतीम
जावेद
मर्ज़ी
I…
@TheDevil2612
Mahabaleshwar
बीए🤣🤣
धोक
@yuzi_chahal
@navdeepsaini96
ओढ़ी
हातसे
कमसे
t20
आओ😔😔😔
रकनेशे
impact
@__CHUTKI__किस
importance
@IM_SNEHA__पर
ज़िंदा
हूँ😅🤣
गुरूर
😂😂😭
co/kwshCXXlAo
बिग
बोस
#कविताकौशिक
भड़क
@getrahul1
@ashukla09
@PlayMPL
@TRESemmeIndia
@LotusHerbals
येस
Correct
90%
कविता
दीखती
@trueliving_05:
जुल्फे
half
beghum
दफ्तर
पितोश्री
रेड
खानदान
असलियत
जाऐगी
फारुख
Abdullah
co/pQbjXOOWgH
@innocentHrryy:
चाहेगी
मुझे🙂
;
tutu
कुआं
गढ़ा
शहनाज़ियां
सभ्य
बेज्जती
शोखी
criticize
group
co/A12jwkbBiv
@Thakur671997
Dislike
Screenshot
Cool
❤दे
rahe
👍
co/kJoSCeznUI
@IamRealArii:
@IamAsimRiaz1
@imrealasim
😭कभी
strict
monitor
दिलाते
🥺🥺🥺
-नेहा
@RoySidz:
साबर
फल
बाजार
@ekta0907
😭😭😭
जोईता
पकड़
👿👿
topic
शुरु
गायब
@kasimkhanpathan
@hariompandeyMP
चटाई
बीजन
@PreeranC:
#Pkl
😐😂💖💖
BALANCE
MAINTAIN
#Tkl
Balancee?
😧
#…
@praygraj
उनमें
@_imniks_:
Aw
Fandom
Groups
घुसते
co/0j8kJ5zDpE
@umanathtrip:
मोटा
reporter
editor
intentional)
itni…
lo
#SidharthShukIa
@__sadia_तुम
निकलो
बुलाया
बिला
आगयी
@DChaurasia2312:
लव
एक्शन
परिवर्तन
DM
सूचना
बीते
100
@anna69gc
भाभी
सुन्दर
💋💋💋👅👅👅👅💋💋💋
@LuvienaLodh:
#unityisstrength
journalist
बटाईंवा
लिफाफा
Kota
वीरान
निकाले
धूम
पहाड़ों
कसम🥺🥀
@wtf_eshuu
@AhadShaikh
क्राहे🙃
@Rajeev40400932
@KishoreVaid
Gujarat
2002
ki
EK
राजा
परजा
Shameless
Bhakts
@Samar_Bhosle
@RakeshS60592196
@krishna_love143
@PareshP81834272
@Amritpu48045181
@Umade_disaster
@lalafekubaba
@stop_lockdown_1
@Parvesh65632017
@Sh49434780
@BramhRakshas
@deeptid45749083
@budhwardee
@Roflarman2
@RajKeplerhume
@Grewal1Nikita
@AK73428200
@VeerFagga
कर्ज
निकम्मी
pm
तो?
@__haripraarsni
चमन
पीली
dekh
paid
मारते
weeks
@Shikharani_sing
Hahaha
धमकी
@Shweta__Jaya
🙏🙏❤
@habiba__#kyahua
अम्लो
बेन
#BirthdayWish
🙏🏻🤗🤗🤗🤗😁
co/rb3EOSzMmR
@MirzaWaheed:
रियासत
मोहब्बत
कानूनी
As
greatest
them…
@AsishAtmakuri
@pbhushan1
भगौड़े
चलाएंगे
@masud_aqsa
Sami
WHO
WHICH
बूसाब्रहीन
LOLLIPOP
चूसने
चटनेवाला
CM
KEJRIWAL
शाहीन
बॉ
मुंडनों
बूटपोलिस
लगवाके
सरे
ANNOUNCEMENT
फिरना
co/r39KJZ7tkE
@VazeIndian:
@skpachauri11
मानो
टोक
COMPANY
की…
@BasKhamaKha_सब
खैरियत?
@CuttingChai__
@RoshP7
kalantri
awards
@DrStrangeNik
Hain
दिल्
तुने
ne
😋😋😋
@Sidheart_life
re
😛😛
@CMOfficeUP
ayodhaya
दीया
जलाया
bhadohi
कर्मी
divali
आमरद
अनशन
शासन
परशासन
co/swVHSw0igh
सरनाइक
तोड़ने
NAUGHTY
घसीट
#kanganaranuat
#SSRWarriors
#palgharsadhulynching
#palgharmoblynching
co/kUc6ytRuJT
@Shenaazshine_fc
@RajBish43983485:
#whereismyflatmahagun
#Mahagun
petrol
(मोने
buyers)
गाड़…
@Pun_Starr
शिकार
भूख
मरना
चहकता
“खतरा
“
dry
co/a2IG7VR5FA
@shangclements
@naazofshehnaaz
उतारा
🙄🙊🏃😂😂😂😂😂😂😂
@suraj1141
co/nm7PKLDBdX
@karachijeetayga
No😂😝
@rupalsolanki7:
lite
gift
य
प्रेम
ज्योतिष
https…
@NitiYaduvanshi
@PankajK99223008
@spshahibjp
@kokoshwee
Oho
@Haters_ka_Baap_:
“Bachchpan
आसुओं
smile
ता…
@immagroot9
🥴
@Irshad__0
Authentic
tape
लाग
सख्त
हालत
बासादक
लगाता
उछल
बकचोदी
सीक्रेट
बैठक
उड़ी
इमरान
खान
नींद:
तुर्की
गोद
बैठा
कंगाल
खिलौना
#Pakistan
#Saudi…
@gauravgkk
@brahmangirl2
@Sameeksha_India
😝😝😝
Et
tu:
@noorikh17461999
शानाज़
बनने
ढोंग
@nidhiyadavsp
परवक्ता
सूप
ताले
जेवर
लूटने
बंदूक
अपराधी
लोटा
@abooKhadeejah
mujhe🤦🏽‍♂️🤦🏽‍♂️😂
See
@aastha__sinha_को
harsh
nothing
friendship
okay
opinion
बटना?
@BabaBiggBoss
projects
rather
than
पलने
@manav717:
मूं
मालूम
PARTY
PAST
उन्होनें…
@aghori_vivek:
@bhupenverma71
पड़ोसन
मिलेगी
बजह
s…
@SbSidnaaz
😝😂😂😂
@deepanshu270
एडा
कावो
द
😌😂
@4EverTillEnd:
@zehar_ka_teeka_क्या
past
hrs
cases
8000
मेड
जिन्हों
मेडकैट
families
#mdcatianslivesmatter
@PoddarVaishali
भी🙏🙏
सब😂
मचा
LIVE
@asmashirazi
धुली
ग्रेबन
झांको
hashtags
चलती
💯👍😄😄
@HiTechHumour:
Virat
Which
player
chose
tonight
match?
Anushka
Mayank
KOHLI
खेलता
ANUSHKA
strike
ru…
@mdFarhan_03
@Raziya_0786
@SyedAmaanSaeed1
@aa__khyal
@akhterzaidi
@AshrafFem
@AbbasAliRushdi
@Rukhsarafridi0
@Rizvi_sayed110
@RoflHamidMIM
@OsamaShaikhIND
पापा
थे😭😭😭
हैं😭😭😭😭आज
छोड़के
@PandeyItsme
अच्चा😂😂
हैं🤣🤣
@kpmaurya1
Chandausi
bilari
Payment
clear
जबकि
payment
#kyaHua
🤪
@Rubiholics__:
Dilaik
💛💛
#BiggBo…
@Anantxtara
पढ़ती
😾
तवेव
co/Yr245z5UdG
@CreatorZombie11
सोचने
Gurunanak
reference
hu???
ideology
gender
कौनसे
गुनाह
जाऊ
सुनने
@rameshmenon128
खुशियाँ
हूँ❤️
शैतानी
जाये😉😂
Janamdin
हार्दिक
शुभकामनाएं
प्यारी
गुड़िया
डेवलपर
क्युकी
सामना
है।
अप…
स्वदेशी
।
कि…
@TheGreatVictorr
@HinduTapash
@Mohdsarhaan077
शैतानों
इज्ज़त
रहम
लिखो
गुलाब
दीवार
फांद
जमीं
जुल्म
आसमां
इंकलाब
अमीर
अज़ीज़
@PVishnukant:
मोदीजी
नें
छुपे
जहरीले
नागों
बिल
इसलिये
फुफकार
वाम…
रूठो
मनाएं
हम?
Eid
@Gobhiji3
गैंग
telephone
क्या??
सन्न
ज़यादा
देखाओ
Parmatma
काजी
मुल्लाओं
समझाया
cow
got
हेन
cut
भागू
बनो
अधिक
जानकारी
सतलोक
Youtube
channel
co/X2XdFXxhQq
@parrh_ly_Anas
अब😹😹
@Leo_Knock:
Yadav
विधायक
खरीदने
ऑडियो
वायरल
लालू
यादव
एबसेंट
हेरा…
@amol_20011987
होश
_________
रहेंगे
indian
Indian
telugu
bay
बोल्डेट
stay
away
नह
मस्जिद
Maulana
Qalbe
Sadiq
Sahab
A
big
humanity
definitely
missed
#MaulanaKalbeSadiq
co/mygiw4GBus
हस्ती
हस्
@filmervishal:
जानो
Ramesh
बाबू:
500Rupaye?
@libran_16:
लगरहा
#Kabir
hilarious
dialogues
🤣💯
#Ishq…
@swanandgangal
@SunainaHoley
@CAPratikKarpe
@TheRSS_Piyussh
@DEVenDrapai
@MatruBhakt
@SureshNakhua
@ankitasood13
@Nik_Pandharikar
@RahulPatil_BJP
@accountantvarun
@priyazore
लेजाये
@LoveAamir007:
जन्मा
सकूँ
@Harsh7tripathi:
साइकिल
फ्रेम
गद्दी
परिंदे
उड़
शेष
co/XfDzXtIiOB
@armaalianzaheen:
@Amaal…
@HarrisD63432503
@RiyzKhan6
@riyazKh11336169
@MrsYNV
@ashokshuklasoda
@Barun04650498
@Malavik43047370
@RachelVijaya
@MukandRita
@FriendlyPhysio
@sab_fi
@DavidMo70294138
@MirHyder12
@asmatasleem11
@amitkumar9481
@AltafWala
@sudip0131
@Rajma81103591
@SamHarris2429
भाईजी
@SachBhumi:
भोले
नाथ
करेगने
mahadev
co/5HSDy93BwH
@zurakoutaro
non
@AsifIqbalccw
KAREEM
चच्
चा
सेहत
लंबी
@iam_celeb
@ipathak25
Goutam
ghambir
चेला
Raghav
rajender
पुराने
जला
@laluprasadrjd
सुविधा
bungalow
v
@JharkhandCMO
@DC_Ranchi
facilities
mukhyamantri
समर्थन
#charachor
@Miligotnochill
pray
marks
छिए
@puntasticVU
@whatchelsysays
@dikhhat_hai_तुम्हारा
दादी
मुर्दे
उखाड़
😭😂
@Mian_Faraz_12
@SuniSays
घंटे
urgently
@binodojha999
@kuldeepsinghpu4
@saxenaapoorwa
1दिन
भगा
@ZarrarKhuhro:
walking
around
@WaseemBadami
again
selfie
घास
दा…
@IamSaeen
@hafsa_imam
cousin
बड़
नमूने
@Akshays_Devil_
व्रु
बदले
पड़ते
😘😂😂
@DShruv:
remain
#katrinaKaif
only
📍📍📍📍
nainital
puri
@Romirajput_cute
गानो
तहे
Compilation
हेना
@AnitaOT7
@End_of_time_अभी
suspend
चमचा
@SalmanNizami_
@PankajPuniaINC
@GauravPandhi
@MimrotReena
@priyankagandhi
@INCMP
@Dr_Uditraj
@srivatsayb
@srinivasiyc
@MahilaCongress
परा
अब्बू
निपट
Pass?
@OGkifarkpenda
close
narrative
SOURCES
August
murder
माशाअल्लाह
16
co/kKCnvwIA9r
रस्सी
co/1pQfJbKesp
@RAR_MUKESH0
@vipulparihaar
Automatic
@realrazidada
जोरो
funny
—&amp;&amp;
🙁
@funkyk2
statue
tourism
sport
कठपुतली
colony
अफसर
उन्होंने
एसा
letter
15dino
गार
महामारी
@Roma_Naaz
@Sanakabf
@2110Sidnaaz
hates
@MayaMehtaji:
drugs
आजादी
दिलाने
Oscar
फूक…
—&amp;
:(
@Shaheen75770899:
@ZGOD2002
हसी
hai👀😂😂😂
co/ZvZ8E85MVU
@AmiJTomarShreya
material
व्हिच
utter
shit
called
😳🤣🙏🏻
aao
Then
ll
😭😭✌🏼
😗
@Thevarunworld
@Varuniac_Sahil
@VarunsAvenger
@edjv2_fan
@SMahirian
ताव
फिरता
abhinav
nomination
drama
safe
गर
bodyguard
@Archana_says__किसके
फूट
relationship
@SidShukla_1
@SuvarnBharat
@khanna248
चावल
ढाबा
लगड़ा
हॆ
@RajarshitaS
आशीर्वाद
पैर
छू
@SachinsWarrior_
@cricketcomau
हा
बादमें
withdrawal
husband
society
गेट
Papa
deepak
हस्बैंड
दुकान
kitne
😘😘😍🥰
bro😘😘
@kparveen2005:
Adityanath
#Jihad
#Love
कायकू
?😱
😀संन्यासी
ना😀
co/7FGBZO3MGY
@BTG_ChotaFc
Likes
@Rocky_RRR_
@ipshita_DZ
@sanjayythakur
@chesscom_in
@chesscom
Sane
1000
🙂❤️
@halkatmaanus
Conformed
जायेगी
@MdImran83835074
😥😢
भी😭😭😭
ढूंढा
ama
compare
@DynamicSRK
sooside
लेगा
बनाली
CRUSH
ण
NOTICE
करा😤😭
घफूरे
कपूरे
काठ
co/Z6rP3TbGLy
@Imsushantagain:
suicide
है😡
समाज…
@Akash_1498
@GadgetsFlix
date
@Dark_Ajith69
😂😂😂han
flush
@SharrioIjaz
@wata13304706
@MissRajpoot24
@RrahelR
इसबार
already
सके
इंस्टा
डाली
उच्चियाँ
दीवारान
राखियाँ
चपेरे
ताहि
साम्ब
रखड़ियाँ
ला
ल
dere
#MominaMustehsan
@aarifshaah
co/QCvqYqZ2zy
@angeliivc
छै
हेलो
आवाज
tube
चचा
Sidnaazian
658k
393k
1m
Proud
बताए
co/eMNawUR4Ep
@mehwish_jaam
mobile
check
इन्होंने
#Acknowledge
rip👻
#humility
rip
👻
😂😭😂😭😂😭😂
co/AoFM6OtSZZ
@crazy_primus
cuteness
add
वेदों
@Imfrankenstein3
@Xcalibur2604
@Kurdogla
@tanurism
@Rohan47161895
भय
Partition
totally
interested
done
Political
interest
were
huge
losses
Godse
बल्कि
isliye
1/2
@heisenjit:
gonna
travel
world
avid
traveler
दरवाजे
आजेगा…
सोंचो
नास्पेटा
yellowy
लौंडा
गोबर
yellow
weblet
सच्चे
@zoo_bear
Iyengar
सिखाया
@sxcknj
आये?
@yedilmera
dieting
कृंगा
वाम
बनारी
co/ekRpwAf1lB
@ShayarImran
Shahar
लिखता
#AhmedPatel
बढ़त…
@menakshivatsa:
बिगड़
liyaqat
कोठे
जिस्म
बेचती
ज़मीर
@MODIJI_helpus:
@TigerNeelesh
Neelesh
दौड़ते
co/iOBVqIUNzP
@Ritu_not_imp
ढूढो
नहाओ
पट्टू
फलों
🙏😊✌️🤞
@thehackerudk
@dilbaaro__
@__KisMe_तुम
रोड़
भाई🥺🙄
@VarunRDCR7
ho😂😂😂
शक्ति
अजीज
😭❤️😭please
😭#SidNaaz
@khan34602
@IrumSumbal
@SonOfIslam8
@FaireFree08
@Sai_f007
@hamzaashfaq280
@SaithPti
@MRKHANho1
@PUBGTIGR
@mEhR_HeRe
@Sana_Hashim_लगता
आयलन
खैर
की😱😱😱😱
🏹⚔️🗡️
virat
unfit
अलावा
खेलें
cap
Haran
तरफ़
co/2YVHOGx2Ha
@Faiqa_Jvd
Bakht
तख्त
यकलकत
उतरा
हारा
@News18UP
नहो
@R_A_J_B:
भ…
@abhi_leo1
छाये
@SidNaazSouls:
धोना
चुपचाप
😄😄😄😄
https://t…
In
गंजे
होजाएं
@Avinash88730498:
apprentice
जाएं
ताकत
लड़कों
पिंड
city
फजल
दस
करोड़
फर्न
मुल्कों
शेयर
बीआईसी
ग़रीब
हँसता
ज़िन्दगी
मज़ाक
co/lCthVofWGt
@TehminaBaig:
@narcissistvibes
out
sheer
sincerity
@MubashshirHere:
#Assalamu_alaikum
everyone
▪️आज
#Mub_ki_baat▪️
•━━━
✽•✽
━━━•
मंज़िल
@SuvarnBharat:
इग्नोर
मुझे😢
इस्तमाल
कार्लेना
डेढ़
सानी
🤧🤧
grammy
dinchak
देदो
@Ishika25169264:
@FaiyazHasan96
उगता
suraj
Sidharthh
प्या…
@hira_zafar99
है☻
@BHUSHANKANHERK4
लहो
होगी🖤
@SudarshanNewsTV
बिक
टांग
खींच
गिरने
p…
@FaisalJavedKhan
islam
मिट
योग्य
अंधकार
covid
विज्ञापन
1ईयर
Up
lekhpal
Had
@rampuriboi
Lunch
co/QYLPVAYLkP
@Tawsif_Ahmd:
@ImranARaja1
@Fariduddin_1
@HarounRashid2
@BushraGohar
बाबड़ा
o
service
हरकोई
अंधा
पढ़…
@usmi_says:
36
Bismilah
send
anyone
वार्नासी
@Siri_228
kaise
dil
😞😞
@Mamta843108:
@AzadSenaChief
@Knmishra_SC-ST
Act
भेदभाव
बढ़ाया
और…
170
co/M5AIikqP44
@BiggBoss24x7:
mind
#PavitraPunia
बो…
लड़ता
रोज़
मैं❣️
किस्मत
दुष्
हैं❣️
Varanasi
Bastar
चारों
@skywalker8901
रहा😂
@HarshKumar8026:
Dipartment
HDFC
तरीका
Agent
M…
@AkankshaSays_
@preetcreation
@indiandiamond_
@NuKlkhaveHai
@dixi_speaks
@Sanapyaarr
@TheDivineMess
@Star_boy143
@_harman12
@Itz_HeartWork
अक्कू
शर्मीली
को😱
@AM_feelings_
@harshika
@armaans_heart
@Palak__
@habiba__
@NazAM__
@AM_KumKum22
@hima_chavda
@AM_kashish
@TeamArmaanians
@Ayesha_Armaan22
@Bhoomi_AM
@braindamageonli
@_aarushi_25
@brishti__
@Bulbul95_
@__khushi
@IshuChukki
आटो
@sohni_kuri
आया✨🤩
#pearlvpuri
co/FrLI6qCFRV
@lakhmi_das
@homanwithwings
लक्ष्मी
इन्ह
appreciate
Pakistani
word
@r3dash
हद
may
खड़ी
🤕
करुगा
Head
नहाऊँगा
Tail
करुगा🤣🤣
@Sidharthjha98:
@valarazor
@A_BrahminGirl
phOne
phoNe
silEnt
moDe
भेजती
MODE
oN
रोहित
हैं😐
@whiteknight_01
@abirchiklu
@chaipiomastraho
👀😹😤
@sar_ka_dard
हाई
हू😂💓
@web_av77:
Single
Relationship
Advice
co/pxmhKfqp1H
@HarSh0998
@BaamanSoyed
toffee
@Abhishek846898
@MrTirthankarRoy
@KhurrafatiDimag
stage
economy
Feb
commonly
worst
45
होगें
एन
nehru
जिमेदार
available
much
ji
निहायती
बेहूदा
rohini
नीच
atleast
भूक
#AhmadPatel
#rohini
co/pTd1gRQ6T6
@Hussainigirl3:
अलीعसे
✨
जिसकी
आरज़ू
घड़ी
gyi✨#kalbesadiq
co/VHKGH1GN4y
@shobhitnegi_ind
🙏🏼😭
@being_caravan
bag
wine
मुर्गा
विनय
@931Samaira
Karnal
Covid19
k
क्रं
कर्ज़
पैमत
कीजीए
hu
plz
लीजिए
@Mrhallihakki:
@ScottMorrisonMP
बचाले
#RohitSharma
co/fRMExACucK
आजा
हिसे
Merye
@kokavaishnav
comprehension
issue
झलक
demand
fellow
सीखने
urdu
hindians
लफ्जों
जुबान
ख्यालों
ज़िक्र
अहमियत
नज़रों
एहसास
अधूरापन
लाना
अजनती
मूर्तियां
co/DIpx2K1qag
#Nadiya
चलें
#Eksaath
#RaniLakshmibai
#Shivaji
@krish_is_Devil
@Fearless_Mahira
@Emperor_Abhi_
@imArpitaMishra
@MohammadHaish
@MujjuTemporary
@MegastarFan2712
माहिर
नॉटी
बज
हो😒😒😒😒😒ऊंटाग
@MuslimSabnam
@ShivaniPatel23:
Hemant
soren
जाओगे
अजीब
यात्
@WasimJaffer14
रहोगे
@SwetaMisra10
@IamSinghaniya
कश्ती
सिद्धर
संभालो
@Sanam_Afridi10
@iamMunibazafar
@SAfridiOfficial
@HumaCh_10
@BiggestAfridian
@BeingAfrdian
@jarry_pk
बचाने
लिया😣😔
@callmewhom
@bindeshpandya
Our
different
meanings
@uloom_al
@lust_explorer
@aalima_Rkhanum
@Shazia_ch1
@bannorukhsar
@AishaPa72882459
@Aiza54865091
@hina_perfect
@Tasneem_e3
@KhalidaBegam
@ameerawwbutt
किसो
torture
राम
नारा
लगवाने
खीर
@khanjarwale
ख़बर
co/3Imt81NBl7
@ShivaniPatel23
गये?
@AdilM35424865
@JaveedH16
@Sudhir_mishr
@Rayan7063
@BleedLeo
@debayan
@ZaidZamanHamid
Hahaha😂🤣😹
हिजड़े
daily
100g
मिर्च
g**d
लटकते
hn
denge
हिजडे
surrender
दबा
तरह👇
co/uIwlsMLdwD
sard
पुरानी
MODI
मुमकिन
Gf
लेवी
आंखें
शादिकी
शुरुकती
hai🤦‍♀️🤣🤣🤣🤣🤣🤣🤣🤣🤣
co/0ub3PCHpKt
@sidharth_shukla:
99
9%
पेंट
साबुन
distemper
cl…
@Darshitdave02
@Mohi_Rashi:
लीजिये
कहे…
#बज़्म
#शायरांश
#अक्षरमाला
#राशि
number
co/9q9lv2lAou
#ShonaShonaWith…
@hahumainbiased
हैं🤧🤧
नशे
चाइये
को🤧🤧
@zehraavadh
Two
one
can
deny:
Secular
कट्टर
एंटी-मोदी
अन्…
नागपुर
टॉपिक
मुस्लिम
खाकी
चड्डी
धारी
समस्याएं
@kritikasidheart
@HardFate3
@PrachiSachdeva1
@TheShubhham
@AkkaMain
@RaghavSharma1_
@xyz08845957
@GuptaDipika
Sidnaaz
अधूरा
@VatsalMuchhala
@AzAshwani
tactic
धमका
करा
gdp
कपडे
उतार
पहुचा
monk
घूम
chilling
@iKunaal
सुननी
Monopoly
#supremecourtofindia
हों’बोल
तमीज
@UtkarshSingh_
@Siddhantmt
@varungrover
@sakshijoshii
@sanjeevgupta93
@RoflGandhi_
@Amina_Sharad123:
ITA
भी🙌🙌
#SharadMalhotra
#ITAAward2020
#Naagin5
#ProudSmian
@United_India_01
@Worship1231
@HansrajMeena
reservation
डोचे
बॉडी
शुरुवात
नियोगी
bin-virodh
🤣🤣😂😂😂
@NewsNationTV
@manoj_gairola
@MSajidRashidi
नफ़रत
फैलाता
@BharatJ82
retrace
attention
Bb13
सिड
attitude
मौके
चौका
बेबू
किधर
Ragi
@RituRathaur:
उठे
असुर
@Varuniac_Sahil:
@HereForVd
खुशकिस्मती
पोहच
metro
बल्
डूब
nawaz
मसत
बेरा
ईसी
डुबो
नम
जेब
lefty
@cool_rubaiya
😊अरे
@deeppatelguj:
आँखे
घड़ा
मध्य
बसनार
@SiYabaloch
@RakshitIm
n
कहेगा
@aishaesthetic_वह
month
@accdeleteduk
@RohitKhoth
@AnimeManDemon
gangtok
बस्तर
@4EverTillEnd
@DeepakHuMain
😓😢
@Unknown91410163
@meenaboy_Ashu
@__Aafia__
@Mamta10K
कौनसी
झंडे
Congress
Petrol
रसोई
गैस
करलो
जानकार
Ambani
ADANI
संपत्ति
@MyWorldVK
वैली
@CanadianKhiladi
@KapilSharmaK9
@HumorouslyVipul
बाल्की
kapil
hater
Totter
@shahazhar54321
--
है😍
@OfficialSidNaaz
very
chant
Loondo
बेश
☔☔☔
आया😂😜
co/eSBNjoImr4
@siddaramaiah
Shimoga
वजसे
चलने
मदत
जमीर
क्यूब
twit
अनुसार
problems
तबीयत
@itsMannism
@speakng_scalpel
smh
@YouTubeIndia:
co/TdjvzuVnEs
आया😁
Live
बहूत
भागो
भागों
🙏🙏🙏🙏
co/HC6JeugPVs
@Bhupendrasinhv3
@ICC
मरा
खेला
हारने
संन्यास
भागा
2016
@aashixo
पूछा
care
लगने
नए
ration
apply
approval
@alwaysandalwys
@Apun_Chand_pe_h
@omair78
Nah
निकालो?
Karachi
लेगें
भक्
co/aI19eTYZZI
रहना
😐😘
@shashi_kant7:
@Wit_choria
250+
पर…
@AlokaaPratha_वो
@immahjaben
@Er_KS07
@Periwinkle__तेरे
नाटोक
हू🤕
@Nikunj21129
@thedentalhouse1
कवि
प्रतिष्ठा
प्राण
गवाएँ
@jrmpoojary
@ROHITIX:
@HarshKumar8026
@Kissht_EMI
@ZeeBusiness
@JBorrowers
90
एमी
100-200
d…
खतरे
agar
पकड़ाया
kia
boats
पूछी
huye
😩😩
co/jaja20pbU7
@SanjayYadav331:
👉
@AhmerRizwan_22:
Geo
News
@geonews_urdu
SelFish
भोज
#MDCAT
बच्…
लम्हों
Daala
co/akJRDjz8fO
@_inocent_girl_कुछ
नही😿
tum?
विरोधी
@indorewalamemer
हक़ीम
सुधारेगा😂
होगा🤣
सुधारने
जिम्मेदारी
लेंगे😂
मदरसचाप
समझदारी
उम्मीद
@yagnesh83
Joke
समझिए
@TheDeepak2020In:
मिलकर
मजबूत
बनाएं
Follower
मित्र
बढ़ाएं
इंस्ट्रक्शन्स
ईमानदारी
जाएं…
@pushpa
#When__ATIF__Said
Milke__bhi__hum__na__mile__tum__se__na__jaane__kyun
#I__felt__that
@ManojTiwariMP
@HardeepSPuri
maharaaj
हैं🙏
@sona_writes
Not
failure
dude
Award
deserving
Contacts
actresses
this
just
पटी
competition
@siasatpk
@KlasraRauf
dajjal
दज्जाल
हरामियो
@Ahilverma786___बढ़िया
सुनाओ😻
@notyourpoha
@dafakarosab
धु
रोती
@ManojTiwariMP:
अयोध्या
एयरपोर्ट
‘मर्यादा
पूरुषोत्तम
श्रीराम
एयरपोर्ट’🙏
थैंक्स
@HardeepS…
बुद्ध
होजाती
ग्वार
@Human_2015
@0x1CECAFE
11th
Bio
Local
Practical
attend
Attandance
100%
attendance
@hoefrPJm
@praanloveskoo
लम
because
tone
@ImSourav_123
@edgbaston_149
जीतेंगे
@RaziaFuzail:
पूछे
आयात
मुबारक
जलसे
पढ़ते
2अय्यत
आई…
@PramitaSingh16
मं
@SushilSancheti9
@khaire_shrutika
भुखमरी
😂😂😂😂😂sab
बर्बाद
co/W2fV8FujXQ
@SolankiTweets0
@SanskaariAnjal
करी
natural
दिखावा
1%
sab😤😤😤😤😤😤😤😤😤
@Vicky78616
@IMPurviJainStar
री
dekhkr
♥️😍
सपना
होरा
😍💓🙏🤞
#yrkk
#Kaira
#Shivin
co/qOVFjNrfwT
@SShreya1998
कद्दू
कटेगा
बटेगा
@PTI_ki_cheeti
Boys
शरम
हया
हैं🤪
@sunandavashisht
1000s
course
रखे
@noor_e_hayat
Date
@romslafz
अच्छुरते
एब
@rishi
Spotted
hot
@Sanchitastic:
बेहतरीन
fresh
co/q3AHZ4kxKE
@TheSquind
गलनी
ऐम
penguin
फौज
@allegedlyhooman:
Narrator
सोनिया
दाया
mulla
patel
कहूँ
बिलकुल
जानवर
शैतान
मारा
karna
वश
कट्टरवादी
हैं😂🤣
@Sagarsh53828471
@SANTANUMAJI1994
SS
मुंगेरी
हसीन
सोचे
4-5
bearish
पैसा
गवाया
पोल
खोली
co/6O7upPz0MM
@its_arpi_here:
मुस्कुराओ
😁😂😂😂😂
फत्तू
भागते
लपेटे
@PratapSarnaik
@culer_cmos
पुराना
follow
@Pankha_Army
हट
inch
🤡🐒🐒
@shwxtp
@unaayrus
नहाते
साले
@LovelyKiller98:
गुफा
पैदाइश
हरमपाल
center
transfer
करसखता
ट्रानफ़र
करसकते
increase
होसकता
@ErBachchan1
Kesari
2019
March
Vision
April
Infinity
War
So
possible
@EijazKhanMania:
बाबा
सामान
आ…
@Saurabh24715881:
😳😳😆
co/dsV1g3cdnZ
@28LouMadeIt
आया😭
@Sonali_momo1
शिविरों
🤦🏻‍♀️
Fans
bolo
Attension
seeker
खैरा
shivin
😠
@IncomeTaxIndia
800%
बढ़ी
संपत्ति:
उद्धव
ठाकरे
करीबी
सरनाईक
ऑटो
रिक्शा
चलाते
करोड़ों
मालिक
#ShivSena
#Mah…
@Lawyer_yasir
@AQadirBloch
बीता
उसक
नै
abdul
qadir
भूंक
तलाश
हक़
केके
लफ़्ज़ी
झड़ना
fun
@Princaholics
Shut
#dustbinbhasin
सपेरा
इशारों
नाच
#JohnAbraham
schedule
जन्
😄
co/obKFZm7hzU
@MRKHANSID
@meena_sid_अच्छा
था😯😯
Trend
धी
Cancel
#Getlost
@ptshrikant
@UPPCLLKO
@UPGovt
@BJP4UP
Light
Tripping
raaj
@UppclChairman
Sarosa
power
house
mohan
लोको
बहता
fider
mujhe
पलायन
@beingmanasjha_
@iKaurRimmi
@BeLovedAvni
@utkarshh_UT
@13hamdard
@TagKyuKiya
रही😗😗
co/9NrxurSw1t
ख़रीदी
😊तो
miss
शब्द
दीजिये
डालते
co/WMdZDlefHU
@alakh__में
@DianaShabana
बहती
गूंगा
होना?
@4321Beingsultan
@Being_Shawon1
@n_NIMRAH27
@BeingSa73276143
@radheyourmostw1
@SalmanKhanDieH4
@itsBeingVISHAL
@being_Ahad_45
@IamAyeshaAhad
@salman_khan_fd
ट्यूसन
पार्लो
देखेंगे
@Baby_loney_tune:
होरी
पियरे
ढलता
💙
@Haseebfaiz7
भी?
Here
spend
था😍😍😍
साथ🥺🥺🥺
Its
😍😍😍
haters
सत्
हैं🤗🤗
co/IZm6sUp5c9
अपनापन
@sarlasi66897607:
Soonte
सोंटे
एसओ
Also
co/pyxwdvUMme
@Faisal2204khan
@RoflGandhi_Siachen
लड़
@tiyapathak
लत्यायी
हो🤭😉😜😜
@IamSinghaniya:
घरवाले
र
#KavitaKaushi…
@Keyur_Sidhearts
😐
ज़िद
@KoramiAnjali
@Aastha
@pankajsingh1989
बेहन??
Ankita
stood
जी??
रट
लगाकर
रहे???
@iamas2k:
खफा
रौशनी
गुजरेगी
Dost
Jind…
@Hudiya_e_Zehra
ना?😂
@Khadoos_Aadmi
co/1xTP1Zblqe
paras
Abhinav
colors
face
@its_rfan
spam
digital
#hypocrisy
@iamHundal_अछि
na😝😝😝😂😂😂😂🔥🔥👏👏👏👏👏👏👏👏👏👏👏
रोशनी
राहों
गूंजे
फिजाओं
co/4FsnWpw05L
@Ekr_aa
@sukhchainsidhu
@indiaAnkita
पैमर
बिचौलियों
हटाने
कागच
Farmer
@pranitmhamunkar
@Marathii_
@ekikaranmarathi
@Marhathi
@Maymarathi
गधों
टेगू
सम्मान
साजिश
रच
@iamHundal_
@AhsinGafari
पत्थर
मनलता
😝😝
@affable_xo
co/nFhUD6amti
जायगा
@AartiRa56390081
😤😤😤😤
सुधरोगी
बीमार
बीमारी
जायेगी?
की?
co/Z9SQ4SxU7s
@icanseeyoubuddy
@Remember2ndOct
@SSRDieHard_Fan
@lostsoul_apu
करूँगा
movement
lead
गलौज
हैं??
@bikki_pandit:
@Varsha03663028
@simram_hp:
शायरी
junooniyat
@Niralas1
@republic
itna
उछालो🤣🤣🤣🤣
@Sanas_shield
@Sidharthsbae
@Pragati32516375
😭😂😭😂😭😂😭
indeed
@Atul29299088
@ParthChougule3
@HimeshMankad
@ajaydevgn
Story
roudi
Rathore
Laxmii
Epic
disaster
kaithi
@ErayCr
Arrest
सबूत
मिटा
@MeghaChoudhur10
Chamar
hum
चमार
ब्राह्मण
rajput
@Robertpakistani:
-Test
-त्यारी
-time
-admission
late
मतलब:
हमार…
रिहा
UAE
खुल्ला
सिवाय
इबादतगाहों
@MonikaSingh__Politician
History
देखलो
bank
मासूम
बॉल
पकड
हौ
भ्रम
votes
decide
नोबडी
खाई
@jalal_rajpoot
फौलाने
दूत
तुम्हीं
france
hungry
Srilanka
Austria
Australia
UK
फैलाने
@Sirisha69572042
backward
sewage
@sujitsingh__
@Mustafa53375014
जरा
दक
कैसा
LOVE
जयहाद
वजा
आपस
ज
HInDUSATAAN
@AITCMeghna:
कोही
सीमा
पार
gol
#MahilaBirodhiBJP
#BengalReject…
@AkkianForever2
@RahulVerma4860
theaters
Shaheen
बाग
Canadian
Canada
पढता
पढ़ा
💃💃💃🔥🔥🔥😌
co/muXKX49U2H
@A_lonethinker
@IAmIndianHitler
hawx
(hot
pass
😂😁
बसती
यारो
yun
co/2j4BxJJB2J
com
id
update
करवायी
पिताजी
applaud
अनुरोध
uphold
सकें
आडिट
option
लाए
co/YYTz4J46zy
@Call_me_clown_हुआ
co/GqM1eopZZY
@Love_endures_ये
देखिए
@shah_rukh_786_flop
गया😿
@yvs_raizada:
@Ritutyagi30
अचचा
hua
@alluarjun
@harish2you
Manish
Punjabi
Aallu
@BhumikaGeraDZ
edits
बेहन😂😂
lagta
@rishabh_memes:
co/TDSw3KWI5r
शोक
प्रकट
झांसे
गैर
सफल
ईश्वर
बिताने
मजबूर
#aajtak
#zeenews
sri
co/6sMHBixjUr
@GuptaAdvaita
@vibhavsharma500
restaurant
अफसोस
Vegeta
@zarray
कराह
ग़ुस्सा
होवे
तुझपर
@_Bhargavi_2564
दिप्शी
उन्हों
@Aryan050202
@_innocentbaby_समझ
😷
@Pandeyneha6
🤣🤣अरे
@indianrailwaysa:
@RaviYad71597079
अम्मा
जंगल
lalu
yadav
पैड…
@_KhanSabiha
Second
🤟😁
निभानी
पीढ़ियों
कठपुतलियों
मनोरंजन
Sawai
Bhatt
awesome
#IndianIdol2020
28th
Nov
Sat-Sun
co/7R1Z4NIVoy
@MasoodUsmani5
बेगेरत
गद्दार
kashmir
frosh
ganddi
officers
Pakistanio
Israel
तस्लीम
कमर
khanzeer
Javed
बाजवा
जरनैल
कहर
नाजल
@nshuklain
पहला
खयाल
@Yash63121058
साहेब
Kejriwal
message
मृत्यु
ना?
क्या???
प्रवचन
ko???
निकाला
co/h2yjRooO7h
co/X3hM9vbvGe
@MeghaKhurana9
@sushantkumarmal
@shardulpandit11
@miss_insa
zero
@priyasn7
@ItsMadhurima19
@Asish_x
reach
👁👄👁
@bambrah41
#1
tumne?
Police
drink
public
पकड़े
5000
fine
accident
cycle
बचाई
career
himanshi
वजहा
बना🤣
@nicebhakti:
@gyani__babaa
अभीतक
चिट्ठी
भेजी
@DesiBakchhod
hoon😃😭😭
@siddyhappiness
प्रशंसा
search
@leasst_7:
@PTIPoonchDiv
@PTIofficial
हमदर्द
हू🤧🤧
@AlfiyaK76693157
@Mdrashi78859981
ठुड़ीना
बोलड़ा
Khan
पूछियेगा
@Sonzal1_या
book
sooya
मुस्तक़बिल
@Syedaay80946576
कुत्तिया
@thevellikudi
मैं😭
Looking
Attitude
किसे
बताऊंगा
😈
@chatakeyy
@PrajwolGautam7
@Praveenthapaa
@nirey
@makhmali_
@priyvnka
@arya_pokharel
🙄🙄🙄
छ
च
मेरेको
@tejasjetharam:
दौरान
साधना
@Talha_Pervaiz_1
@mai_kiya_karu_अब
co/Cmkt9Z1vBd
दफा
gi😭😭😭💔
@Xingyun_1
लगेगा🌚
@8PMCM
@LaviRana01
चटनी
यज्ञ
तबाह
डरते
lanka
लगाऊँगी
bhala😂😂😍✌️✌️😭
@mallikalicious
को😅
@sumitkrsna
@ShashiTharoor
great
art
समझोगे
@desimojito
comedy
लोल
पैग
बनाए
@Sooraj_verma14:
बदन
रह…
jisko
co/jbhSwdVD1r
co/UeotjVOdlD
@iamjoker2k20
हो??
@UrSouvenir:
Imran
Nation??
ahhahh
Youth??
hhahah
बेवक़ूफों
brain
वाश
@tiwarialok91
@_ignoredAF
DP
ख्याल
prabandh
नाचे
tum???
@Raaj07245636
hoke
bhi
💔
👀
✌️❤️
@Mask_____Man
@dipahindustani2
@DeepaShree_AB
co/m3pDalAMd3
@Izzat_Ma_Aab:
तान
धूप
@Apoorvaa_21
Sutro
मुताबिक
topper
@yxngvision999
@FarisaKarimi
टूटते
करु😞👍
@MartianBeing_:
@anuragdhanda
@kapsology
संघर्ष
bothering
लगाए
timeline
कंबल
छोड़ने
परीशान
@ItsKhadijaZh
पढोगी?
@Ariihantspeaks
खेती
corporately
हवाले
@YourPalakRoy
Bhandara
दारू
🥃🥃🥃
बहलाकर
secrets
screenshots
videos
divorce
aayenge
🤣🤣🤣
@outofyourrange:
requests
@ImranKhanPTI
generatio…
@PriyankaLahiri_झाड़ू
पोछा
पढ़ेगी
बचेंगे
@iujjawaltrivedi
दृजी
actress
gutter
बहाल
करेगें
इन्हों
udd
#BoycottBollywood
#NoSushantNoBollywood
Gutter
hate
@ayushgupta
@abhishekitoff
overtime
Ramayan
telecast
1987
बताती
मम्मी
mein😘😍🤗
@rishabhmanitrip
@ashokmisra2
@sanjayjourno
@meevkt
सरकारी
रैलिया
असज
समारोह
@AmitBijender
कामिनी
link
@ExSecular
3rd
@iuswilicious_x
@soupersassy
@Clar191
सपरा
argument
any
task
nd
rubinav
नागिन
इम
happy
आगये
aab
@IMSSRFAN
@Asimanshilover
oak
जागने
लेना😂😂😂
Competition
बद
दावत
TOP
🤣😜
लालटेन
कहता
ललुआ
STANDARD
बांग्ला
सिसका
बुडबाग
उठता
HOON
co/SxAMQnocMD
