{
  "best_epoch": 1,
  "peak_cpu_memory_MB": 625.88,
  "training_duration": "0:00:36.315888",
  "training_start_epoch": 0,
  "training_epochs": 6,
  "epoch": 6,
  "training_accuracy": 0.9810901001112347,
  "training_loss": 0.07260933693434143,
  "training_reg_loss": 0.0,
  "training_cpu_memory_MB": 625.88,
  "validation_accuracy": 0.415,
  "validation_loss": 1.8252090556280953,
  "validation_reg_loss": 0.0,
  "best_validation_accuracy": 0.43,
  "best_validation_loss": 1.067996893610273,
  "best_validation_reg_loss": 0.0
}