{
  "best_epoch": 0,
  "peak_cpu_memory_MB": 1330.856,
  "training_duration": "0:04:31.578345",
  "training_start_epoch": 0,
  "training_epochs": 4,
  "epoch": 4,
  "training_accuracy": 0.9316285817918026,
  "training_loss": 0.23700328653921252,
  "training_reg_loss": 0.0,
  "training_cpu_memory_MB": 1330.856,
  "validation_accuracy": 0.5189950980392157,
  "validation_loss": 1.9362658484309327,
  "validation_reg_loss": 0.0,
  "best_validation_accuracy": 0.5,
  "best_validation_loss": 0.9588933762382058,
  "best_validation_reg_loss": 0.0
}