{
  "best_epoch": 3,
  "peak_cpu_memory_MB": 1394.044,
  "training_duration": "0:02:30.496394",
  "training_start_epoch": 0,
  "training_epochs": 4,
  "epoch": 4,
  "training_accuracy": 0.5897589758975897,
  "training_loss": 0.858346451585666,
  "training_reg_loss": 0.0,
  "training_cpu_memory_MB": 1394.044,
  "validation_accuracy": 0.526137645731478,
  "validation_loss": 0.9709946314493815,
  "validation_reg_loss": 0.0,
  "best_validation_accuracy": 0.5314027830011282,
  "best_validation_loss": 0.958040326833725,
  "best_validation_reg_loss": 0.0
}