{
  "best_epoch": 9,
  "peak_cpu_memory_MB": 281.748,
  "training_duration": "0:00:04.777127",
  "training_start_epoch": 0,
  "training_epochs": 9,
  "epoch": 9,
  "training_accuracy": 0.4177777777777778,
  "training_loss": 1.063586023347131,
  "training_reg_loss": 0.0,
  "training_cpu_memory_MB": 281.748,
  "validation_accuracy": 0.435,
  "validation_loss": 1.0613670263971602,
  "validation_reg_loss": 0.0,
  "best_validation_accuracy": 0.435,
  "best_validation_loss": 1.0613670263971602,
  "best_validation_reg_loss": 0.0
}