{
  "best_epoch": 0,
  "peak_cpu_memory_MB": 285.396,
  "training_duration": "0:00:04.299328",
  "training_start_epoch": 0,
  "training_epochs": 0,
  "epoch": 0,
  "training_accuracy": 0.38153503893214685,
  "training_loss": 1.0935679221975392,
  "training_reg_loss": 0.0,
  "training_cpu_memory_MB": 285.396,
  "validation_accuracy": 0.385,
  "validation_loss": 1.0755383116858346,
  "validation_reg_loss": 0.0,
  "best_validation_accuracy": 0.385,
  "best_validation_loss": 1.0755383116858346,
  "best_validation_reg_loss": 0.0
}