{
  "best_epoch": 17,
  "peak_cpu_memory_MB": 269.076,
  "training_duration": "0:00:06.129617",
  "training_start_epoch": 0,
  "training_epochs": 17,
  "epoch": 17,
  "training_accuracy": 0.5044444444444445,
  "training_loss": 0.9812246663817044,
  "training_reg_loss": 0.0,
  "training_cpu_memory_MB": 269.076,
  "validation_accuracy": 0.49,
  "validation_loss": 1.0083925213132585,
  "validation_reg_loss": 0.0,
  "best_validation_accuracy": 0.49,
  "best_validation_loss": 1.0083925213132585,
  "best_validation_reg_loss": 0.0
}