{
  "best_epoch": 1,
  "peak_cpu_memory_MB": 267.848,
  "training_duration": "0:00:01.075835",
  "training_start_epoch": 0,
  "training_epochs": 1,
  "epoch": 1,
  "training_accuracy": 0.41888888888888887,
  "training_loss": 1.0745116944970756,
  "training_reg_loss": 0.0,
  "training_cpu_memory_MB": 267.848,
  "validation_accuracy": 0.45,
  "validation_loss": 1.065940601485116,
  "validation_reg_loss": 0.0,
  "best_validation_accuracy": 0.45,
  "best_validation_loss": 1.065940601485116,
  "best_validation_reg_loss": 0.0
}