{
  "best_epoch": 21,
  "peak_cpu_memory_MB": 269.084,
  "training_duration": "0:00:08.046539",
  "training_start_epoch": 0,
  "training_epochs": 23,
  "epoch": 23,
  "training_accuracy": 0.5366666666666666,
  "training_loss": 0.9517959428244623,
  "training_reg_loss": 0.0,
  "training_cpu_memory_MB": 269.084,
  "validation_accuracy": 0.505,
  "validation_loss": 1.00245863199234,
  "validation_reg_loss": 0.0,
  "best_validation_accuracy": 0.5,
  "best_validation_loss": 1.0002356682504927,
  "best_validation_reg_loss": 0.0
}