{
  "best_epoch": 16,
  "peak_cpu_memory_MB": 269.072,
  "training_duration": "0:00:05.828308",
  "training_start_epoch": 0,
  "training_epochs": 16,
  "epoch": 16,
  "training_accuracy": 0.5255555555555556,
  "training_loss": 0.9842159727524067,
  "training_reg_loss": 0.0,
  "training_cpu_memory_MB": 269.072,
  "validation_accuracy": 0.49,
  "validation_loss": 1.009776771068573,
  "validation_reg_loss": 0.0,
  "best_validation_accuracy": 0.49,
  "best_validation_loss": 1.009776771068573,
  "best_validation_reg_loss": 0.0
}