{
  "best_epoch": 28,
  "peak_cpu_memory_MB": 269.084,
  "training_duration": "0:00:10.772785",
  "training_start_epoch": 0,
  "training_epochs": 32,
  "epoch": 32,
  "training_accuracy": 0.5744444444444444,
  "training_loss": 0.90586335905667,
  "training_reg_loss": 0.0,
  "training_cpu_memory_MB": 269.084,
  "validation_accuracy": 0.545,
  "validation_loss": 0.9932881764003209,
  "validation_reg_loss": 0.0,
  "best_validation_accuracy": 0.505,
  "best_validation_loss": 0.9903959206172398,
  "best_validation_reg_loss": 0.0
}