{
  "best_epoch": 0,
  "peak_cpu_memory_MB": 313.608,
  "training_duration": "0:00:03.614141",
  "training_start_epoch": 0,
  "training_epochs": 0,
  "epoch": 0,
  "training_accuracy": 0.46054605460546055,
  "training_loss": 1.0191947650223876,
  "training_reg_loss": 0.0,
  "training_cpu_memory_MB": 313.608,
  "validation_accuracy": 0.4366303121474238,
  "validation_loss": 1.0105553751900083,
  "validation_reg_loss": 0.0,
  "best_validation_accuracy": 0.4366303121474238,
  "best_validation_loss": 1.0105553751900083,
  "best_validation_reg_loss": 0.0
}