{
  "best_epoch": 27,
  "peak_cpu_memory_MB": 335.028,
  "training_duration": "0:02:04.917731",
  "training_start_epoch": 0,
  "training_epochs": 31,
  "epoch": 31,
  "training_accuracy": 0.6054605460546054,
  "training_loss": 0.8467787012886315,
  "training_reg_loss": 0.0,
  "training_cpu_memory_MB": 335.028,
  "validation_accuracy": 0.5769086122602483,
  "validation_loss": 0.8785832495916457,
  "validation_reg_loss": 0.0,
  "best_validation_accuracy": 0.5870628055660022,
  "best_validation_loss": 0.8745869234913871,
  "best_validation_reg_loss": 0.0
}