{
  "best_epoch": 35,
  "peak_cpu_memory_MB": 335.044,
  "training_duration": "0:03:14.666308",
  "training_start_epoch": 0,
  "training_epochs": 49,
  "epoch": 49,
  "training_accuracy": 0.6270627062706271,
  "training_loss": 0.8061247203296746,
  "training_reg_loss": 0.0,
  "training_cpu_memory_MB": 335.044,
  "validation_accuracy": 0.5957126739375705,
  "validation_loss": 0.8837794938257763,
  "validation_reg_loss": 0.0,
  "best_validation_accuracy": 0.5878149680330952,
  "best_validation_loss": 0.8743720501661301,
  "best_validation_reg_loss": 0.0
}