{
  "best_epoch": 35,
  "peak_cpu_memory_MB": 335.028,
  "training_duration": "0:02:24.229113",
  "training_start_epoch": 0,
  "training_epochs": 36,
  "epoch": 36,
  "training_accuracy": 0.6122612261226122,
  "training_loss": 0.8276218615781766,
  "training_reg_loss": 0.0,
  "training_cpu_memory_MB": 335.028,
  "validation_accuracy": 0.5735238811583302,
  "validation_loss": 0.8815233707427979,
  "validation_reg_loss": 0.0,
  "best_validation_accuracy": 0.5878149680330952,
  "best_validation_loss": 0.8743720501661301,
  "best_validation_reg_loss": 0.0
}