{
  "best_epoch": 19,
  "peak_cpu_memory_MB": 334.376,
  "training_duration": "0:01:17.718442",
  "training_start_epoch": 0,
  "training_epochs": 19,
  "epoch": 19,
  "training_accuracy": 0.5912591259125912,
  "training_loss": 0.870015387527478,
  "training_reg_loss": 0.0,
  "training_cpu_memory_MB": 334.376,
  "validation_accuracy": 0.5795411808950733,
  "validation_loss": 0.8783737364269438,
  "validation_reg_loss": 0.0,
  "best_validation_accuracy": 0.5795411808950733,
  "best_validation_loss": 0.8783737364269438,
  "best_validation_reg_loss": 0.0
}