{
  "best_epoch": 0,
  "peak_cpu_memory_MB": 546.836,
  "training_duration": "0:00:26.808626",
  "training_start_epoch": 0,
  "training_epochs": 1,
  "epoch": 1,
  "training_accuracy": 0.619,
  "training_loss": 0.8010372177810426,
  "training_reg_loss": 0.0,
  "training_cpu_memory_MB": 546.836,
  "validation_accuracy": 0.5330882352941176,
  "validation_loss": 1.0053183074090994,
  "validation_reg_loss": 0.0,
  "best_validation_accuracy": 0.5128676470588235,
  "best_validation_loss": 0.9503326719882441,
  "best_validation_reg_loss": 0.0
}