@@UNKNOWN@@
a
e
ा
i
t
o
r
n
क
े
s
ह
h
ी
र
l
ो
न
d
त
m
u
ं
स
म
@
ल
y
p
c
ि
ब
ज
य
द
g
प
्
ै
ग
k
b
f
w
ु
v
S
व
A
आ
I
T
भ
R
M
च
अ
ू
P
j
B
_
ख
ए
/
़
1
श
ड
C
N
ई
0
इ
औ
H
2
#
G
D
K
O
थ
E
ट
फ
छ
J
उ
L
4
W
5
3
z
9
7
:
?
😂
8
F
ध
Y
V
…
ँ
U
6
x
झ
q
-
ौ
ओ
ठ
’
घ
🙏
ऐ
Z
ढ
️
❤
ष
&
)
🤣
Q
ण
😍
(
ا
X
😭
;
ی
*
😘
ऊ
🇮
🇳
ر
😊
ک
و
💜
ن
ہ
م
😡
ے
💕
ृ
“
🎂
🌹
%
😁
ل
💐
🏻
”
ॉ
👏
।
ت
👍
😜
د
😆
ب
🎉
+
😀
‍
س
👌
🤔
ञ
😠
🙄
ں
🤗
😋
پ
😅
🚩
💓
♥
💋
✌
😎
😉
😝
☺
ः
ऎ
🌷
😢
💖
😇
|
🤪
💔
~
😌
ھ
😔
🔥
‘
🌸
💪
ج
💙
😄
🎊
=
😑
💯
💑
ز
😒
🙈
💗
😬
گ
[
🇵
🇰
🏼
😏
🙌
♂
🖕
🏆
ش
ف
😛
😹
🙂
]
🥰
♀
ق
😪
😃
🤦
—
é
🤬
🤩
💚
ع
ئ
😤
😐
ح
ٹ
✨
ā
💞
😩
☹
😕
✅
🎁
🙇
🏾
🏽
😮
👎
🌺
🌱
۔
á
🙊
👇
🎈
🤧
🥺
🤨
💃
$
چ
💏
خ
ص
😣
🏏
🌈
آ
😈
💝
ऑ
🖤
–
😳
💘
😥
₹
😶
🤷
<
🤘
🙃
😙
ñ
➡
🌚
💛
🌼
>
😞
💮
🔯
،
💩
👑
😫
😷
🙆
😴
😨
❣
í
🤓
ط
👉
🥳
`
ı
󠁧
🍰
⚫
🦄
🏵
🍾
👈
ض
؟
ᴇ
া
🍖
😚
్
✊
👀
😻
💀
🤭
👩
•
ظ
ে
🍺
😓
🤞
🗿
🦋
🐍
✔
👻
🧡
ş
🎶
👨
🤡
ü
ڑ
🕎
ॆ
😖
😱
💫
🌿
🌲
👫
스
🇦
😯
⬆
✖
^
✍
🥴
❓
ᴀ
🎼
⃣
🖐
র
ক
🍗
👋
🍫
🙉
å
🤙
💁
✋
ర
´
⛳
☝
🕺
🇩
🏴
󠁢
󠁿
🌙
❗
ã
🤟
⬇
😗
ç
😰
🎵
🤲
기
⁦
ー
ؤ
ᴛ
🐅
ু
🇪
🍧
ä
📄
ê
👿
ి
ా
🐱
😟
🇧
󠁥
󠁮
👊
💥
🇸
่
‼
🤝
🧐
🎧
🤯
╭
╮
غ
ᵒ
ᵉ
🗣
⁩
の
に
す
ऋ
ڈ
ɪ
ɴ
ᴍ
🍦
🤐
🏳
🔺
🐵
ত
্
ো
ম
য
🎄
𝗲
🕴
🍨
🍬
🐯
🎇
ô
ł
📃
🌵
자
క
ు
స
ం
డ
ప
🔫
🇿
🌴
✈
🇬
💸
🔨
น
ค
ุ
ก
🚨
🏿
ý
🍀
🔴
⭐
ö
ř
𝄞
Á
ਂ
👅
👹
다
🔝
ˢ
🎀
ン
日
🌟
🥇
🌻
ʀ
ゃ
이
특
🕋
ُ
🐟
আ
ঋ
ি
ল
ও
খ
থ
ন
🍻
👠
🍎
🍏
🐶
𝘀
🎋
ī
ે
ó
🌝
👾
ㅠ
ي
ة
đ
ż
🙋
🧚
ﷺ
한
మ
న
ద
త
ో
య
ల
ఉ
ష
ů
🇫
🇺
🇱
💌
ꕊ
𝐡
𝐞
ผ
ป
ี
อ
บ
ท
🥵
ۃ
č
👐
🙅
🤒
🐼
🙁
🐂
¡
·
¯
っ
˘
̩
♡
🚴
⃑
ਹ
ੁ
ਤ
ੀ
ਰ
🎓
🦍
🌎
ङ
🎬
👺
⠀
💟
🇭
〣
º
ᵐ
ʸ
ᵍ
ᵘ
ᵃ
ᶦ
🤕
💬
ダ
ヒ
ョ
限
定
で
ル
ま
Í
💎
ē
⤴
💍
î
🤮
👼
👰
👸
ᴋ
ғ
ᴅ
ᴏ
ᴘ
💡
ذ
こ
🏡
☀
😦
{
}
🤑
ء
｡
‿
◉
🚶
트
레
키
즈
প
ষ
ব
়
🤫
🎤
🍍
📸
🐕
🕉
🥁
☘
𝗶
𝗰
🌘
વ
ર
મ
િ
🍇
🍁
🥫
🌍
📻
🐖
¿
🤠
🏖
ế
ồ
ủ
ề
ố
Ć
ę
Ś
↑
🐸
👆
🛐
ﷻ
𝐹
𝒾
𝑔
𝒽
𝓉
𝒻
𝑜
𝓇
𝓊
𝓈
📝
국
댄
러
시
팀
약
제
일
은
행
🐈
ధ
బ
ే
ఇ
అ
ూ
వ
చ
ě
š
🏁
🎩
🦁
🙀
😲
🔚
𝐂
𝐚
𝐩
𝐭
𝐫
𝟔
𝟏
𝟐
𝐉
𝐮
𝐧
𝐖
𝐢
𝐬
︎
า
ไ
แ
ล
้
ว
ร
ึ
ง
ข
ณ
ย
ู
ั
🚬
⚔
ň
⚪
󠁳
󠁣
󠁴
🛍
ò
à
🍱
⚽
👞
🥾
👟
😼
❌
🤤
🌊
🐥
🐿
Č
🔪
▂
🏋
🌶
¥
ਣ
ਸ
ਨ
ਕ
ੋ
ਗ
ੇ
ਾ
ਫ
ਿ
―
🔁
🦳
🌄
🐓
🦉
É
°
ú
🌏
🔔
🔐
🐐
🥭
멀
티
뷰
와
함
께
즐
는
머
터
실
황
생
중
계
만
립
니
😵
🎟
🕌
Δ
ʰ
ᵈ
ʳ
ᶜ
ᵗ
ᵛ
ᵏ
😿
🎥
🔟
🎆
🎗
は
🦅
誕
生
当
、
イ
ベ
ト
ス
テ
ジ
が
つ
い
開
放
べ
て
パ
ズ
を
ク
リ
ア
る
と
ム
ビ
ỉ
ư
ờ
⛽
™
📈
📣
🇾
🌌
👒
⚘
✴
❔
⁉
お
や
☪
ؑ
ʟ
👥
ɢ
💾
ᴠ
ᴄ
ʏ
ᴜ
ʜ
🎸
🎻
📷
王
君
豪
왕
군
호
구
노
โ
ฮ
프
로
듀
®
猫
ね
ネ
コ
ん
💣
극
찬
글
라
돔
나
도
있
🔃
🏹
♆
♅
🚛
ū
ه
\
জ
ণ
ঘ
ৃ
ী
চ
ট
স
ছ
ঁ
দ
এ
ড
ই
ভ
Ã
â
Š
🔈
⌚
🍟
🍓
🍒
🍊
🍑
🍐
լ
ɩ
ɣ
є
Ɩ
Ɲ
📺
🤚
☔
🐰
🔗
👮
🥈
👶
👧
🍭
🏟
🤸
👯
ً
🤥
𝗣
𝘂
𝗯
𝗹
𝗿
𝘃
𝗺
𝗮
𝗴
🍸
⚕
📧
🤳
🏈
થ
ી
ટ
ન
હ
જ
ગ
ા
ં
✉
🍔
🧀
🍕
🍿
🐒
è
Ş
Ç
॥
©
⚡
✒
🔙
℅
ì
🇨
❇
👃
☃
明
メ
し
⛹
🐽
🍃
