{
  "best_epoch": 2,
  "peak_cpu_memory_MB": 277.736,
  "training_duration": "0:00:01.503460",
  "training_start_epoch": 0,
  "training_epochs": 2,
  "epoch": 2,
  "training_accuracy": 0.4166666666666667,
  "training_loss": 1.063680585088401,
  "training_reg_loss": 0.0,
  "training_cpu_memory_MB": 277.736,
  "validation_accuracy": 0.45,
  "validation_loss": 1.061065707887922,
  "validation_reg_loss": 0.0,
  "best_validation_accuracy": 0.45,
  "best_validation_loss": 1.061065707887922,
  "best_validation_reg_loss": 0.0
}