{
  "best_epoch": 12,
  "peak_cpu_memory_MB": 280.12,
  "training_duration": "0:00:07.311675",
  "training_start_epoch": 0,
  "training_epochs": 14,
  "epoch": 14,
  "training_accuracy": 0.4666666666666667,
  "training_loss": 1.026298751091135,
  "training_reg_loss": 0.0,
  "training_cpu_memory_MB": 280.12,
  "validation_accuracy": 0.435,
  "validation_loss": 1.0496822254998344,
  "validation_reg_loss": 0.0,
  "best_validation_accuracy": 0.425,
  "best_validation_loss": 1.047564949308123,
  "best_validation_reg_loss": 0.0
}