{
  "best_epoch": 0,
  "peak_cpu_memory_MB": 1107.404,
  "training_duration": "0:00:39.504685",
  "training_start_epoch": 0,
  "training_epochs": 1,
  "epoch": 1,
  "training_accuracy": 0.5372636262513905,
  "training_loss": 0.9428402462909962,
  "training_reg_loss": 0.0,
  "training_cpu_memory_MB": 1107.404,
  "validation_accuracy": 0.435,
  "validation_loss": 1.0968639510018485,
  "validation_reg_loss": 0.0,
  "best_validation_accuracy": 0.46,
  "best_validation_loss": 1.0619221755436488,
  "best_validation_reg_loss": 0.0
}