{
  "best_epoch": 0,
  "peak_cpu_memory_MB": 1149.604,
  "training_duration": "0:03:23.875409",
  "training_start_epoch": 0,
  "training_epochs": 9,
  "epoch": 9,
  "training_accuracy": 0.96440489432703,
  "training_loss": 0.10429378802053116,
  "training_reg_loss": 0.0,
  "training_cpu_memory_MB": 1149.576,
  "validation_accuracy": 0.445,
  "validation_loss": 3.11929908820561,
  "validation_reg_loss": 0.0,
  "best_validation_accuracy": 0.46,
  "best_validation_loss": 1.0619221755436488,
  "best_validation_reg_loss": 0.0
}