{
  "best_epoch": 0,
  "peak_cpu_memory_MB": 1135.296,
  "training_duration": "0:01:41.005801",
  "training_start_epoch": 0,
  "training_epochs": 4,
  "epoch": 4,
  "training_accuracy": 0.896551724137931,
  "training_loss": 0.2762445991152319,
  "training_reg_loss": 0.0,
  "training_cpu_memory_MB": 1135.296,
  "validation_accuracy": 0.44,
  "validation_loss": 2.1606110674994334,
  "validation_reg_loss": 0.0,
  "best_validation_accuracy": 0.46,
  "best_validation_loss": 1.0619221755436488,
  "best_validation_reg_loss": 0.0
}