{
  "best_epoch": 6,
  "peak_cpu_memory_MB": 1403.34,
  "training_duration": "0:06:53.806582",
  "training_start_epoch": 0,
  "training_epochs": 14,
  "epoch": 14,
  "training_accuracy": 0.7357735773577357,
  "training_loss": 0.6119793462105834,
  "training_reg_loss": 0.0,
  "training_cpu_memory_MB": 1403.34,
  "validation_accuracy": 0.5099661526889808,
  "validation_loss": 1.2463364111525672,
  "validation_reg_loss": 0.0,
  "best_validation_accuracy": 0.5445656261752538,
  "best_validation_loss": 0.9296030352512995,
  "best_validation_reg_loss": 0.0
}