{
  "best_epoch": 6,
  "peak_cpu_memory_MB": 1403.332,
  "training_duration": "0:03:13.379157",
  "training_start_epoch": 0,
  "training_epochs": 6,
  "epoch": 6,
  "training_accuracy": 0.5873587358735873,
  "training_loss": 0.8587851870935946,
  "training_reg_loss": 0.0,
  "training_cpu_memory_MB": 1403.332,
  "validation_accuracy": 0.5445656261752538,
  "validation_loss": 0.9296030352512995,
  "validation_reg_loss": 0.0,
  "best_validation_accuracy": 0.5445656261752538,
  "best_validation_loss": 0.9296030352512995,
  "best_validation_reg_loss": 0.0
}