{
  "best_epoch": 3,
  "peak_cpu_memory_MB": 1401.992,
  "training_duration": "0:01:52.086473",
  "training_start_epoch": 0,
  "training_epochs": 3,
  "epoch": 3,
  "training_accuracy": 0.5366536653665367,
  "training_loss": 0.9246287347790533,
  "training_reg_loss": 0.0,
  "training_cpu_memory_MB": 1401.992,
  "validation_accuracy": 0.5231289958631065,
  "validation_loss": 0.9452493531363351,
  "validation_reg_loss": 0.0,
  "best_validation_accuracy": 0.5231289958631065,
  "best_validation_loss": 0.9452493531363351,
  "best_validation_reg_loss": 0.0
}