{
  "best_epoch": 2,
  "peak_cpu_memory_MB": 1097.968,
  "training_duration": "0:01:22.409566",
  "training_start_epoch": 0,
  "training_epochs": 3,
  "epoch": 3,
  "training_accuracy": 0.6551724137931034,
  "training_loss": 0.7351440735932054,
  "training_reg_loss": 0.0,
  "training_cpu_memory_MB": 1097.968,
  "validation_accuracy": 0.45,
  "validation_loss": 1.0562409162521362,
  "validation_reg_loss": 0.0,
  "best_validation_accuracy": 0.47,
  "best_validation_loss": 1.0494666695594788,
  "best_validation_reg_loss": 0.0
}