{
  "best_epoch": 10,
  "peak_cpu_memory_MB": 1243.22,
  "training_duration": "0:07:12.888792",
  "training_start_epoch": 0,
  "training_epochs": 13,
  "epoch": 13,
  "training_accuracy": 0.6055605560556055,
  "training_loss": 0.8197901216558755,
  "training_reg_loss": 0.0,
  "training_cpu_memory_MB": 1243.22,
  "validation_accuracy": 0.5475742760436254,
  "validation_loss": 0.9387044310569763,
  "validation_reg_loss": 0.0,
  "best_validation_accuracy": 0.5430613012410681,
  "best_validation_loss": 0.9171169258299328,
  "best_validation_reg_loss": 0.0
}