{
  "best_epoch": 10,
  "peak_cpu_memory_MB": 1243.22,
  "training_duration": "0:07:41.423383",
  "training_start_epoch": 0,
  "training_epochs": 14,
  "epoch": 14,
  "training_accuracy": 0.61996199619962,
  "training_loss": 0.8035729641731555,
  "training_reg_loss": 0.0,
  "training_cpu_memory_MB": 1243.22,
  "validation_accuracy": 0.5445656261752538,
  "validation_loss": 0.9397340714931488,
  "validation_reg_loss": 0.0,
  "best_validation_accuracy": 0.5430613012410681,
  "best_validation_loss": 0.9171169258299328,
  "best_validation_reg_loss": 0.0
}