{
    "dataset_reader": {
        "type": "laser-reader"
    },
    "model": {
        "type": "laser-hinglish-classifier",
        "dropout": 0.2,
        "feedforward": {
            "activations": "relu",
            "dropout": 0.2,
            "hidden_dims": [
                512,
                256,
                128,
                64
            ],
            "input_dim": 1024,
            "num_layers": 4
        }
    },
    "train_data_path": "allennlp_tests/datasets/train_split.raw#allennlp_tests/datasets/sentiments_train.npy",
    "validation_data_path": "allennlp_tests/datasets/val_split.raw#allennlp_tests/datasets/sentiments_val.npy",
    "trainer": {
        "cuda_device": -1,
        "num_epochs": 60,
        "optimizer": "adam",
        "patience": 10
    },
    "data_loader": {
        "type": "default",
        "batch_size": 32
    }
}