{
  "best_epoch": 16,
  "peak_cpu_memory_MB": 338.868,
  "training_duration": "0:01:11.454589",
  "training_start_epoch": 0,
  "training_epochs": 17,
  "epoch": 17,
  "training_accuracy": 0.6131613161316132,
  "training_loss": 0.8307408831370905,
  "training_reg_loss": 0.0,
  "training_cpu_memory_MB": 338.868,
  "validation_accuracy": 0.5874388867995487,
  "validation_loss": 0.8822390621616727,
  "validation_reg_loss": 0.0,
  "best_validation_accuracy": 0.5840541556976306,
  "best_validation_loss": 0.8770395176751273,
  "best_validation_reg_loss": 0.0
}