{
  "best_epoch": 13,
  "peak_cpu_memory_MB": 338.868,
  "training_duration": "0:00:59.534146",
  "training_start_epoch": 0,
  "training_epochs": 14,
  "epoch": 14,
  "training_accuracy": 0.6005600560056006,
  "training_loss": 0.8500732566221073,
  "training_reg_loss": 0.0,
  "training_cpu_memory_MB": 338.868,
  "validation_accuracy": 0.5791650996615268,
  "validation_loss": 0.8833792961779094,
  "validation_reg_loss": 0.0,
  "best_validation_accuracy": 0.58518239939827,
  "best_validation_loss": 0.882415193886984,
  "best_validation_reg_loss": 0.0
}