{
  "best_epoch": 3,
  "peak_cpu_memory_MB": 473.548,
  "training_duration": "0:00:44.326458",
  "training_start_epoch": 0,
  "training_epochs": 12,
  "epoch": 12,
  "training_accuracy": 0.5161290322580645,
  "training_loss": 0.9384812897649305,
  "training_reg_loss": 0.0,
  "training_cpu_memory_MB": 473.54,
  "validation_accuracy": 0.445,
  "validation_loss": 1.113278099468776,
  "validation_reg_loss": 0.0,
  "best_validation_accuracy": 0.39,
  "best_validation_loss": 1.0744243349347795,
  "best_validation_reg_loss": 0.0
}