{
  "best_epoch": 0,
  "peak_cpu_memory_MB": 274.292,
  "training_duration": "0:00:03.941186",
  "training_start_epoch": 0,
  "training_epochs": 0,
  "epoch": 0,
  "training_accuracy": 0.37486095661846497,
  "training_loss": 1.0973318938551277,
  "training_reg_loss": 0.0,
  "training_cpu_memory_MB": 274.292,
  "validation_accuracy": 0.39,
  "validation_loss": 1.0854473624910628,
  "validation_reg_loss": 0.0,
  "best_validation_accuracy": 0.39,
  "best_validation_loss": 1.0854473624910628,
  "best_validation_reg_loss": 0.0
}