{
  "best_epoch": 3,
  "peak_cpu_memory_MB": 473.104,
  "training_duration": "0:00:14.207293",
  "training_start_epoch": 0,
  "training_epochs": 3,
  "epoch": 3,
  "training_accuracy": 0.42936596218020023,
  "training_loss": 1.0487411453806121,
  "training_reg_loss": 0.0,
  "training_cpu_memory_MB": 473.104,
  "validation_accuracy": 0.39,
  "validation_loss": 1.0744243349347795,
  "validation_reg_loss": 0.0,
  "best_validation_accuracy": 0.39,
  "best_validation_loss": 1.0744243349347795,
  "best_validation_reg_loss": 0.0
}