{
  "best_epoch": 35,
  "peak_cpu_memory_MB": 335.308,
  "training_duration": "0:02:37.596432",
  "training_start_epoch": 0,
  "training_epochs": 39,
  "epoch": 39,
  "training_accuracy": 0.6198619861986199,
  "training_loss": 0.8259548689610661,
  "training_reg_loss": 0.0,
  "training_cpu_memory_MB": 335.308,
  "validation_accuracy": 0.5904475366679203,
  "validation_loss": 0.8757524575505938,
  "validation_reg_loss": 0.0,
  "best_validation_accuracy": 0.5878149680330952,
  "best_validation_loss": 0.8743720501661301,
  "best_validation_reg_loss": 0.0
}