{
  "best_epoch": 8,
  "peak_cpu_memory_MB": 334.48,
  "training_duration": "0:00:38.726554",
  "training_start_epoch": 0,
  "training_epochs": 9,
  "epoch": 9,
  "training_accuracy": 0.5691569156915691,
  "training_loss": 0.8937156678388675,
  "training_reg_loss": 0.0,
  "training_cpu_memory_MB": 334.48,
  "validation_accuracy": 0.5723956374576908,
  "validation_loss": 0.8946970644451323,
  "validation_reg_loss": 0.0,
  "best_validation_accuracy": 0.5690109063557729,
  "best_validation_loss": 0.8932763983805975,
  "best_validation_reg_loss": 0.0
}