{
  "best_epoch": 27,
  "peak_cpu_memory_MB": 335.164,
  "training_duration": "0:01:50.003341",
  "training_start_epoch": 0,
  "training_epochs": 27,
  "epoch": 27,
  "training_accuracy": 0.6018601860186018,
  "training_loss": 0.8502111537768818,
  "training_reg_loss": 0.0,
  "training_cpu_memory_MB": 335.164,
  "validation_accuracy": 0.5870628055660022,
  "validation_loss": 0.8745869234913871,
  "validation_reg_loss": 0.0,
  "best_validation_accuracy": 0.5870628055660022,
  "best_validation_loss": 0.8745869234913871,
  "best_validation_reg_loss": 0.0
}