{
  "best_epoch": 35,
  "peak_cpu_memory_MB": 335.308,
  "training_duration": "0:02:42.017775",
  "training_start_epoch": 0,
  "training_epochs": 40,
  "epoch": 40,
  "training_accuracy": 0.6190619061906191,
  "training_loss": 0.8205564269623437,
  "training_reg_loss": 0.0,
  "training_cpu_memory_MB": 335.308,
  "validation_accuracy": 0.5881910492666416,
  "validation_loss": 0.8810348837148576,
  "validation_reg_loss": 0.0,
  "best_validation_accuracy": 0.5878149680330952,
  "best_validation_loss": 0.8743720501661301,
  "best_validation_reg_loss": 0.0
}