{
  "best_epoch": 27,
  "peak_cpu_memory_MB": 335.292,
  "training_duration": "0:02:09.868113",
  "training_start_epoch": 0,
  "training_epochs": 32,
  "epoch": 32,
  "training_accuracy": 0.6092609260926093,
  "training_loss": 0.8407260533719779,
  "training_reg_loss": 0.0,
  "training_cpu_memory_MB": 335.292,
  "validation_accuracy": 0.5840541556976306,
  "validation_loss": 0.8863117510364169,
  "validation_reg_loss": 0.0,
  "best_validation_accuracy": 0.5870628055660022,
  "best_validation_loss": 0.8745869234913871,
  "best_validation_reg_loss": 0.0
}