{
  "best_epoch": 13,
  "peak_cpu_memory_MB": 334.632,
  "training_duration": "0:00:59.016716",
  "training_start_epoch": 0,
  "training_epochs": 14,
  "epoch": 14,
  "training_accuracy": 0.5844584458445845,
  "training_loss": 0.8776815705025158,
  "training_reg_loss": 0.0,
  "training_cpu_memory_MB": 334.632,
  "validation_accuracy": 0.5712673937570515,
  "validation_loss": 0.8910605453309559,
  "validation_reg_loss": 0.0,
  "best_validation_accuracy": 0.575028206092516,
  "best_validation_loss": 0.8859318324497768,
  "best_validation_reg_loss": 0.0
}