{
  "best_epoch": 3,
  "peak_cpu_memory_MB": 334.268,
  "training_duration": "0:00:15.019374",
  "training_start_epoch": 0,
  "training_epochs": 3,
  "epoch": 3,
  "training_accuracy": 0.5459545954595459,
  "training_loss": 0.9141030408703862,
  "training_reg_loss": 0.0,
  "training_cpu_memory_MB": 334.268,
  "validation_accuracy": 0.5366679202707785,
  "validation_loss": 0.918302935503778,
  "validation_reg_loss": 0.0,
  "best_validation_accuracy": 0.5366679202707785,
  "best_validation_loss": 0.918302935503778,
  "best_validation_reg_loss": 0.0
}