@@UNKNOWN@@
है
में
तो
के
हैं
हो
नहीं
तुम
की
भी
rt
सब
से
को
और
गया
आया
का
ही
https://t
कर
था
मैं
क्या
हूँ
कोई
कुछ
एक
यह
कि
ये
अब
मुझे
न
पर
लिए
भाई
रहे
रहा
जो
लोग
वह
ने
अभी
आप
रही
बात
वो
किया
फिर
पे
हम
आ
करो
तक
आज
हुआ
थी
मेरे
जब
and
पहले
कभी
इस
देख
बस
समझ
साथ
ना
पता
या
अपना
करते
दिया
कैसे
बोल
अपनी
घर
किसी
जी
जैसे
बार
मेरी
लेकिन
😂
दिल
होता
नही
क्यों
वाले
होगा
बहुत
लोगों
गई
अच्छा
ठीक
करने
i
अगर
यार
अपने
सिर्फ
बाद
song
खुद
@sidharth_shukla
sir
दिन
but
चल
सही
दे
:
नाम
काम
hai
पास
लगता
बन
नई
कौन
दो
होती
याद
थे
shona
#shonashonawithsidnaaz
तुम्हारे
कल
देश
ऐसे
?
मिल
sidharth
यही
कह
time
तब
सोना
ले
करता
मेरा
तेरे
गए
जाओ
हुए
तू
अरे
पसंद
हू
you
होते
इतना
@ishehnaaz_gill
2
चाहिए
वैसे
उसको
हर
लो
उस
सकते
करना
लगा
बड़े
आता
गलत
भूत
लग
यहाँ
sid
सोच
तुम्हें
दी
देखो
हाथ
ज्यादा
होना
ऐसा
मैंने
करके
खुश
जाता
इसलिए
@narendramodi
शादी
देना
होगी
लेना
कम
चला
😂😂
बाहर
@colorstv
@beingsalmankhan
इन
जा
बड़ी
हिन्दू
me
बाप
रह
प्यार
of
तरह
fans
गये
साल
सारे
शोना
india
करती
देखा
सकता
अकेले
देते
जगह
छोड़
मिले
my
गाना
पूरी
वही
😂😂😂
please
it
आपके
मत
views
बाकी
#kyahua
माँ
हैं?
लिया
हमें
इतनी
सबसे
10
लिखा
आने
करे
🤣
@myogiadityanath
जाए
post
trend
उसके
बोलते
कहा
कहाँ
हमारे
लगती
व
role
tweet
कहीं
last
आये
हुई
1
-
twitter
कितने
दुनिया
जाना
दोस्ती
मजा
भूल
मतलब
ho
कब
लगे
तेरी
बोला
पहली
थोड़ा
सच
बता
@tonykakkar
दोनों
आगे
tony
finally
is
रहो
muslim
side
mv
ज्ञान
हाँ
to
हमारी
साला
वाली
party
phone
ऐसी
बुरा
जनता
जाने
बना
भाग
थोड़ी
मान
लेकर
इतने
इधर
corona
उसे
कहते
#ssrdishaawaitsjustice
उसकी
@jasminbhasin
like
जिस
😅
मे
मगर
#lonewarriorsidharthshukla
धर्म
5
सुन
डाल
डाला
mumbai
सर
sana
जय
मार
सबको
वाला
पूरा
जेल
bjp
लेके
आपकी
सा
hindustan
बंद
उसका
उनका
हों
पागल
मस्त
award
मिला
जमीन
करोगे
modi
बिल्कुल
@biggboss
आपको
रात
जाती
@iamkavitak
बच्चे
be
बोहोत
जाते
पीछे
होने
@sushilmodi
शेर
😭
h
गलती
ram
गाड़ी
बोलो
trending
आम
नफरत
for
जिसको
उधर
तेरा
अलग
वक्त
बढ़िया
लेते
अल्लाह
लड़की
निकल
लाख
सूरज
fan
family
मैने
आएगा
जिंदगी
आना
life
mummy
सकती
बातें
चाहता
दिखा
बी
किस
मिली
pak
😂😂😂😂😂
मुंह
vote
#sidnaaz
❤️
रोज
जाएगा
no
#shonashona
बेटी
चुप
चाँद
छटा
दूसरे
वे
ऐक
तुम्हारी
रखा
job
कानून
हमारा
देने
the
love
योगी
मर
बिना
सिर
video
team
वजह
इंसान
अकेला
गाली
तुम्हारा
school
news
नेह
@amitshah
इनको
चोर
बड़ा
मौत
आदमी
बनाने
are
करें
उन
सवाल
खाना
समझा
नजर
his
बोलने
#sidharthshukla
बातों
…
समाज
रख
करार
🙄
फालतू
समझे
सो
3
खत्म
औकात
हमने
गा
दिमाग
शर्म
कितनी
@alygoni
दोस्त
ते
अछि
जायेगा
उनकी
ऊपर
चले
गयी
रहेगी
not
पी
सामने
कहना
पैदा
बोले
मजाक
a
matter
डर
#bb14
वहां
बिन
जीना
@rubidilaik
बारे
#kavitakaushik
लगेंगे
गरीब
छोटे
rohit
जिसने
जाके
शहनाज
@googlepayindia
गया?
देखने
देती
मज़ा
plus
हो?
उनको
😒
block
😅😅
हिंदू
kashmir
he
live
इसके
देखना
कितना
इज्जत
देंगे
जल्दी
खामोश
मुह
सी
दुम
सिर्फ़
pressure
फैला
move
जाये
s
वापस
बहनों
arjun
am
in
लोगो
उसने
हे
bharat
oh
हां
@yadavtejashwi
खुल
support
आते
on
बीच
गया😂
खाने
चूतिये
m
लिख
मारने
जवाब
चली
होगये
जितना
ठंड
इसी
पूछ
चाहते
busy
😉
seriously
🙂
किसने
बेकार
@youtube
सभी
बीवी
app
ए
ग
हमेशा
अछी
road
सुबह
हूं
सरकार
उठा
end
help
😂❤️
करूँ
comment
आई
बेच
class
तुझे
call
जानता
जानते
मौसम
@vootselect
😁
bill
चोरी
खेल
lalu
4
इक
बढ़
@abpnews
@ani
shukla
बारिश
यूँ
will
🙏
आसमान
गोली
इनका
@chalpakamatt
आओ
shehnaaz
रोना
we
सुना
नीचे
sidnaaz
ओ
आमीन
up
लाल
खुदा
जान
उसी
परिवार
खुशी
top
लगी
पूरे
day
tum
सबकी
@iarmysupporter
बहन
she
हवा
use
same
friend
talent
पानी
@pmoindia
boring
@saleemkhansafi
लड़का
दोगे
झूठी
भर
london
समझदार
महान
रखी
सीख
वैसा
us
??
सिद्ध
बताओ
congress
जिसमें
दिखाया
साहब
kabir
सारी
मुश्किल
that
friends
चुकी
थक
sushant
इसका
कैसी
लेने
खिलाफ
करु
वाहियात
करदो
घमंड
पढ़
जायेंगे
छुप
मिलना
आपसे
@iamkamyapunjabi
इसको
they
ध्यान
क्योकि
हमको
तुम्हे
pic
share
@realvindusingh
@koharjatin
रो
सारा
मुसलमान
कई
free
@dchaurasia2312
रहता
joke
@arvindkejriwal
@theupenyadav
समय
बेटा
दर्द
judge
बची
कैद
गाने
kakkar
good
loss
आपने
नज़र
बकवास
@twiinkle:
बनाया
आए
नया
china
@syyedsuhail
true
प
dm
जिसका
जाकर
कुत्ते
bangladesh
pakistan
किये
भक्तों
यकीन
काफी
खराब
बच्चों
उससे
बोहत
देगा
always
मुद्दा
उतना
देखते
तुमको
know
दुख
भरोसा
रहते
घटिया
दिखता
माने
उठ
वालों
क्या?
घंटा
देखे
हाल
@officialdgispr
उसमें
ed
गली
दिनों
problem
जानना
केवल
कीमत
लगते
खाली
गुस्सा
आती
national
@incindia
अच्छाई
संभाल
pm
kochi
तड़प
वरना
जाहिल
दिये
उनके
कहां
stream
rahul
&amp;
जहां
likes
start
@yash_narvekar92
@amaalmallik
करेंगे
भैया
तरफ
लिये
15
rubina
इसकी
ashram
ऎसे
72
निकाल
light
सुनके
2020
@sirfhumariri:
सिद्धार्थ
what
शायद
वहीं
film
moment
तुमने
ती
बोलता
बैठ
😑
यहीं
wish
result
best
आजाओ
मारो
लड़ाई
ख़याल
टकराता
चाह
मिठाई
पा
@hmoindia
जरूर
ओह
नी
सपने
movie
intelligent
दोस्तों
मारे
हजारों
sanjay
के…
फेकू
बहोत
चक्कर
बैठे
पड़ा
भेजो
रहेगा
हिसाब
बेवकूफ
pappu
रखना
war
chinese
साब
malik
जोड़
guys
all
its
😂🤣
जैसी
”
with
लगाया
बताया
सलाह
तबसे
justice
salman
झूठ
सास
deepika
idea
तभी
tv
खबर
मा
ढंग
@sheikhsajid007:
editing
industry
choice
n…
imran
@sarcastic_bae__:
(पता
kyo
pu…
जल
लेती
thank
name
#rubinadilaik
सर्दी
बोली
dhoni
वी
don
kavita
game
भाप
second
भगवान
तुम्ही
जहाँ
@shivamss110
two
यहां
नगर
@aamaadmiparty
nice
बच्चा
@ashokgehlot51
जिनसे
कृपा
गे
uncle
🤣🤣
degree
जिया
😜
भेज
@iamnehakakkar
पाप
टोनी
@mahim_ajju:
😂😂😂😂😂🤭🤭🤭🤭
पे…
line
@alok_ajay
चाप
🥺
9
tweets
पाता
पड़ी
kejriwal
दूंगा
@iravitiwari
@shwetasinghkirt
दूसरों
झगड़े
गरम
have
पाया
@bhaskar21149095
😊
चलता
बोलना
इससे
google
@mukhtar63267158
@sethji1406
सच्चाई
सुधर
आयत
तुमसे
air
@warrior0133:
@myogioffice
उन्हें
2014
modiji
show
मोह
open
गाया
बह
बिजली
season
शुक्रिया
etc
देर
edit
@dir_ed
किसानों
किसान
बहाना
@hemantsorenjmm
tooter
आधी
चलो
टक्कर
रूबी
समझो
दिखाने
अब्ब
पढाई
from
कहने
भाड़
single
police
दिख
first
was
भारत
@zeebiharnews
मुहब्बत
सना
गांजा
n
धो
कोशिश
देता
pure
@iamkamyapunjabi:
#staystrongkavitakaushik
watching…
nainital
gaya
होंगे
him
खा
शुरू
dear
🌝
खून
पिछले
मिलते
जन्नत
😌
बताना
sharma
चुका
@itz__atul:
varanasi
ramesh
बाबू
भले
कहो
कीड़े
डब्बा
आतंकी
#ekdujekevaaste2
छोटा
@23tanushukla
nation
youtube
😍
only
@rautsanjay61
वासी
अच्छी
cup
उनसे
मैं?
proud
real
अच्छे
खोल
50
cute
वादा
@rahulgandhi
plan
जिहादी
govt
singh
ignore
बुएद
एसे
#हिंदुओं_का_हिंदुस्तान
साफ
बजे
@rohini_sgh
समझने
दुश्मन
वक़्त
ली
🤔
test
@imro45
पड़ता
सुनो
लगेगा
reply
महीने
दुआ
history
खूब
दूर
सन
caa
proof
@sid97277
#delaymdcat2020
बनी
शेरनी
कारण
jail
हिंदी
अंदर
चुके
जाएंगे
आग
crush
हूरों
सुभ
case
आय
1m
करीब
जायें
gold
shree
world
धंधा
सबके
@ashuu_boss
शांत
recovery
bank
@preet_armaalian
@ashchanchlani:
खिलाने
काटने
☹️
so
हमसे
लायक
one
दिए
धर्मों
@nightki20804397
कियों
मरता
मम्मा
gill
जरूरी
promo
@maryamnsharif
💯
फौजी
तरहा
90s
👿
पट
rajya
ऎसा
teacher
उम्र
shows
toilet
paper
😑😑
try
शहर
रखते
आकर
@sherazi82354389:
जंग
sindh
@sidhart59431262:
तो…
अरेरे
विधान
visit
trp
इलाज
@mstruth_wil_win:
@jawaidworld7
असर
😄😄
bomb
blast
संजू
people
death
फॉलो
चिल्लाते
right
prove
नींद
बिनती
भाटिया
लाओ
संस्कार
as
माप
फेक
बुला
सालों
फटती
sab
survey
चलन
खड़ा
or
जिससे
अनपढ़
भारतीय
😪
t…
औकाद
मिलने
देशद्रोही
बोलोगे
murder
डालो
@akshaykumar
निवेदन
gf
कहती
होगया
हासिल
आसान
मंजिल
क्योंकि
😇
जल्द
join
नाला
@bjp4india
@tejasvi_surya
मुल्क
series
सजना
by
कत्ल
मुजरिम
मां
समझता
चढ़ा
@suryaedwardsta1
@rssurjewala
चिरागों
मदद
बादल
छोटी
दहन
aaya
@its_sakshamr
अंग्रेजों
राज
जिनको
लिखना
सुन्न
कचरा
जैसों
islam
तुझ
खाया
सनम
मुझको
literally
students
दूसरी
delay
selfish
ज़रूरी
था?
@sarcastic_chiku:
missing
20
crores
क्यूँ
ab
@brokebeardo
agar
पूजा
confirm
किए
मुझसे
करवा
हं
डी
t
ali
jasmean
their
reality
🤭
@cr7_akkian
@saswatkumarmis8
@nilesh_parvate
ग्रहण
जबसे
चाहा
पल
काल
तीन
भविष्य
@itsssr
❤
आँखों
इश्क
वहाँ
पहुच
had
@ravindervashi
करेगा
@rajatsharmalive
ssr
सिखा
photo
shop
wheeler
जुर्म
शाम
जाम
#allah_prohibits_eatingmeat
mans
नर
saheb
कहेंगे
@ashishc81757846:
शिकायत
सा…
shoot
@sid_dhi1:
dekho
एक-दो
खामियां
jaise
lyrics
जो-जो
🤷
lady
गागा
डाकू
सर…
चतु
सड़क
उतारने
temporary
episode
देखता
doctor
असली
आँखें
बोलेंगे
khan
shah
raja
कहानी
chad
@desimusicfactry
आधा
@nobledoom:
भेजा
co/tfk3cktyav
8
24
neha
@anurag_cricket
पैसे
मी
@sachaanx
@abechalhatt123
@ar_reigns
@abhi24231
@sprinklefrosti1
@ranoo1799
@im_sneha__
@nhi_pta1
@jasmine
@vkrishture
@pkrina_1010
@aryantewari2
@shizuka77777
@xixiping123
टू
बन्
heroine
🌚
@supremecourtind
court
☺️
@rashamians_adda:
#rashamidesai
#rashamians
@therashamidesai
co/v09sb07ldh
@iamrealhasan
directly
general
statement
@kanganateam
@rubikaliyaquat
@swetasinghat
point
note
pro
launch
होगा?
फरक
पढ़ना
मर्जी
अंत
#pubg
star
meko
भाई?
indirectly
तूने
@wo_sharma_ji
@iamgroott0
@tiyaghosh11
dont
मजे
@sandhya78005483
सीखना
@therealkhabri
@endemolshineind
खरीद
online
वार
आलू
नमस्कार
दिखाई
फिरसे
@ravan03693623
@rajput_justice
@pradip103
@nidhileo
@rhythms22
2nd
state
protest
tring
बोलती
poke
गंदा
बिगाड़
#biggboss14
अच्चा
about
करूँगी
rules
boss
🤧
@swati_ikr:
से…
@gauri_budhiraja:
receive
verbally
beats
ac…
कौनसा
🤣😂
ko
कुरान
33
@tum_pukar_lo
chat
months
bubble
government
सोचते
सन्नाटा
भाई🙄😑
troll
kar
raha
@real_khabri_1
इनकी
उड़ा
जिम्मेदारियां
पड़ती
जिन
ख़त्म
देशभक्त
6
जरूरत
कमजोर
पुरी
माया
nagin
@sonukum59437675:
@indianembriyadh
november
flights
saudi
कु…
@shehnaazgill199
@battle__angel
फंस
कारोबार
मकान
10000
हजार
मा…
सहारा
apps
इसीलिए
crore
मई
तैयारी
कांग्रेस
कोरोना
आत्मा
d
आया??
😳
@mustafa20814448
@gouribhide
@vivekanandg
@authackeray
भाइयो
there
sad
soul
bihar
दिलों
@yourbabulal
under
@bolo_waqar:
corolla
civic
#weareunstoppable
against
बनती
@tehzeeb54492175
scene
सुनता
figures
होसकते
emoji
yup
फर्क
future
मामला
लड़कियां
हाथों
200
जादा
बनाना
अन्य
जलसा
@riseofburnol:
@one_by_two
never
@news18bihar
delhi
asim
million
record
मौका
@iamnaveenkapoor
pakistani
हिंदुओं
डाले
publicity
तीसरा
@jaun__elia:
“सब
समझते
गुमान
क्या?”
mahira
सदी
happy
गन्ने
flop
डेटा
अचानक
u
cost
भक्त-चोदी?
आदत
facts
पाना
haha
@ilhamgoni
सफाई
#ras_2018_interview_call_three_times
@nitishkumar
काट
70
खूबसूरत
बचे
चोमू
review
कबूल
@aastha:
where
rohan
रही?
निगल
मेहनत
जिसे
😆
@mhkhalid51
@majorgauravarya
तेरेको
आया?
beech
कुर्ता
pajama
नशा
हमलोग
new
सब्जी
aly
लेता
घोटालेबाज
maharashtra
stuck
वापिस
देनी
hain
lunch
break
इंतज़ार
hours
form
बुत
karma
ढूंढ
हैं😂
age
19
ताकि
sara
दिखी
dance
देदिया
बेचारे
😂😂😂😂😂😂😂…
बल
vikas
पलट
चुटकी
oregano
बौना
घिनौना
भिगोने
gaana
पूछो
propaganda
card
नाली
सीखो
singing
rail
बारी
संगठन
अपुन
गीत
गुम
शुक्र
view
धरती
देखिये
self
जानी
hope
ज़रूर
गधे
culture
समान
now
@divyadjj06
भक्त
bio
घबराया
complaints
दोहे
गिर
खानी
days
left
till
2021
होय
positive
नुकसान
करलिया
😭😭
@sushantbsinha
महको
@kabirbackup
@aishwarya_10:
without
feel
irritation
@kunalkamra88
@mumbaipolice
शक्ल
खुले
नहाने
quarantine
सुनते
किसको
भाव
@livelawindia
निकाह
किया?
atleast
गद्दारी
भूकंप
अन्दर
घुस
रखो
mind
गवार
@sauravrnc
पढ़े
लिखे
समझाए
english
रोटी
बचा
रब
झूट
🤣🤣🤣🤣
जानती
#nehru
दूध
old
बेहद
things
@franceinindia
@tejyadav14
photos
@sidheartchandan
mood
चारा
त
कहे
तब्दीली
हें
जिहाद
चेहरा
@peaceforchange
attack
लाती
गाऊँ
???
मनुष्य
जीत
@imvkohli
ख़ुशी
@kkbawaji:
मुलाकात
do
कौ
सोचा
टूट
सूना
डरा
h?
बनके
हो😂
(
#ssrians
जीन
बे
@aarzaai_ishq:
“आज
sellar
सबब
शायिद
manager
औलाद
account
which
राह
driver
@g_tripsy15
@ipriyankabhatt
जिला
छुपा
निकालो
petrol
@arshi_e_sid
खतरा
करनी
@opindia_in:
चीन
दोबारा
बोलेगा
pistol
दिखाके
wrong
your
चूतिया
नाराज
past
ता
शादियों
शोर
virat
anushka
रोता
payment
year
मिलेगा
देखती
discussion
1st
picture:-
@sagard:
आलोचना
हैं।
लिखेंगे
नाग
yadav
@thekomalchauhan
अकल
indian
south
rest
बनाते
category
यादें
release
se???
killing
veg
रहा?
लेन
इतिहास
@pinuwagh98
need
नौकरी
इसने
june
tell
बुरे
-#twentytwenty
दादा
market
mein
ताजा
an
@ihrx_dvn
@aimadvn
@ashukla90
abhinav
relationship
@bb13_iamshree
auntie
बेटे
5-6
कसम
चाहती
करूंगी
#ssrdeservesjustice
date
विच
चार
indians
virus
जवान
मानता
ज़रा
@merasaya10:
आखिर
मुल्ले
पड़
शरीफ
आह
feeling
सज़ा
करवाने
fit
शख्स
mantri
आजकल
मुफ्त
मांगेः
ढाल
यू
😂😂😂😂
@shaunak83804647
खो
जेटीए
कही
ids
एकदम
हार
मानी
इनके
@ksb_thoughts
multan
@aniqanisar
कीजिये
say
toss
mode
waste
unemployment
years
@sonusood
बेशर्म
ज़रूरत
बनाएगा
चाहूं
tamil
महसूस
नंगी
रूठ
vaccine
लड़ने
aur
शामिल
उल्टा
भागोगे
पाई
@ragisangit
जीवन
व्यर्थ
समझाना
😔
तोह
dead
कहें
attitude
जन्म
प्रभु
मिसाल
सफी
गांड
)
@sid_ki_laadli:
expression
अलग…
देखें
सोचता
sikh
इसाई
loan
😘😘😘
#रामपाल_चूतिया_है
@himansh81759139
@rithikraina6
@prayagrajwale
@cadet_snakshi
@hariom11021995
रखने
बने
300
competition
gautam
marathi
normal
🥺♥️
सुनकर
दुःख
retailer
आओगे
सबका
2018
था😂
जनाज़े
लगा😭
dodge
co/9q9lv2la…
@lahrisunil
@asimxdeepu
@asim_aakanksha
आज़माइश
@bedazzledblue26:
dekho😭♥️
picture
लूंगी…
vanity
में:
ससुर
@deepshisid
आपलोगों
अल्फाज़
week
terrorist
area
@itspiyush25
शांति
@stupidosaurxnwo
@royalfamily
ओर
म
enough
ईद
बिचारे
@pragatic10
2011
cricket
@auqat_may_raho
आऊं
उड़ाते
कोना
रहने
कार्टिम
@pos__community
गंदे
क्रोज
लोग?
वैध
boycott
gutter
wood
@@@
@shikhas29517170
@gauahar_khan
happened
dear??
bitching
gauhar
हराने
@maliksaqlain71
@waleedkk90
औरते
फौजियो
बदनाम
गलतियाँ
@aktalkies
अगली
*किसी
भी*
romanticise
@raghavv_sharma:
co/ojbkucpnf0
@ramrajy29997849
username
का😂😂
@adityasindhi:
बंगला
boyfriend
co/gvszvn…
@bekhayaalii:
खुलवाइये
मांगने
writers
romant…
@manavkiaai:
@asitaula99
@madansiwakoti11
@bidibarman4
😛
@pinkidhiman12
जगा
धोखा
तारों
pdega
😂😂😂😂😂😂
@billebichud
अन्न
कै
यारी
ताई
samosa
खिलते
थाई😌
@laveena_xo:
कूर
फट
🔥
@sidharth_shukla…
@rajamansoorali1
@hepinees
नारे
दिखाओ
भरके
जितनी
बर्दाश्त
केरसकों
#khote
हकूक
नौजवानों
फ़र्ज़
#whypcbignoresindhicricket…
@samriddhi_kr:
:-
पासन…
@i_dntcare:
🙈🙈🙈😂😂😂😭😂
@spotboye
#shehnaazgill
co/eknpkx0off
@sunnycarry:
@gbsatishgupta
@officeofrsp
@smritiirani
कुर्सी
लालसा
अबतक…
@umashankarsingh
bhahdurganj
सीखती
सभा
कीजिये🙏
@shubhangibhos20:
bb14
पकव
irritating
आरही
v…
haleem
adil
@hamidmirpak
कुईं
rangers
भेजे
क्रावो
@nityatiwari118
बाजपा
ye
मैम
@sondarvasandip4
@ashvini_parewa
वहम
🐒
दम
serials
बनाता
टोक…
@mere_khyalat
@praveen_bable
संगत
@srkzfighter1:
raj
malhotra
list
हैं🔥
co/t6l7p0bd0n
@republic_bharat
lecture
देखूं
😀😀
@sarasushant2020
@cancerresearch
@americancancer
@cr_uk
जिम्मेदार
cancer
बेबकूफ
सड़क2
duty
responsible
lotus
@waleed143sana
😂😂mai
थी😂😂
@aapnoorbano
@_avi4
@wafachaudhry8
@abdulmannan0092
@dr_javedahmed
@anjanaommodi5
@jahid_khan74
@gaddajp
@mai_bhi_zoya
@afz900
@4hmadmukarim
@deshwal240
@amanshan02
@g5msabir005
@rayaan41
@alvi_vahid
@angeltime21
@rahmana74234858
@wamiqshaikh3
@reahchakraborty
100%fb
@sidfanforever01:
लाओगे
@ishkarnbhandari
@swamy39
system
गहरी
अराम
naitik
jimmedari
@rajkuma51911001:
#saveadarshmembers
21lakh
निभेषक
पर्सन
सुने
जड़
समाधान…
अवाम
मुतालबा
भगोड़ा
co/f6wte6zsxn
@officialmonishk
हल्ला
*ये
हैं*
फांस
जाता😌
co/sduvxlveou
finely
back
pune
👽
आटा
दुबारा
@anshkmr578
@baliramyadav007
pseduos
उठाके
उठाकर
आदर
ओला
उभर
@friend4baan
@shreyakisan
@anuradhabhasin_
@nidhi
संघों
जात
भड़वागिरी
दलाली
fakenaazians
gobarian
ghina
फूटती
@kuldeep_k_nmops
@trkuldeepkhatri
@samagrashiksha
@adeshguptabjp
@jpbhaibjp
@ritugoelbjp
@garimaguptabjp
@bjp4delhi
करवाओगे
मास्टरों
से?
कटवा
containment
zone
lab
clerk
भरा
झुकने
तैयार
salary
दिलवा
अटका
@asli_shivani2
इन्ही
alag
रहोगी
हिंद
@nut4messi
आंख
@nabaprava:
#bhuladunga
कमीनों
92m
थो🔪🙄
network
खाड़ी…
@sslove4evr:
hypocrite
@meera51688347:
@imjytk
पक्के
लफ्ज़
मुकम्मल
🙏🙏
jupiter
@hey_its_insha_
@purpleisciouss
rashmi
चीखती
चीखने
@khanumarfa
speech
press
हंगामा
ticket
@gaminggreninja7
@nmtechiconic
@thebharatgarg
@micromax__india
border
अब्बी
trade
चीज़ें
घुमाके
चीज़
tech
component
@iamamitalok:
पकड़ो
#cbispeedupssrcase
@luvismyrealname
@motto_sana
समझी
@shashik26476004
रंगदारी
@bharatmochi
@jmukmrpolice
नेताओं
हरकत
asaram
chinmiyanand
@dinesh_jat_kabir
god
srishti
रचयिता
@ssumier:
विनम्र
“दिलादे
chandigarh
में”
बुर्ज
khalifa
मान…
@pradeep12945859:
image
गिराने
जरुर…
@zehar_ka_teeka_:
काबिल
ढा…
निभाता
lucky
co/ym78yqzazt
@nto1927:
मित्रों
स्क्वैक्स
नारद
नारदपाय
@seemasidheart:
gang
slippers
हैं:(
वो…
@sampatofficial
@rashtrapatibhvn
@drdineshbjp
@mahendramanit12
@pareekgovind2
@jaimaa1008
@jankibaat1
@real_tribhuvan_
@shailendra8621
@dineshshar80
@realsarswat
@akankshasinghin
@manojksingh9333
@jpnadda
@swatantrabjp
really
shame
#2022
&एमएप;
#2024
सुधरे
जागरूक
बराबरी
बुनियाद
क़ाइम
मख़सूस
#whypcbignoresindhicricketers
@sanket
सबकुछ
पूंछ
mirzapur
campaign
mirzapurkigaddi
खजोदबोंदती
highlight
co/arujfs0dvi
@filmhistorypic:
“हो
तुझको
करले
इनकार
written
anand
bakshi
jatin-lalit
brother
vish…
घाव
मरहम
@markusatherton
@rouleau1
भई
language
कड़का
खुदको
मन
duncan
मरानाका
शौक
@ambreigns13
@srk_akjha
@harshitdwivedi_
@wweamankumarjha
😂🙌
@devilvirpal:
बही
co/gjnndi42mb
@vinayakantrai2:
बुझा
@avyukt:
gujarati
food
बाटी
co/80ovn8gn0s
सोने
माह
उगले
स
पड़ेंगे
@vikramfan5
epi
@nazsidheart:
मोती
dete
तुम्हेरे
गायन
tumare
पढ़ी
दूसरा
isilie
beta
@_ek_ladki
@deepsunique3434
लगा😅
@swati709786
गाड़ियां
चढ़ाने
होली
animal
sympathy
shot
आयेगी
fake
feminist
@randm_indianguy:
aunty
#arrest_deepika_rajawat
#jus…
@dkhimdung:
दिलको
@chilledsex
णाःईईईईई
रिस
@monikakundu9466
@koko_hee_hun
reaction
त्राह
😏
@haroonsays__समझ
milind
flow
बोल्डियां
ma
च*दा
😶😧
@mananstar3:
@laghateparth
@niti_taylor
@bbcstudiosdgtl
@bbcst…
vdihan
sabha
polling
co/0h7jzkubmb
@wild_squi
@fahadsultan51
हश्यर
जिन्हें
नही?
exams
mpc
pmdc
@asadowaisi
@khangirl_123
@ahmedpatel
asad
shaikh
मिटाना
@gum_gum_star
@mrperfectshukla
@satyamm1112
खाती
पतली
जाउगा
गाड़ी🤔🤔
@0o0mer:
नफरतों
नजाने
@chepmathoo
😹😹
@deepxgagan
@himachal___wali
पछता
पसन्द
लिखवा
लुंगी
😂😂😂🌟❤️
hussain
हुस्सनाए
माला
जप
co/bzwqhwinpx
@shyampa25125975
vs
#dustbin
searched
@soul12345lost
direct
दूंगी
@r_rsa24
हो🧐🧐🧐
1crore
हैं🤔
आगयी😹
मु
blanket
बेठ
हैं😂😂😂
@bestofsalkat:
co/cos9c99aod
@areeba36092343
@lovee_sidharth
@nehakakar
@anshulgarg80
@iamsrxx
अरीब
samar
@happyharsh09
एबस
msd
राहु
हैना?😂😂
आगया
@tanaydebbarman2
@mahadassoumya
किसकी
जली
niwasi
रहा🤣🤣😂😂🤣🤣
लूंगा
पाट
जाएंगी
बुदबुदा
ठहराएंगे
ठहराना
burnol🤣😂
normally
disrespect
gony
bhasin
#disgusting
cross
limits
गिरे
@ittzz_rahul
retweet
😦
@kishan2
@rajat_jain_2
15-20
डम्ब
अंधे
negativity
hatred
सहा
@pranavsawantyo:
स्वयं
किसका
keshav?
#shrikrishna
युग
इसमें
पढ़ोगे
शास्त्रों
important
@showwhatyoudoin
😂😂😂😂ek
फिदा
हवाओं
उड़ता
शोना…
@teluguchokri
@bombaybasanti:
#32yearsoftezaab
(nov
11)
दिलबर
#anilkapoor
#madhuridixit
#chun…
अति
दुर्भाग्यपूर्ण
tha
सनातनियों
चेते
क्रियाएं
पुनः
उजागर
hogi
co/wzhpyi5gm9
साजिशें
मिलें
दुबारा…
@salmapa43527393
@swatisa00876523
नंगा
करों
फकेनाज़
उकत
@drsarakhan0
दामन
@adityas_indian
बचेगा
@jkd18:
मार्च
काशी
गई।
दश्वमेध
घाट
नौका
सवार
घाटों
दर्शन
हुए।
केवट
ज्ञानी-type
महाशय
थे।
उ…
30
बनाये
बैठी
musaimanon
mandir
funds
udhghatan
पंडितों
रूप
धारण
musaimano
suni
co/endgaelsjv
@iqrapz:
सब्र
jameel
आजमाये
“alhamdulillah”
कौड़ी
reported
समजे
खतना
चाहू
काला
आंखे
अंधी
कान
बहरे
@arynewsud
खुसरे
ठुमके
@shardulpandit11:
@pavitrapunia
@colorstv…
@delhipolice
दुकानदार
gandhi
dekhiye
मुर्गी
हिरनी
आँख
कट
नरकी
जाय
sat
@satyendarjain
नीतियां
मोदी-शाह
ने?
कित्ता
co/kvmwnl4fdd
@wanderer_haven:
sa
mars
took
#shona…
@priyankkharge
@ecisveep
गुलामी
तलवा
organization
द्रोही
लोकतंत्र
लड़िये
sarkar
co/yvc9cjbrby
जागे
permanent
ambuja
cement
#ownwords
#truthoflife
@thesanskariladk
meanwhile
@sadafsheriff35
हाकिम
@drharshvardhan
पोंछनी
crime
patrol
ips
@fakeluvin
@___harsh_____सब
hai😂😂😂👍
@abetujaare
co/xfpft010tm
@pratiksha_drdz
@darshanravaldz
तारे
par
🥴🍻
@iamyasif
chars
ई
@saudager5:
किंग
bahadur
zafar
rangoon
बगावत
कुचल
हिन्दुस्तानियों
inquilab…
जिंदा
जिन्दा
co/gmauyhiqfy
@inikhil16:
2mins
screen
space
गया😭
fair
है…
@stylistanu
winter
शक्कर
जमकर
@moni_2712
😚😎
खेले
anurag
pulses
cover
7259824071[phine
pe
no]
#helpme
#fanofanurag
#anuragcricexpert#dream11king
co/7zfm8m8em7
@fullgyro1110
@shayrana___khab
@prashkiler
@_dreamxgirl_
@prshnt20
@sbmchyha
@marwa_raj
टेम्पलेटियां
तरह😂
शत
प्रतिशत
acting
tel
रे
co/ysv1xpmiqu
लोया
आंखों
हत्या
चरणों
aalok
@imshinde777
😂नहीं
पिछली
genuine
meaning
बेहतर
intention
touched
आया?¿?
writer
दीदी
hain:)👇💙
co/jd0phlh7gu
@vagishasoni
@theindianmeme
@sudhirchaudhary
@anupampkher
@manmundra
@sardanarohit
@anjanaomkashyap
@kirronkherbjp
trump
गरीबों
mohalle
slums
छुपाये
हाँ?
@stufflistings
price
@namasteybts
घसीटी
नकलीपना
sm
बिकता
जायेगा🙏
@jaspaljat7:
बीड़ी
co/rqxbdq9qtp
@kashmiri_hon
रेहता
mamta
amit
brahmin
cook
five
hotel
@tweet_puns
@shikhavirgo23
आया😜
@rinkulovessallu
gif
aaya😭😂😂
@jack_of_al
@ask_anshul
@aabhas24
elaborate
bro
wanna
fight
either
छत्
wo
जान-ए-नाथवान
tasawwer
मजूरियां
छाईं
सब-ए-वा
अदा
dil-e-muztar
बेताबियाँ
मैरी
@stfuandstreambe
हाय
tension
@aslisheraly
@ormaxmedia
सस्ता
लियो
iphone
वगेरा
@atulamist7
@ab36015
sorry
@apoorva_dz
😴
@atish99183611
@abebhaadmeja
@madhura___
@riseofburnol
😂😂😂bhai
बोला?
developer
cold
चाहें
internal
बहादुरी
😂अभी
army
pubg
लड़ेगी?
accept
@asad_alee1
पके
@p_sahibsingh
arvind
mint
channels
dhanyavaad
सोगई
भेंचोड़
लाऊंगी
जरुर
12th
student
छैया
thing
रहती
जंतर
मंतर
cbi
office
@_tune_hurt_kiya:
उठती
उठाता
@khaneijaz
jasmine
actually
बंदी
sand
baad
#bbtrendmastereijazkhan
#preciouseijaz
@rameenistan
करों?
@vedantsawant888
wives
@haadheyaar
@singh_shelby7
भाई😊
@aapki_phopho
limit
हैं???
मुझ
गमला
phools
बढ़ो’
gig
चलाता
ड्रामेबाजी
राखी
@_bannokisaheli_में
@ppbajpai
मना
हाशिए
सदियों
idol
उसमे
hasty
रोते
prophet
muhammad
(saw)
@sidnaazianhaqse:
देखू
co/xfypva0pdi
@jihadiyo_kabaap
@neelamkha23
@vishal_patil47
@dilipmi75082467
अंधभुक्त
research
अंधभुक्तों
फायदे
circumcision
वेग
कुंडली
दोष
कराओ
स्वाहा😂
co/oiplsg5xud
@greeshmashukla
लिब्रादु
imf
बसानी
@s_wati_:
co/n0r8p3fjsl
surah
52
अनेक
बीबियों
farman😂🤣
co/bqwhzd1zda
डरने
🙈
@piyush_speaks
@matrixsuperhero
बोलके
co/irqcq4bixv
@easiilyannoyed
लूना
पहचान
❓😛
ना-महराम
ब्रोस
महरम
co/mhcumfihsh
बादलों
लूट
@mrigank0712:
jasmin
saamne
@andha_katil
7
नागरिक
सूचो
ग़रीबों
😔🙏🙏🙏🙏
@drsjaishanka
“हैप्पी
@dark_ajith69:
abhe
mc
किउ
streaming
ताला
tl
भोकना
का…
@dshah_9:
सूअरों
झुण्ड
strong
आग…
@badmashbauva:
चाहे
बनियों
कमाए
पैसों
उठानी
बनिये…
जिनका
rape
लड़कियों
जलदिया
इंसाफ
kya?
@zeenews
भ्रस्टाचार
hindustaan
@gooljaar:
@moronhumor
brownie
points
32
co/xiy1yp5t2a
@anshu0218
चूमू
भारी
चुटियापा
दिखाना
shakti
keyboard
warriors
@kairashivin2618:
@janhavi91554884
मनोकामना
huwi
co/4n3a0stub4
@i_squeak
padein😄
@gappistanradio
politicians
al-gore
जहरीली
कुतिया
@shinetruth1875
@monusingh1237
@vishal_pratap05
@manoj_begu
@ss_dimpal
@prinkapatel1
@tina_nagar
@brandlalit
@adityaagrawal77
@rastvadi77
@gyan_rajawat01
@poonst06
@jal19jan
@mbbs_khushi_
@real_alok007
@akb_ind
87
@love_me_jindgi
@iamanaya33
@simranislove
@aishxtweets
@proeyeson
@professoreyeson
@cute__ruchi
@zoyajannat22
@live_love_me_2
@nawsaba_2
@armyy2110
america
kiya🤣🤣🤣
co/4r9vevyrhd
@sanianishtar
@pakpmo
@radiopakistan
@govtofpakistan
@ehsaas_pk
@bisp_pakistan
@ppafofficial
madam
मुग्ध
देन
अज़ाब
हैसियत
बाती
किराय
privet
6000
rent
guess
@harshu_4:
#biggboss
weekend
@mirtharkimir
@zaynumbb
@mudgalworld
समझना
जानिए
प्यारे
रसूल
@deewanatauhid
@bollyhungama
celebrity
@manukumarjain
xiaomi
43+
made
बदल
@yadavakhilesh
5400
घोटाला
मिर्ची
@shivarora719
कॉर्निया
14
नीत
september
मास्क
sanitized
full
@manishkumarttp:
चाणक्य
अहमद
पटेल
निधन
गुरुग्राम
निःशब्द
शां…
@being_shuboo
@13sidnaaz
😁😁
😂😂😭😭🤣🤣
co/rmjiahasui
😳😳😳😳😳
@atulraj1965
अछे
😂🙏
co/fyputljhvs
@bharatfirst10
@shivsena
🤣😂😂
co/8usn84jwyt
छीनना
माध्यम
shri
narendar
दास
माता
घूमेगा
विधि
@mallikalicious:
ससुराल
🤫🤫
@dolphin0778:
namastey
human
भारतीये
patna
(long
लिव…
trial
अत्याचार
सजा
याफ्ता
meherbaniya
@vibrantvivek_:
पा…
rotu
जाओ😷🙂
co/9jtvuo91rr
co/b07lmmkjbk
@damsel_is_high
still
little
संस्कारी
parents
आया😄
@slient_ssh
भूतनी
kro
🤣🤣🤣🤣🤣🤣
@muskannxoxo
खुन्नस
rubi
negative
@tripathiak13890:
hardworking
story:
#eijazkhan
dialogue
पवित्र
@iemnk
@zeeshankarimkh1
@ashirazeemgill
कराये
टैटू
धमकियां
@taimur_laal
अरब
usa
कर्ता
काश
हस्त
@03mg22
@zee_shh
कट्टा
@abdullah_0mar
@khushbookaur22:
@samikshawadhwa
mam
sense
board
jihad
गये😊
@anujjwal
बुलाएंगे
जाऊँगी
😂😑😑😂😂
टूटे
पार्टा
:))
:-single
huu
🙂🤦🏼‍♀️
co/selbmysvnr
appradhi
बेल
लगि
handle
drug
पढ़के
छूट
@biharkalall
होंन
समझती
🥺🥺🥺🥺🥺
co/m9zholsi6d
@_mr_zenitsu:
lips
पर👄
cheeks
पर☺️
forehead
vaseline
@rvcj_fb
captaincy
voice
जी****
मारना
ऑडी
run
मोटे
bare
kid
@ashishissm
गुरु
@dhingdhongdhing:
@sid_ki_naz
naziya
🤧🤧🤧😂😂😂😂😂😂
@ksz399
saleem
lafafi
#pdm
#coronaviruspakistan
फ़ैल
mager
हकूमत
भौंको
opposition
pdm
@toiindianews
beijing
part
akhand
चूतियों
आएगी
कथा
हू…
गिरेगी
@sufiyaan_asim
रहें
बढ़ा
रहीं
असीम
co/2xbo11ergv
shehnaz
@manish4525
पुशों
%
क्यूकी
अनजान
दिखते
बर्दास्त
kritika
aditi
diksha
vishal
birthday
#mahirasharma
hawasnaaz
चूमिया
लेटी
ज्यादतल
hero
बनना
खुशाल
हवासनाज़
फसेगी
निकलेगा
@usmanabbasi56
@jforjaish
@akbaruddinindia
चैन
defence
budget
diwali
पटकी
जलते
भीक
मांग
abhinandan
बर्तन
@parodyofshravan
social
distancing
co/jeg4xjfekk
@iizlit
बनोगे
@nazirleghari
25
उल
हक
क़ासिमी
सगाई
नूरे
पटवारी
कमा
ganja
अबसर
आलम
naeem
bokhari
work
भौंकने
बेवजह
जितने
मांगेगा
बारो
उतने
रेहना:-)
co/owa0txko7z
कुच
co/vyvo8rh1xr
कित्ती
कोटड़े
co/bztdr9bwa9
@waddu_क्या
alright???
@oldschoolmonk
woh
scenario
कार्लो
उथलों
underestimate
😂😭
@msdian_radhe:
@salmankhanhk
@diandrasoares13
ignored
@jiharsh1:
युवा
सहन
karega
#ras_2018_int…
@vibhor11111
बुदबक
nitish
शिबुआ
ऐस
जिन्होंने
लड़के
बला
sanghi
@arjunreddy_2
@tlp_ameer_fan
@tlp_ameer
@tlppresident
बदलो
टके
@tanusingh4567:
honest
वीडियो
टीक
#shehnaazg…
sikhon
हुकम
guru
maneyo
granth
co/oojnejjrmv
bc
गपे
गजब
बसद
tickets
@srkiananosua:
sinus
headache
उठी😢
@iamsrk
❤️❤️
co/xgdb93rfjm
@akkian_sachin
@arunbothra
अदात
@lobantipaul
हंसता
ज़माना
बीत
corrupt
तारीफ
@theplacardbhai:
article
370
@awanish45_ipl
meet
@someone_famous_बच
@weall_ispr
@khawarch
@nafees4217
पीर
@garvpe
@mayfair1958
@mgnayak5
@venkate98507511
@1967vandana
@ind_rajat92
🤔शक्
@deadman_tw
@starrytalks
तमाशा
😂🤣😂
co/hib0n92xaa
@shabajqureshi3:
munesh
हटवाड़ा
jaipur
garbage
कर…
वाह
@eshapalmal:
sidnaazians
कबसे
yo…
@javedma15945471
मदरसे
मौलवी
@taslimtabassum:
सिडनाज़
sath
☆
@bhaadmejaiye
tried
हीं
खांसी
नाक
co/lxr1gf9rjn
वषा
😭😭😭😂😂
co/166iz8nkuq
@1merahindustaan
गोभी
मीठी
सरसों
@brahmas92572355
समझाओ
😏😑
रोक
@innerv0ice_कौन
ajit
pawar
71000
irrigation
scam
clean
chit
ncp
नेता
dekhe
@nomansarwarr
@ifenetwork24
mehdi
sabres
मेहंदी
चूड़ियां
पहनकर
मारता
🔫
@ifazilabaloch:
mix
hindi
बलोची
निकला
में…
tag
बाट
किसीको
project
आजाओगे
@sincerely_epic
@44ananya
@nups_lostsoul
करदेना
inpe
😭😭🚶‍♀️
करवाती
खातिर
टोन
sy
@fiercenikki01
ओक
परियों
@bastfriendship
remove
hashtag
co/fsitkfwrk2
khiladi
akash
kumar
@ravishndtv10_में
बेचैन
@kanshika_b
तीसरी
hu🤭🤭😌😌😌😂😂
@narendermodi001
चटा
हल्का
कालका
umesh
vidhansaab
चुनाव
लड़ा
middle
चाटा
पेशे
@its_mk7
रुलाओ
kaamil
चूहा
successful
डिजीशनके
खैराती
winner
cringe
co/cqrl0pohyb
@syed_mahsoon
हों🤣
@gujju_girl_
@akshays_devil_नहीं
वेला
😌😌
🤷‍♂️🤷‍♂️🤷‍♂️
co/4lamhk2ywy
आशिकाना
@rahikadam24
@diljitdosanjh
😂😂😂😂😂😂😂😂
अकाल
घुटनों
dancer
singer
@bharathamara_:
someone
सच्ची
@wingsoffly
@foreverurzz
@hinavjot
wings
🐱🤣😂🐱🤣
🙆😂😂😂😂
@mohtarma_ji
41
soon
change
निभा
बनूं
कसमें
du
टूटने
मामले
@eklovya15
@akshay4hindu
@shalabhmani
2017
पढ़ाई
डूबा
railway
platform
काया
bhagwan
350
seats
mile
जानें
pizza
स्वाद
काहेका
आराम
डोना
दोना
आइंदा
बनौगों
co/fpwfo1amtj
रेहा
जुड़ा
ला-हासिली
भला
zoya
rao
wafa
@kapsology:
fact-check
जीता
झूंठ
croron
पहुँच
जा…
@mukhal1d6
अजय
किते
ज़बान
character
लोगन
naked
सुनना
earphones
@being_prakx
@criccrazyjohns
sentiment
सुधरने
गिरेवान
झांक
गंदी
vibrations
भलो
rule
मोम:
होजाओ
🙄🙄
@roflkimjongun
@50ml6
@kamrudd67494294
@maheshbharti1
@khanbab74944433
आतंकियों
talluk
at
@cloudytone:
bawal
pandey
😜😜😜😜😜
want
#sidnaazlive
🤭🤭🤭🤭
@girdhan…
such
🤔🤔🤔😂😂😂
रेज़
दास्तान
हँसी
@fiercenikki01:
मोना
जादू
टोना
@parody_uday
@riddharoyc
@parody_beena
लड़ाने
बनाया?
😒😒😒
gave
#edkv2
co/vvbmvdyefp
@aruncho98206025:
@ola_supports
@olacabs
@ola_delhi
किराया
c…
@alittlealive
नष्ट
थे?
@saurabh_singh87:
@iamrashmika
🤗😊
@simran777799
@abe_loveday
@hatefreeworldx
@mahuadey20
@thedeshbhakt
yes
kunal
धीरू
रति
recharge
chintu
co/o36uvbtzd6
@sabtv:
छाएगा
raavan
होकर
बुराई
जीत?
b…
सलाम
शेनाज़
haye
co/5ke2hqwxyq
@nainaraathore
बालों
गंजी
कार्लेट
@maxxaryan_79
@tiger_salmans
@naazu__22
@mayakhan0902
@urs_md
@beingspradhyumn
@salmankhanfan
@zoyakha0487843
@aninditasharma_
@consciousalfi
@being_aysha
याय
🤗🤗😊
@gautamgambhir
@parodyofsuman
@alvinakapoor56
sumo
सबपे
परसों
shravan
smiles
blush
🤨🤨
@nakhrehiza
@sm01102017
मेहरा
सनातन
prabhu
sree
ravan
respect
let
understand
mistakes
ga
co/fyn7zenub2
@09smriti
@sanjiiv_singh
दलित
वैमनस्य
समझमें
rahim
जेहाद
कैसे?प्यार
समझसक्ते
लाने
वनवास
लिखती
कितना…
@kumarmti
खिसक
bsdk
indira
बाला
बजा
🤣😂😍😻
co/wgqw26xagh
@join2manish
@beerbicepsguy
@supriyapaul93
@swats26
@sairee
@jetsetgoin
@aditigp
@sandy_carter
@d_roopa_ips
@m_raj03
@imharmanpreet
@drbronking
@priyasometimes
@vidyavox
@lilly
@salonay
@fayedsouza
@dipika_bajpai
@iamanushka
@mipalkar
थोडा
@sanjay0_3:
आएंगी…
@slayymedical
सांझ
ब्रो
rood
sheen
क्याज़ी
pewan
@sohailaaura
@arpitsi12509660
kick
shifts
झाड़ा
जोर
झटका
हैं😂😂
@sid_bhoir
@beingsajiddarr
खायेंगे
@krithika_shukla
हटा
हाहा
37
🙄😏
@yuvikachoudhary
मेल
गया😂😂
जग
@sukhen2065
goa
@lavleet_1997
@arnabfanclub7
प्रकृति
नियम
@glittsmarshmalo
टीके
@sagarkinare
laao
jaldi
@chitraaum
@aajtak
arun
whole
टीएम
corruption
बचोगे
तकवालों
सिरजी
समझाऊँ?
@sardesairajdeep
आजतक
murdabad
warning⚠️
@manisha56596903
logic
@dhingdhongdhing
नो
नूर
समझ?
@ananya241002:
बोलूं
😭😭🤧🤧🤧🤧🤧
haaye
🤧😭
co/hkplc9…
आएंगी
@fansidna
@modishahi
चलेगा
‘मैं
अकेला’
चैहिये
ok
blocked
telling
fault
अफ़सोस
दिखाती
बुरी
even
upset
after
blocking
होप
शिकवा
@drama_queens___:
punjab
घूमने
na😂😂😂
बेकॉ…
वेद
उन्हीं
चीजों
@armaana89180538
आज़माओ
set
जाऊं
sath🤪😂😂😂😂
@sadiadogar1
तेजाब
कसूर
@rhtsuhag:
#sidhearts
#sidhea…
@12am_queen
भेजते
@the___phenom
arijit
@ankitp0007
दोह
arnab
खतम
@underratedd_af
@ro_subh45
@bhardwajshiva19
बगल
@naveen27606011
येही
reason
राहत
मिलेगी😍
jeddah
co/vbzc3u51vx
@shikha89733359
municipality
इन्हीं
तय
thaa
😂😂😂🙏
@ladyvelvet_hfq
इंशाअल्लाह
औलादों
co/jufuiprl3s
@raggedtag
नामक
उन्होनें
उठाया
शे:
गिरता
छोड़ता
@zaynmalik
बनदों
छोड़ो
practice
mutuals
@me_aftabalam
माना
aftab
आकाश
फसाकर
@joebiden
चाकू
बुश
😕😑
@iamtigerkiller
@mehar_singla
@ndtv
counter
अंधभक्त
घुसा
हथियार
सोंपों
धोका
respond
कृगा
धोके
pr
साबित
control
co/vdgrgh2yai
@me84988933
अबसे
पंचर
बनवाना
bike
repair
करवाना
नसीब
सोचो
बहा
तुरु
लॉबी
co/acnygerx5q
@shankardev12
भड़वे
hafiz
said
niyazi
बनवा
हराम
खोर
tahir
चुनें
@paarkhisthe
@boldbalika
गये😭😭
@surya38915921
@officeofva
get
lost
ताली
vibhur
co/xptge2fr4g
@shushan70220634
गवारों
dictionary
देखी
wikitonary
whatever
agree
बोलूँगा
@rabai_l123:
बेइज्ज़
हैं🤞
@saleemfarrukh
ओढा
खंजीर
दूं
@oye_gujju:
🥰
@anishagupta24
@wandere43023454
बच्ची
😅😅😅❤️❤️❤️
@innocentkudi3
swara
#duniya
#rahul
ahmedpatel
#vohra
लता
@sofibushraa
@shabaanzaira
#pratapsarnaik
दोषी
🤦
आरोप
बैल
चांदनी
keep
raiding
@itniihappy
🤘
co/yfnkirs0kt
@exoteric_savy:
comment…
@shivu_memes:
लौकी
(loky-key-sab-g)
co/omdee14bqo
didi
आउंटी
🤣😂🤣😂
#weekendkavaar
बुलाना
#kka
घूस
खोया
सनातनी
खोए
😢😟
co/a5k5fumz2j
साथ।
विकाश
उलू
बनाओ
कला
लोकप्रिय
aap
@sidheart
@muskaan1212
😲😲
बक
खरब
@mpyadav70980308
तोहरे
एच
कोइयो
कूची
टिमेवा
preacher
media
भाषण
inn
इख़लाक़ियत
मियर
ति
co/je2rbb8e2w
घरेलू
क्यू
फिरंगी
@bigboss14views:
bigboss
supported
punished
goni
sher
🦁
भीगी
बिल्ली
🐱
@mocker_thug
माफ़ी
putra
nathu
aatankwadi
औलादोको
मरने
@ash_imranhashmi
prob
co/lnu77xic2t
@not_your_dactar
@rubiaabrar
🤭😉
dr
ahaana
47
बटवारे
islamic
सरण
देकर
तादाद
बढ़ाने
है?
co/syhpsgpcm2
@srkuniverse:
पिघलके
शीशे
ढलके
✨💖
#shahrukhkhan
co/bfxkhdbp4k
@ismail0704
@raj_up
@alihassanqaimi
@theavenger___
जी@नाद
missile
co/o5w8babkmg
@darknight_coder
बसतर
दोगला
पन
2भक्
jao
co/9d5eyzvaei
@abdulla30824754
बुहत
फ़र्क़
बंदूक़ें
तुम्हरे
मांगो
लागे
गी
@aayzedess:
खौफ
त0ऊ
ज़
नदाग
h0un
#mirzaghalib
@sshivi_
@priyankaboliwal
@funcasterr
@dctweets_इसको
@prhlyyaar
@backbencherdork
@dr_akashz
@kamchorakro
@syedaahummah
@_thetaurus
@insane_medico
@ja_bhen_sooja
@foolishquac
@daccsaab
@parh_lo_ओह
होनी
मुझे😭😭
@cactoideae_आपका
:)
@gabarsingh
@tarhub
@aliachughtai
underground
mr
bhaskar??
go
dill
@shopclues
abi
report
kya
@akshat200127
@tk_sayings
co/hwtifaccwa
@arnabgofficial7
@ash46973998
किसके
🤣🤔🤔
@nikhileshkumari
ishwar
बराबर
भेद
संविधान
@aajkamrankhan
co/5jkyoesl6d
@naman_nan:
🔥🔥
co/k1tf3w4aa5
@kashmircrownss:
बेसरा
यतीम
जावेद
मर्ज़ी
i…
@thedevil2612
mahabaleshwar
बीए🤣🤣
धोक
@yuzi_chahal
@navdeepsaini96
ओढ़ी
हातसे
कमसे
t20
आओ😔😔😔
रकनेशे
impact
@__chutki__किस
importance
@im_sneha__पर
ज़िंदा
हूँ😅🤣
गुरूर
😂😂😭
co/kwshcxxlao
बिग
बोस
#कविताकौशिक
भड़क
@getrahul1
@ashukla09
@plaympl
@tresemmeindia
@lotusherbals
येस
correct
90%
कविता
दीखती
@trueliving_05:
जुल्फे
half
beghum
दफ्तर
पितोश्री
रेड
खानदान
असलियत
जाऐगी
फारुख
abdullah
co/pqbjxoowgh
@innocenthrryy:
चाहेगी
मुझे🙂
;
tutu
कुआं
गढ़ा
शहनाज़ियां
सभ्य
बेज्जती
शोखी
criticize
group
co/a12jwkbbiv
@thakur671997
dislike
screenshot
cool
❤दे
rahe
👍
co/kjosceznui
@iamrealarii:
@iamasimriaz1
@imrealasim
😭कभी
strict
monitor
दिलाते
🥺🥺🥺
-नेहा
@roysidz:
साबर
फल
बाजार
@ekta0907
😭😭😭
जोईता
पकड़
👿👿
topic
शुरु
गायब
@kasimkhanpathan
@hariompandeymp
चटाई
बीजन
@preeranc:
#pkl
😐😂💖💖
balance
maintain
#tkl
balancee?
😧
#…
@praygraj
उनमें
@_imniks_:
aw
fandom
groups
घुसते
co/0j8kj5zdpe
@umanathtrip:
मोटा
reporter
editor
intentional)
itni…
lo
#sidharthshukia
@__sadia_तुम
निकलो
बुलाया
बिला
आगयी
@dchaurasia2312:
लव
एक्शन
परिवर्तन
सूचना
बीते
100
@anna69gc
भाभी
सुन्दर
💋💋💋👅👅👅👅💋💋💋
@luvienalodh:
#unityisstrength
journalist
बटाईंवा
लिफाफा
kota
वीरान
निकाले
धूम
पहाड़ों
कसम🥺🥀
@wtf_eshuu
@ahadshaikh
क्राहे🙃
@rajeev40400932
@kishorevaid
gujarat
2002
ki
ek
राजा
परजा
shameless
bhakts
@samar_bhosle
@rakeshs60592196
@krishna_love143
@pareshp81834272
@amritpu48045181
@umade_disaster
@lalafekubaba
@stop_lockdown_1
@parvesh65632017
@sh49434780
@bramhrakshas
@deeptid45749083
@budhwardee
@roflarman2
@rajkeplerhume
@grewal1nikita
@ak73428200
@veerfagga
कर्ज
निकम्मी
तो?
@__haripraarsni
चमन
पीली
dekh
paid
मारते
weeks
@shikharani_sing
hahaha
धमकी
@shweta__jaya
🙏🙏❤
@habiba__#kyahua
अम्लो
बेन
#birthdaywish
🙏🏻🤗🤗🤗🤗😁
co/rb3eoszmmr
@mirzawaheed:
रियासत
मोहब्बत
कानूनी
greatest
them…
@asishatmakuri
@pbhushan1
भगौड़े
चलाएंगे
@masud_aqsa
sami
who
बूसाब्रहीन
lollipop
चूसने
चटनेवाला
cm
शाहीन
बॉ
मुंडनों
बूटपोलिस
लगवाके
सरे
announcement
फिरना
co/r39kjz7tke
@vazeindian:
@skpachauri11
मानो
टोक
company
की…
@baskhamakha_सब
खैरियत?
@cuttingchai__
@roshp7
kalantri
awards
@drstrangenik
दिल्
तुने
ne
😋😋😋
@sidheart_life
re
😛😛
@cmofficeup
ayodhaya
दीया
जलाया
bhadohi
कर्मी
divali
आमरद
अनशन
शासन
परशासन
co/swvhsw0igh
सरनाइक
तोड़ने
naughty
घसीट
#kanganaranuat
#ssrwarriors
#palgharsadhulynching
#palgharmoblynching
co/kuc6ytrujt
@shenaazshine_fc
@rajbish43983485:
#whereismyflatmahagun
#mahagun
(मोने
buyers)
गाड़…
@pun_starr
शिकार
भूख
मरना
चहकता
“खतरा
“
dry
co/a2ig7vr5fa
@shangclements
@naazofshehnaaz
उतारा
🙄🙊🏃😂😂😂😂😂😂😂
@suraj1141
co/nm7pkldbdx
@karachijeetayga
no😂😝
@rupalsolanki7:
lite
gift
य
प्रेम
ज्योतिष
https…
@nitiyaduvanshi
@pankajk99223008
@spshahibjp
@kokoshwee
oho
@haters_ka_baap_:
“bachchpan
आसुओं
smile
ता…
@immagroot9
🥴
@irshad__0
authentic
tape
लाग
सख्त
हालत
बासादक
लगाता
उछल
बकचोदी
सीक्रेट
बैठक
उड़ी
इमरान
खान
नींद:
तुर्की
गोद
बैठा
कंगाल
खिलौना
#pakistan
#saudi…
@gauravgkk
@brahmangirl2
@sameeksha_india
😝😝😝
et
tu:
@noorikh17461999
शानाज़
बनने
ढोंग
@nidhiyadavsp
परवक्ता
सूप
ताले
जेवर
लूटने
बंदूक
अपराधी
लोटा
@abookhadeejah
mujhe🤦🏽‍♂️🤦🏽‍♂️😂
see
@aastha__sinha_को
harsh
nothing
friendship
okay
opinion
बटना?
@bababiggboss
projects
rather
than
पलने
@manav717:
मूं
मालूम
उन्होनें…
@aghori_vivek:
@bhupenverma71
पड़ोसन
मिलेगी
बजह
s…
@sbsidnaaz
😝😂😂😂
@deepanshu270
एडा
कावो
द
😌😂
@4evertillend:
@zehar_ka_teeka_क्या
hrs
cases
8000
मेड
जिन्हों
मेडकैट
families
#mdcatianslivesmatter
@poddarvaishali
भी🙏🙏
सब😂
मचा
@asmashirazi
धुली
ग्रेबन
झांको
hashtags
चलती
💯👍😄😄
@hitechhumour:
player
chose
tonight
match?
mayank
kohli
खेलता
strike
ru…
@mdfarhan_03
@raziya_0786
@syedamaansaeed1
@aa__khyal
@akhterzaidi
@ashraffem
@abbasalirushdi
@rukhsarafridi0
@rizvi_sayed110
@roflhamidmim
@osamashaikhind
पापा
थे😭😭😭
हैं😭😭😭😭आज
छोड़के
@pandeyitsme
अच्चा😂😂
हैं🤣🤣
@kpmaurya1
chandausi
bilari
clear
जबकि
🤪
@rubiholics__:
dilaik
💛💛
#biggbo…
@anantxtara
पढ़ती
😾
तवेव
co/yr245z5udg
@creatorzombie11
सोचने
gurunanak
reference
hu???
ideology
gender
कौनसे
गुनाह
जाऊ
सुनने
@rameshmenon128
खुशियाँ
हूँ❤️
शैतानी
जाये😉😂
janamdin
हार्दिक
शुभकामनाएं
प्यारी
गुड़िया
डेवलपर
क्युकी
सामना
है।
अप…
स्वदेशी
।
कि…
@thegreatvictorr
@hindutapash
@mohdsarhaan077
शैतानों
इज्ज़त
रहम
लिखो
गुलाब
दीवार
फांद
जमीं
जुल्म
आसमां
इंकलाब
अमीर
अज़ीज़
@pvishnukant:
मोदीजी
नें
छुपे
जहरीले
नागों
बिल
इसलिये
फुफकार
वाम…
रूठो
मनाएं
हम?
eid
@gobhiji3
गैंग
telephone
क्या??
सन्न
ज़यादा
देखाओ
parmatma
काजी
मुल्लाओं
समझाया
cow
got
हेन
cut
भागू
बनो
अधिक
जानकारी
सतलोक
channel
co/x2xdfxxhqq
@parrh_ly_anas
अब😹😹
@leo_knock:
विधायक
खरीदने
ऑडियो
वायरल
लालू
यादव
एबसेंट
हेरा…
@amol_20011987
होश
_________
रहेंगे
telugu
bay
बोल्डेट
stay
away
नह
मस्जिद
maulana
qalbe
sadiq
sahab
big
humanity
definitely
missed
#maulanakalbesadiq
co/mygiw4gbus
हस्ती
हस्
@filmervishal:
जानो
बाबू:
500rupaye?
@libran_16:
लगरहा
#kabir
hilarious
dialogues
🤣💯
#ishq…
@swanandgangal
@sunainaholey
@capratikkarpe
@therss_piyussh
@devendrapai
@matrubhakt
@sureshnakhua
@ankitasood13
@nik_pandharikar
@rahulpatil_bjp
@accountantvarun
@priyazore
लेजाये
@loveaamir007:
जन्मा
सकूँ
@harsh7tripathi:
साइकिल
फ्रेम
गद्दी
परिंदे
उड़
शेष
co/xfdzxtiiob
@armaalianzaheen:
@amaal…
@harrisd63432503
@riyzkhan6
@riyazkh11336169
@mrsynv
@ashokshuklasoda
@barun04650498
@malavik43047370
@rachelvijaya
@mukandrita
@friendlyphysio
@sab_fi
@davidmo70294138
@mirhyder12
@asmatasleem11
@amitkumar9481
@altafwala
@sudip0131
@rajma81103591
@samharris2429
भाईजी
@sachbhumi:
भोले
नाथ
करेगने
mahadev
co/5hsdy93bwh
@zurakoutaro
non
@asifiqbalccw
kareem
चच्
चा
सेहत
लंबी
@iam_celeb
@ipathak25
goutam
ghambir
चेला
raghav
rajender
पुराने
जला
@laluprasadrjd
सुविधा
bungalow
v
@jharkhandcmo
@dc_ranchi
facilities
mukhyamantri
समर्थन
#charachor
@miligotnochill
pray
marks
छिए
@puntasticvu
@whatchelsysays
@dikhhat_hai_तुम्हारा
दादी
मुर्दे
उखाड़
😭😂
@mian_faraz_12
@sunisays
घंटे
urgently
@binodojha999
@kuldeepsinghpu4
@saxenaapoorwa
1दिन
भगा
@zarrarkhuhro:
walking
around
@waseembadami
again
selfie
घास
दा…
@iamsaeen
@hafsa_imam
cousin
बड़
नमूने
@akshays_devil_
व्रु
बदले
पड़ते
😘😂😂
@dshruv:
remain
#katrinakaif
📍📍📍📍
puri
@romirajput_cute
गानो
तहे
compilation
हेना
@anitaot7
@end_of_time_अभी
suspend
चमचा
@salmannizami_
@pankajpuniainc
@gauravpandhi
@mimrotreena
@priyankagandhi
@incmp
@dr_uditraj
@srivatsayb
@srinivasiyc
@mahilacongress
परा
अब्बू
निपट
pass?
@ogkifarkpenda
close
narrative
sources
august
माशाअल्लाह
16
co/kkcnvwia9r
रस्सी
co/1pqfjbkesp
@rar_mukesh0
@vipulparihaar
automatic
@realrazidada
जोरो
funny
—&amp;&amp;
🙁
@funkyk2
statue
tourism
sport
कठपुतली
colony
अफसर
उन्होंने
एसा
letter
15dino
गार
महामारी
@roma_naaz
@sanakabf
@2110sidnaaz
hates
@mayamehtaji:
drugs
आजादी
दिलाने
oscar
फूक…
—&amp;
:(
@shaheen75770899:
@zgod2002
हसी
hai👀😂😂😂
co/zvz8e85mvu
@amijtomarshreya
material
व्हिच
utter
shit
called
😳🤣🙏🏻
aao
then
ll
😭😭✌🏼
😗
@thevarunworld
@varuniac_sahil
@varunsavenger
@edjv2_fan
@smahirian
ताव
फिरता
nomination
drama
safe
गर
bodyguard
@archana_says__किसके
फूट
@sidshukla_1
@suvarnbharat
@khanna248
चावल
ढाबा
लगड़ा
हॆ
@rajarshitas
आशीर्वाद
पैर
छू
@sachinswarrior_
@cricketcomau
हा
बादमें
withdrawal
husband
society
गेट
papa
deepak
हस्बैंड
दुकान
kitne
😘😘😍🥰
bro😘😘
@kparveen2005:
adityanath
#jihad
#love
कायकू
?😱
😀संन्यासी
ना😀
co/7fgbzo3mgy
@btg_chotafc
@rocky_rrr_
@ipshita_dz
@sanjayythakur
@chesscom_in
@chesscom
sane
1000
🙂❤️
@halkatmaanus
conformed
जायेगी
@mdimran83835074
😥😢
भी😭😭😭
ढूंढा
ama
compare
@dynamicsrk
sooside
लेगा
बनाली
ण
notice
करा😤😭
घफूरे
कपूरे
काठ
co/z6rp3tbgly
@imsushantagain:
suicide
है😡
समाज…
@akash_1498
@gadgetsflix
@dark_ajith69
😂😂😂han
flush
@sharrioijaz
@wata13304706
@missrajpoot24
@rrahelr
इसबार
already
सके
इंस्टा
डाली
उच्चियाँ
दीवारान
राखियाँ
चपेरे
ताहि
साम्ब
रखड़ियाँ
ला
ल
dere
#mominamustehsan
@aarifshaah
co/qcvqyqz2zy
@angeliivc
छै
हेलो
आवाज
tube
चचा
sidnaazian
658k
393k
बताए
co/emnawur4ep
@mehwish_jaam
mobile
check
इन्होंने
#acknowledge
rip👻
#humility
rip
👻
😂😭😂😭😂😭😂
co/aofm6otszz
@crazy_primus
cuteness
add
वेदों
@imfrankenstein3
@xcalibur2604
@kurdogla
@tanurism
@rohan47161895
भय
partition
totally
interested
done
political
interest
were
huge
losses
godse
बल्कि
isliye
1/2
@heisenjit:
gonna
travel
avid
traveler
दरवाजे
आजेगा…
सोंचो
नास्पेटा
yellowy
लौंडा
गोबर
yellow
weblet
सच्चे
@zoo_bear
iyengar
सिखाया
@sxcknj
आये?
@yedilmera
dieting
कृंगा
वाम
बनारी
co/ekrpwaf1lb
@shayarimran
shahar
लिखता
#ahmedpatel
बढ़त…
@menakshivatsa:
बिगड़
liyaqat
कोठे
जिस्म
बेचती
ज़मीर
@modiji_helpus:
@tigerneelesh
neelesh
दौड़ते
co/iobvqiunzp
@ritu_not_imp
ढूढो
नहाओ
पट्टू
फलों
🙏😊✌️🤞
@thehackerudk
@dilbaaro__
@__kisme_तुम
रोड़
भाई🥺🙄
@varunrdcr7
ho😂😂😂
शक्ति
अजीज
😭❤️😭please
😭#sidnaaz
@khan34602
@irumsumbal
@sonofislam8
@fairefree08
@sai_f007
@hamzaashfaq280
@saithpti
@mrkhanho1
@pubgtigr
@mehr_here
@sana_hashim_लगता
आयलन
खैर
की😱😱😱😱
🏹⚔️🗡️
unfit
अलावा
खेलें
cap
haran
तरफ़
co/2yvhogx2ha
@faiqa_jvd
bakht
तख्त
यकलकत
उतरा
हारा
@news18up
नहो
@r_a_j_b:
भ…
@abhi_leo1
छाये
@sidnaazsouls:
धोना
चुपचाप
😄😄😄😄
https://t…
गंजे
होजाएं
@avinash88730498:
apprentice
जाएं
ताकत
लड़कों
पिंड
city
फजल
दस
करोड़
फर्न
मुल्कों
शेयर
बीआईसी
ग़रीब
हँसता
ज़िन्दगी
मज़ाक
co/lcthvofwgt
@tehminabaig:
@narcissistvibes
out
sheer
sincerity
@mubashshirhere:
#assalamu_alaikum
everyone
▪️आज
#mub_ki_baat▪️
•━━━
✽•✽
━━━•
मंज़िल
@suvarnbharat:
इग्नोर
मुझे😢
इस्तमाल
कार्लेना
डेढ़
सानी
🤧🤧
grammy
dinchak
देदो
@ishika25169264:
@faiyazhasan96
उगता
suraj
sidharthh
प्या…
@hira_zafar99
है☻
@bhushankanherk4
लहो
होगी🖤
@sudarshannewstv
बिक
टांग
खींच
गिरने
p…
@faisaljavedkhan
मिट
योग्य
अंधकार
covid
विज्ञापन
1ईयर
lekhpal
@rampuriboi
co/qylpvaylkp
@tawsif_ahmd:
@imranaraja1
@fariduddin_1
@harounrashid2
@bushragohar
बाबड़ा
o
service
हरकोई
अंधा
पढ़…
@usmi_says:
36
bismilah
send
anyone
वार्नासी
@siri_228
kaise
dil
😞😞
@mamta843108:
@azadsenachief
@knmishra_sc-st
act
भेदभाव
बढ़ाया
और…
170
co/m5aiikqp44
@biggboss24x7:
#pavitrapunia
बो…
लड़ता
रोज़
मैं❣️
किस्मत
दुष्
हैं❣️
bastar
चारों
@skywalker8901
रहा😂
@harshkumar8026:
dipartment
hdfc
तरीका
agent
m…
@akankshasays_
@preetcreation
@indiandiamond_
@nuklkhavehai
@dixi_speaks
@sanapyaarr
@thedivinemess
@star_boy143
@_harman12
@itz_heartwork
अक्कू
शर्मीली
को😱
@am_feelings_
@harshika
@armaans_heart
@palak__
@habiba__
@nazam__
@am_kumkum22
@hima_chavda
@am_kashish
@teamarmaanians
@ayesha_armaan22
@bhoomi_am
@braindamageonli
@_aarushi_25
@brishti__
@bulbul95_
@__khushi
@ishuchukki
आटो
@sohni_kuri
आया✨🤩
#pearlvpuri
co/frli6qcfrv
@lakhmi_das
@homanwithwings
लक्ष्मी
इन्ह
appreciate
word
@r3dash
हद
may
खड़ी
🤕
करुगा
head
नहाऊँगा
tail
करुगा🤣🤣
@sidharthjha98:
@valarazor
@a_brahmingirl
silent
भेजती
रोहित
हैं😐
@whiteknight_01
@abirchiklu
@chaipiomastraho
👀😹😤
@sar_ka_dard
हाई
हू😂💓
@web_av77:
advice
co/pxmhkfqp1h
@harsh0998
@baamansoyed
toffee
@abhishek846898
@mrtirthankarroy
@khurrafatidimag
stage
economy
feb
commonly
worst
45
होगें
एन
nehru
जिमेदार
available
much
ji
निहायती
बेहूदा
rohini
नीच
भूक
#ahmadpatel
#rohini
co/ptd1grq6t6
@hussainigirl3:
अलीعसे
✨
जिसकी
आरज़ू
घड़ी
gyi✨#kalbesadiq
co/vhkgh1gn4y
@shobhitnegi_ind
🙏🏼😭
@being_caravan
bag
wine
मुर्गा
विनय
@931samaira
karnal
covid19
k
क्रं
कर्ज़
पैमत
कीजीए
hu
plz
लीजिए
@mrhallihakki:
@scottmorrisonmp
बचाले
#rohitsharma
co/frmexacuck
आजा
हिसे
merye
@kokavaishnav
comprehension
issue
झलक
demand
fellow
सीखने
urdu
hindians
लफ्जों
जुबान
ख्यालों
ज़िक्र
अहमियत
नज़रों
एहसास
अधूरापन
लाना
अजनती
मूर्तियां
co/dipx2k1qag
#nadiya
चलें
#eksaath
#ranilakshmibai
#shivaji
@krish_is_devil
@fearless_mahira
@emperor_abhi_
@imarpitamishra
@mohammadhaish
@mujjutemporary
@megastarfan2712
माहिर
नॉटी
बज
हो😒😒😒😒😒ऊंटाग
@muslimsabnam
@shivanipatel23:
hemant
soren
जाओगे
अजीब
यात्
@wasimjaffer14
रहोगे
@swetamisra10
@iamsinghaniya
कश्ती
सिद्धर
संभालो
@sanam_afridi10
@iammunibazafar
@safridiofficial
@humach_10
@biggestafridian
@beingafrdian
@jarry_pk
बचाने
लिया😣😔
@callmewhom
@bindeshpandya
our
different
meanings
@uloom_al
@lust_explorer
@aalima_rkhanum
@shazia_ch1
@bannorukhsar
@aishapa72882459
@aiza54865091
@hina_perfect
@tasneem_e3
@khalidabegam
@ameerawwbutt
किसो
torture
राम
नारा
लगवाने
खीर
@khanjarwale
ख़बर
co/3imt81nbl7
@shivanipatel23
गये?
@adilm35424865
@javeedh16
@sudhir_mishr
@rayan7063
@bleedleo
@debayan
@zaidzamanhamid
hahaha😂🤣😹
हिजड़े
daily
100g
मिर्च
g**d
लटकते
hn
denge
हिजडे
surrender
दबा
तरह👇
co/uiwlsmldwd
sard
पुरानी
मुमकिन
लेवी
आंखें
शादिकी
शुरुकती
hai🤦‍♀️🤣🤣🤣🤣🤣🤣🤣🤣🤣
co/0ub3pchpkt
@sidharth_shukla:
99
9%
पेंट
साबुन
distemper
cl…
@darshitdave02
@mohi_rashi:
लीजिये
कहे…
#बज़्म
#शायरांश
#अक्षरमाला
#राशि
number
co/9q9lv2laou
#shonashonawith…
@hahumainbiased
हैं🤧🤧
नशे
चाइये
को🤧🤧
@zehraavadh
can
deny:
secular
कट्टर
एंटी-मोदी
अन्…
नागपुर
टॉपिक
मुस्लिम
खाकी
चड्डी
धारी
समस्याएं
@kritikasidheart
@hardfate3
@prachisachdeva1
@theshubhham
@akkamain
@raghavsharma1_
@xyz08845957
@guptadipika
अधूरा
@vatsalmuchhala
@azashwani
tactic
धमका
करा
gdp
कपडे
उतार
पहुचा
monk
घूम
chilling
@ikunaal
सुननी
monopoly
#supremecourtofindia
हों’बोल
तमीज
@utkarshsingh_
@siddhantmt
@varungrover
@sakshijoshii
@sanjeevgupta93
@roflgandhi_
@amina_sharad123:
ita
भी🙌🙌
#sharadmalhotra
#itaaward2020
#naagin5
#proudsmian
@united_india_01
@worship1231
@hansrajmeena
reservation
डोचे
बॉडी
शुरुवात
नियोगी
bin-virodh
🤣🤣😂😂😂
@newsnationtv
@manoj_gairola
@msajidrashidi
नफ़रत
फैलाता
@bharatj82
retrace
attention
bb13
सिड
मौके
चौका
बेबू
किधर
ragi
@riturathaur:
उठे
असुर
@varuniac_sahil:
@hereforvd
खुशकिस्मती
पोहच
metro
बल्
डूब
nawaz
मसत
बेरा
ईसी
डुबो
नम
जेब
lefty
@cool_rubaiya
😊अरे
@deeppatelguj:
आँखे
घड़ा
मध्य
बसनार
@siyabaloch
@rakshitim
कहेगा
@aishaesthetic_वह
month
@accdeleteduk
@rohitkhoth
@animemandemon
gangtok
बस्तर
@4evertillend
@deepakhumain
😓😢
@unknown91410163
@meenaboy_ashu
@__aafia__
@mamta10k
कौनसी
झंडे
रसोई
गैस
करलो
जानकार
ambani
adani
संपत्ति
@myworldvk
वैली
@canadiankhiladi
@kapilsharmak9
@humorouslyvipul
बाल्की
kapil
hater
totter
@shahazhar54321
--
है😍
@officialsidnaaz
very
chant
loondo
बेश
☔☔☔
आया😂😜
co/esbnjoimr4
@siddaramaiah
shimoga
वजसे
चलने
मदत
जमीर
क्यूब
twit
अनुसार
problems
तबीयत
@itsmannism
@speakng_scalpel
smh
@youtubeindia:
co/tdjvzuvnes
आया😁
बहूत
भागो
भागों
🙏🙏🙏🙏
co/hc6jeugpvs
@bhupendrasinhv3
@icc
मरा
खेला
हारने
संन्यास
भागा
2016
@aashixo
पूछा
care
लगने
नए
ration
apply
approval
@alwaysandalwys
@apun_chand_pe_h
@omair78
nah
निकालो?
karachi
लेगें
भक्
co/ai19etyzzi
रहना
😐😘
@shashi_kant7:
@wit_choria
250+
पर…
@alokaapratha_वो
@immahjaben
@er_ks07
@periwinkle__तेरे
नाटोक
हू🤕
@nikunj21129
@thedentalhouse1
कवि
प्रतिष्ठा
प्राण
गवाएँ
@jrmpoojary
@rohitix:
@harshkumar8026
@kissht_emi
@zeebusiness
@jborrowers
90
एमी
100-200
d…
खतरे
पकड़ाया
kia
boats
पूछी
huye
😩😩
co/jaja20pbu7
@sanjayyadav331:
👉
@ahmerrizwan_22:
geo
@geonews_urdu
भोज
#mdcat
बच्…
लम्हों
daala
co/akjrdjz8fo
@_inocent_girl_कुछ
नही😿
tum?
विरोधी
@indorewalamemer
हक़ीम
सुधारेगा😂
होगा🤣
सुधारने
जिम्मेदारी
लेंगे😂
मदरसचाप
समझदारी
उम्मीद
@yagnesh83
समझिए
@thedeepak2020in:
मिलकर
मजबूत
बनाएं
follower
मित्र
बढ़ाएं
इंस्ट्रक्शन्स
ईमानदारी
जाएं…
@pushpa
#when__atif__said
milke__bhi__hum__na__mile__tum__se__na__jaane__kyun
#i__felt__that
@manojtiwarimp
@hardeepspuri
maharaaj
हैं🙏
@sona_writes
failure
dude
deserving
contacts
actresses
this
just
पटी
@siasatpk
@klasrarauf
dajjal
दज्जाल
हरामियो
@ahilverma786___बढ़िया
सुनाओ😻
@notyourpoha
@dafakarosab
धु
रोती
@manojtiwarimp:
अयोध्या
एयरपोर्ट
‘मर्यादा
पूरुषोत्तम
श्रीराम
एयरपोर्ट’🙏
थैंक्स
@hardeeps…
बुद्ध
होजाती
ग्वार
@human_2015
@0x1cecafe
11th
local
practical
attend
attandance
100%
attendance
@hoefrpjm
@praanloveskoo
लम
because
tone
@imsourav_123
@edgbaston_149
जीतेंगे
@raziafuzail:
पूछे
आयात
मुबारक
जलसे
पढ़ते
2अय्यत
आई…
@pramitasingh16
मं
@sushilsancheti9
@khaire_shrutika
भुखमरी
😂😂😂😂😂sab
बर्बाद
co/w2fv8fujxq
@solankitweets0
@sanskaarianjal
करी
natural
दिखावा
1%
sab😤😤😤😤😤😤😤😤😤
@vicky78616
@impurvijainstar
री
dekhkr
♥️😍
सपना
होरा
😍💓🙏🤞
#yrkk
#kaira
#shivin
co/qovfjnrfwt
@sshreya1998
कद्दू
कटेगा
बटेगा
@pti_ki_cheeti
boys
शरम
हया
हैं🤪
@sunandavashisht
1000s
course
रखे
@noor_e_hayat
@romslafz
अच्छुरते
एब
@rishi
spotted
hot
@sanchitastic:
बेहतरीन
fresh
co/q3ahz4kxke
@thesquind
गलनी
ऐम
penguin
फौज
@allegedlyhooman:
narrator
सोनिया
दाया
mulla
patel
कहूँ
बिलकुल
जानवर
शैतान
मारा
karna
वश
कट्टरवादी
हैं😂🤣
@sagarsh53828471
@santanumaji1994
ss
मुंगेरी
हसीन
सोचे
4-5
bearish
पैसा
गवाया
पोल
खोली
co/6o7uppz0mm
@its_arpi_here:
मुस्कुराओ
😁😂😂😂😂
फत्तू
भागते
लपेटे
@pratapsarnaik
@culer_cmos
पुराना
follow
@pankha_army
हट
inch
🤡🐒🐒
@shwxtp
@unaayrus
नहाते
साले
@lovelykiller98:
गुफा
पैदाइश
हरमपाल
center
transfer
करसखता
ट्रानफ़र
करसकते
increase
होसकता
@erbachchan1
kesari
2019
march
vision
april
infinity
possible
@eijazkhanmania:
बाबा
सामान
आ…
@saurabh24715881:
😳😳😆
co/dsv1g3cdnz
@28loumadeit
आया😭
@sonali_momo1
शिविरों
🤦🏻‍♀️
bolo
attension
seeker
खैरा
shivin
😠
@incometaxindia
800%
बढ़ी
संपत्ति:
उद्धव
ठाकरे
करीबी
सरनाईक
ऑटो
रिक्शा
चलाते
करोड़ों
मालिक
#shivsena
#mah…
@lawyer_yasir
@aqadirbloch
बीता
उसक
नै
abdul
qadir
भूंक
तलाश
हक़
केके
लफ़्ज़ी
झड़ना
fun
@princaholics
shut
#dustbinbhasin
सपेरा
इशारों
नाच
#johnabraham
schedule
जन्
😄
co/obkfzm7hzu
@mrkhansid
@meena_sid_अच्छा
था😯😯
धी
cancel
#getlost
@ptshrikant
@uppcllko
@upgovt
@bjp4up
tripping
raaj
@uppclchairman
sarosa
power
house
mohan
लोको
बहता
fider
mujhe
पलायन
@beingmanasjha_
@ikaurrimmi
@belovedavni
@utkarshh_ut
@13hamdard
@tagkyukiya
रही😗😗
co/9nrxursw1t
ख़रीदी
😊तो
miss
शब्द
दीजिये
डालते
co/wmdzdlefhu
@alakh__में
@dianashabana
बहती
गूंगा
होना?
@4321beingsultan
@being_shawon1
@n_nimrah27
@beingsa73276143
@radheyourmostw1
@salmankhandieh4
@itsbeingvishal
@being_ahad_45
@iamayeshaahad
@salman_khan_fd
ट्यूसन
पार्लो
देखेंगे
@baby_loney_tune:
होरी
पियरे
ढलता
💙
@haseebfaiz7
भी?
here
spend
था😍😍😍
साथ🥺🥺🥺
😍😍😍
haters
सत्
हैं🤗🤗
co/izm6sup5c9
अपनापन
@sarlasi66897607:
soonte
सोंटे
एसओ
also
co/pyxwdvumme
@faisal2204khan
@roflgandhi_siachen
लड़
@tiyapathak
लत्यायी
हो🤭😉😜😜
@iamsinghaniya:
घरवाले
र
#kavitakaushi…
@keyur_sidhearts
😐
ज़िद
@koramianjali
@aastha
@pankajsingh1989
बेहन??
ankita
stood
जी??
रट
लगाकर
रहे???
@iamas2k:
खफा
रौशनी
गुजरेगी
dost
jind…
@hudiya_e_zehra
ना?😂
@khadoos_aadmi
co/1xtp1zblqe
paras
colors
face
@its_rfan
spam
digital
#hypocrisy
@iamhundal_अछि
na😝😝😝😂😂😂😂🔥🔥👏👏👏👏👏👏👏👏👏👏👏
रोशनी
राहों
गूंजे
फिजाओं
co/4fsnwpw05l
@ekr_aa
@sukhchainsidhu
@indiaankita
पैमर
बिचौलियों
हटाने
कागच
farmer
@pranitmhamunkar
@marathii_
@ekikaranmarathi
@marhathi
@maymarathi
गधों
टेगू
सम्मान
साजिश
रच
@iamhundal_
@ahsingafari
पत्थर
मनलता
😝😝
@affable_xo
co/nfhud6amti
जायगा
@aartira56390081
😤😤😤😤
सुधरोगी
बीमार
बीमारी
जायेगी?
की?
co/z9sq4sxu7s
@icanseeyoubuddy
@remember2ndoct
@ssrdiehard_fan
@lostsoul_apu
करूँगा
movement
lead
गलौज
हैं??
@bikki_pandit:
@varsha03663028
@simram_hp:
शायरी
junooniyat
@niralas1
@republic
itna
उछालो🤣🤣🤣🤣
@sanas_shield
@sidharthsbae
@pragati32516375
😭😂😭😂😭😂😭
indeed
@atul29299088
@parthchougule3
@himeshmankad
@ajaydevgn
story
roudi
rathore
laxmii
epic
disaster
kaithi
@eraycr
arrest
सबूत
मिटा
@meghachoudhur10
chamar
hum
चमार
ब्राह्मण
rajput
@robertpakistani:
-test
-त्यारी
-time
-admission
late
मतलब:
हमार…
रिहा
uae
खुल्ला
सिवाय
इबादतगाहों
@monikasingh__politician
देखलो
मासूम
बॉल
पकड
हौ
भ्रम
votes
decide
नोबडी
खाई
@jalal_rajpoot
फौलाने
दूत
तुम्हीं
france
hungry
srilanka
austria
australia
uk
फैलाने
@sirisha69572042
backward
sewage
@sujitsingh__
@mustafa53375014
जरा
दक
कैसा
जयहाद
वजा
आपस
ज
hindusataan
@aitcmeghna:
कोही
सीमा
पार
gol
#mahilabirodhibjp
#bengalreject…
@akkianforever2
@rahulverma4860
theaters
shaheen
बाग
canadian
canada
पढता
पढ़ा
💃💃💃🔥🔥🔥😌
co/muxkx49u2h
@a_lonethinker
@iamindianhitler
hawx
(hot
pass
😂😁
बसती
यारो
yun
co/2j4bxjjb2j
com
id
update
करवायी
पिताजी
applaud
अनुरोध
uphold
सकें
आडिट
option
लाए
co/yytz4j46zy
@call_me_clown_हुआ
co/gqm1eopzzy
@love_endures_ये
देखिए
@shah_rukh_786_flop
गया😿
@yvs_raizada:
@ritutyagi30
अचचा
hua
@alluarjun
@harish2you
manish
punjabi
aallu
@bhumikageradz
edits
बेहन😂😂
lagta
@rishabh_memes:
co/tdsw3kwi5r
शोक
प्रकट
झांसे
गैर
सफल
ईश्वर
बिताने
मजबूर
#aajtak
#zeenews
sri
co/6smhbixjur
@guptaadvaita
@vibhavsharma500
restaurant
अफसोस
vegeta
@zarray
कराह
ग़ुस्सा
होवे
तुझपर
@_bhargavi_2564
दिप्शी
उन्हों
@aryan050202
@_innocentbaby_समझ
😷
@pandeyneha6
🤣🤣अरे
@indianrailwaysa:
@raviyad71597079
अम्मा
जंगल
पैड…
@_khansabiha
🤟😁
निभानी
पीढ़ियों
कठपुतलियों
मनोरंजन
sawai
bhatt
awesome
#indianidol2020
28th
nov
sat-sun
co/7r1z4nivoy
@masoodusmani5
बेगेरत
गद्दार
frosh
ganddi
officers
pakistanio
israel
तस्लीम
कमर
khanzeer
javed
बाजवा
जरनैल
कहर
नाजल
@nshuklain
पहला
खयाल
@yash63121058
साहेब
message
मृत्यु
ना?
क्या???
प्रवचन
ko???
निकाला
co/h2yjrooo7h
co/x3hm9vbvge
@meghakhurana9
@sushantkumarmal
@shardulpandit11
@miss_insa
zero
@priyasn7
@itsmadhurima19
@asish_x
reach
👁👄👁
@bambrah41
#1
tumne?
drink
public
पकड़े
5000
fine
accident
cycle
बचाई
career
himanshi
वजहा
बना🤣
@nicebhakti:
@gyani__babaa
अभीतक
चिट्ठी
भेजी
@desibakchhod
hoon😃😭😭
@siddyhappiness
प्रशंसा
search
@leasst_7:
@ptipoonchdiv
@ptiofficial
हमदर्द
हू🤧🤧
@alfiyak76693157
@mdrashi78859981
ठुड़ीना
बोलड़ा
पूछियेगा
@sonzal1_या
book
sooya
मुस्तक़बिल
@syedaay80946576
कुत्तिया
@thevellikudi
मैं😭
looking
किसे
बताऊंगा
😈
@chatakeyy
@prajwolgautam7
@praveenthapaa
@nirey
@makhmali_
@priyvnka
@arya_pokharel
🙄🙄🙄
छ
च
मेरेको
@tejasjetharam:
दौरान
साधना
@talha_pervaiz_1
@mai_kiya_karu_अब
co/cmkt9z1vbd
दफा
gi😭😭😭💔
@xingyun_1
लगेगा🌚
@8pmcm
@lavirana01
चटनी
यज्ञ
तबाह
डरते
lanka
लगाऊँगी
bhala😂😂😍✌️✌️😭
@mallikalicious
को😅
@sumitkrsna
@shashitharoor
great
art
समझोगे
@desimojito
comedy
लोल
पैग
बनाए
@sooraj_verma14:
बदन
रह…
jisko
co/jbhswdvd1r
co/ueotjvodld
@iamjoker2k20
हो??
@ursouvenir:
nation??
ahhahh
youth??
hhahah
बेवक़ूफों
brain
वाश
@tiwarialok91
@_ignoredaf
dp
ख्याल
prabandh
नाचे
tum???
@raaj07245636
hoke
bhi
💔
👀
✌️❤️
@mask_____man
@dipahindustani2
@deepashree_ab
co/m3pdalamd3
@izzat_ma_aab:
तान
धूप
@apoorvaa_21
sutro
मुताबिक
topper
@yxngvision999
@farisakarimi
टूटते
करु😞👍
@martianbeing_:
@anuragdhanda
@kapsology
संघर्ष
bothering
लगाए
timeline
कंबल
छोड़ने
परीशान
@itskhadijazh
पढोगी?
@ariihantspeaks
खेती
corporately
हवाले
@yourpalakroy
bhandara
दारू
🥃🥃🥃
बहलाकर
secrets
screenshots
videos
divorce
aayenge
🤣🤣🤣
@outofyourrange:
requests
@imrankhanpti
generatio…
@priyankalahiri_झाड़ू
पोछा
पढ़ेगी
बचेंगे
@iujjawaltrivedi
दृजी
actress
बहाल
करेगें
इन्हों
udd
#boycottbollywood
#nosushantnobollywood
hate
@ayushgupta
@abhishekitoff
overtime
ramayan
telecast
1987
बताती
मम्मी
mein😘😍🤗
@rishabhmanitrip
@ashokmisra2
@sanjayjourno
@meevkt
सरकारी
रैलिया
असज
समारोह
@amitbijender
कामिनी
link
@exsecular
3rd
@iuswilicious_x
@soupersassy
@clar191
सपरा
argument
any
task
nd
rubinav
नागिन
इम
आगये
aab
@imssrfan
@asimanshilover
oak
जागने
लेना😂😂😂
बद
दावत
🤣😜
लालटेन
कहता
ललुआ
standard
बांग्ला
सिसका
बुडबाग
उठता
hoon
co/sxamqnocmd
