{
  "best_epoch": 6,
  "peak_cpu_memory_MB": 334.128,
  "training_duration": "0:00:22.061345",
  "training_start_epoch": 0,
  "training_epochs": 6,
  "epoch": 6,
  "training_accuracy": 0.5602560256025603,
  "training_loss": 0.9025883689855996,
  "training_reg_loss": 0.0,
  "training_cpu_memory_MB": 334.128,
  "validation_accuracy": 0.5735238811583302,
  "validation_loss": 0.8929854879776636,
  "validation_reg_loss": 0.0,
  "best_validation_accuracy": 0.5735238811583302,
  "best_validation_loss": 0.8929854879776636,
  "best_validation_reg_loss": 0.0
}