{
  "best_epoch": 0,
  "peak_cpu_memory_MB": 313.592,
  "training_duration": "0:00:03.089891",
  "training_start_epoch": 0,
  "training_epochs": 0,
  "epoch": 0,
  "training_accuracy": 0.46394639463946397,
  "training_loss": 1.0022508204935459,
  "training_reg_loss": 0.0,
  "training_cpu_memory_MB": 313.592,
  "validation_accuracy": 0.4802557352388116,
  "validation_loss": 0.983498487444151,
  "validation_reg_loss": 0.0,
  "best_validation_accuracy": 0.4802557352388116,
  "best_validation_loss": 0.983498487444151,
  "best_validation_reg_loss": 0.0
}