{
  "best_epoch": 30,
  "peak_cpu_memory_MB": 334.128,
  "training_duration": "0:02:08.866888",
  "training_start_epoch": 0,
  "training_epochs": 39,
  "epoch": 39,
  "training_accuracy": 0.6134613461346134,
  "training_loss": 0.8240988953425862,
  "training_reg_loss": 0.0,
  "training_cpu_memory_MB": 334.128,
  "validation_accuracy": 0.5911996991350131,
  "validation_loss": 0.8740829726060232,
  "validation_reg_loss": 0.0,
  "best_validation_accuracy": 0.6009778112072207,
  "best_validation_loss": 0.8707836639313471,
  "best_validation_reg_loss": 0.0
}