{
  "best_epoch": 13,
  "peak_cpu_memory_MB": 334.128,
  "training_duration": "0:00:44.779511",
  "training_start_epoch": 0,
  "training_epochs": 13,
  "epoch": 13,
  "training_accuracy": 0.5780578057805781,
  "training_loss": 0.8834366802209482,
  "training_reg_loss": 0.0,
  "training_cpu_memory_MB": 334.128,
  "validation_accuracy": 0.5833019932305378,
  "validation_loss": 0.876136859967595,
  "validation_reg_loss": 0.0,
  "best_validation_accuracy": 0.5833019932305378,
  "best_validation_loss": 0.876136859967595,
  "best_validation_reg_loss": 0.0
}