{
  "best_epoch": 2,
  "peak_cpu_memory_MB": 487.832,
  "training_duration": "0:00:23.503742",
  "training_start_epoch": 0,
  "training_epochs": 6,
  "epoch": 6,
  "training_accuracy": 0.5216907675194661,
  "training_loss": 0.9395020984370133,
  "training_reg_loss": 0.0,
  "training_cpu_memory_MB": 487.832,
  "validation_accuracy": 0.455,
  "validation_loss": 1.1244286128452845,
  "validation_reg_loss": 0.0,
  "best_validation_accuracy": 0.43,
  "best_validation_loss": 1.0698588064738683,
  "best_validation_reg_loss": 0.0
}