{
  "best_epoch": 2,
  "peak_cpu_memory_MB": 488.172,
  "training_duration": "0:00:39.961747",
  "training_start_epoch": 0,
  "training_epochs": 11,
  "epoch": 11,
  "training_accuracy": 0.6496106785317018,
  "training_loss": 0.7514699255598003,
  "training_reg_loss": 0.0,
  "training_cpu_memory_MB": 488.172,
  "validation_accuracy": 0.445,
  "validation_loss": 1.1715671079499381,
  "validation_reg_loss": 0.0,
  "best_validation_accuracy": 0.43,
  "best_validation_loss": 1.0698588064738683,
  "best_validation_reg_loss": 0.0
}