{
  "best_epoch": 2,
  "peak_cpu_memory_MB": 470.864,
  "training_duration": "0:00:10.587156",
  "training_start_epoch": 0,
  "training_epochs": 2,
  "epoch": 2,
  "training_accuracy": 0.389321468298109,
  "training_loss": 1.0737198344592391,
  "training_reg_loss": 0.0,
  "training_cpu_memory_MB": 470.864,
  "validation_accuracy": 0.4,
  "validation_loss": 1.0806435346603394,
  "validation_reg_loss": 0.0,
  "best_validation_accuracy": 0.4,
  "best_validation_loss": 1.0806435346603394,
  "best_validation_reg_loss": 0.0
}