{
  "best_epoch": 15,
  "peak_cpu_memory_MB": 336.292,
  "training_duration": "0:00:53.375516",
  "training_start_epoch": 0,
  "training_epochs": 15,
  "epoch": 15,
  "training_accuracy": 0.575957595759576,
  "training_loss": 0.8890406329410906,
  "training_reg_loss": 0.0,
  "training_cpu_memory_MB": 336.292,
  "validation_accuracy": 0.5825498307634449,
  "validation_loss": 0.8884865634498142,
  "validation_reg_loss": 0.0,
  "best_validation_accuracy": 0.5825498307634449,
  "best_validation_loss": 0.8884865634498142,
  "best_validation_reg_loss": 0.0
}