{
  "best_epoch": 24,
  "peak_cpu_memory_MB": 336.292,
  "training_duration": "0:01:27.000128",
  "training_start_epoch": 0,
  "training_epochs": 25,
  "epoch": 25,
  "training_accuracy": 0.5884588458845884,
  "training_loss": 0.8665545272370117,
  "training_reg_loss": 0.0,
  "training_cpu_memory_MB": 336.292,
  "validation_accuracy": 0.5893192929672809,
  "validation_loss": 0.8763918621199471,
  "validation_reg_loss": 0.0,
  "best_validation_accuracy": 0.5881910492666416,
  "best_validation_loss": 0.8735536876178923,
  "best_validation_reg_loss": 0.0
}