{
  "best_epoch": 31,
  "peak_cpu_memory_MB": 336.292,
  "training_duration": "0:02:03.598803",
  "training_start_epoch": 0,
  "training_epochs": 36,
  "epoch": 36,
  "training_accuracy": 0.6024602460246025,
  "training_loss": 0.8416158554081719,
  "training_reg_loss": 0.0,
  "training_cpu_memory_MB": 336.292,
  "validation_accuracy": 0.591951861602106,
  "validation_loss": 0.8773999178693408,
  "validation_reg_loss": 0.0,
  "best_validation_accuracy": 0.5953365927040241,
  "best_validation_loss": 0.872827023977325,
  "best_validation_reg_loss": 0.0
}