{
  "best_epoch": 19,
  "peak_cpu_memory_MB": 279.1,
  "training_duration": "0:00:09.319042",
  "training_start_epoch": 0,
  "training_epochs": 19,
  "epoch": 19,
  "training_accuracy": 0.4911111111111111,
  "training_loss": 0.9931651518262666,
  "training_reg_loss": 0.0,
  "training_cpu_memory_MB": 279.1,
  "validation_accuracy": 0.45,
  "validation_loss": 1.0385218688419886,
  "validation_reg_loss": 0.0,
  "best_validation_accuracy": 0.45,
  "best_validation_loss": 1.0385218688419886,
  "best_validation_reg_loss": 0.0
}