{
  "best_epoch": 2,
  "peak_cpu_memory_MB": 278.92,
  "training_duration": "0:00:01.532552",
  "training_start_epoch": 0,
  "training_epochs": 2,
  "epoch": 2,
  "training_accuracy": 0.38,
  "training_loss": 1.0610631930417027,
  "training_reg_loss": 0.0,
  "training_cpu_memory_MB": 278.92,
  "validation_accuracy": 0.43,
  "validation_loss": 1.0541720390319824,
  "validation_reg_loss": 0.0,
  "best_validation_accuracy": 0.43,
  "best_validation_loss": 1.0541720390319824,
  "best_validation_reg_loss": 0.0
}