{
  "best_epoch": 7,
  "peak_cpu_memory_MB": 279.06,
  "training_duration": "0:00:03.815653",
  "training_start_epoch": 0,
  "training_epochs": 7,
  "epoch": 7,
  "training_accuracy": 0.43333333333333335,
  "training_loss": 1.042642724925074,
  "training_reg_loss": 0.0,
  "training_cpu_memory_MB": 279.06,
  "validation_accuracy": 0.395,
  "validation_loss": 1.047917868409838,
  "validation_reg_loss": 0.0,
  "best_validation_accuracy": 0.395,
  "best_validation_loss": 1.047917868409838,
  "best_validation_reg_loss": 0.0
}