{
  "best_epoch": 8,
  "peak_cpu_memory_MB": 279.068,
  "training_duration": "0:00:04.704105",
  "training_start_epoch": 0,
  "training_epochs": 9,
  "epoch": 9,
  "training_accuracy": 0.44,
  "training_loss": 1.0300311775043094,
  "training_reg_loss": 0.0,
  "training_cpu_memory_MB": 279.068,
  "validation_accuracy": 0.4,
  "validation_loss": 1.0464871610913957,
  "validation_reg_loss": 0.0,
  "best_validation_accuracy": 0.405,
  "best_validation_loss": 1.044504770210811,
  "best_validation_reg_loss": 0.0
}