{
  "best_epoch": 22,
  "peak_cpu_memory_MB": 279.1,
  "training_duration": "0:00:10.650710",
  "training_start_epoch": 0,
  "training_epochs": 22,
  "epoch": 22,
  "training_accuracy": 0.5166666666666667,
  "training_loss": 0.961297382568491,
  "training_reg_loss": 0.0,
  "training_cpu_memory_MB": 279.1,
  "validation_accuracy": 0.45,
  "validation_loss": 1.0299500823020935,
  "validation_reg_loss": 0.0,
  "best_validation_accuracy": 0.45,
  "best_validation_loss": 1.0299500823020935,
  "best_validation_reg_loss": 0.0
}