{
  "best_epoch": 10,
  "peak_cpu_memory_MB": 1206.66,
  "training_duration": "0:05:33.767127",
  "training_start_epoch": 0,
  "training_epochs": 11,
  "epoch": 11,
  "training_accuracy": 0.5816581658165817,
  "training_loss": 0.8774496016030113,
  "training_reg_loss": 0.0,
  "training_cpu_memory_MB": 1206.66,
  "validation_accuracy": 0.5445656261752538,
  "validation_loss": 0.9262296060721079,
  "validation_reg_loss": 0.0,
  "best_validation_accuracy": 0.5393004889056036,
  "best_validation_loss": 0.9226408324071339,
  "best_validation_reg_loss": 0.0
}