{
  "best_epoch": 10,
  "peak_cpu_memory_MB": 1206.796,
  "training_duration": "0:07:22.473186",
  "training_start_epoch": 0,
  "training_epochs": 15,
  "epoch": 15,
  "training_accuracy": 0.5914591459145915,
  "training_loss": 0.8540840501221605,
  "training_reg_loss": 0.0,
  "training_cpu_memory_MB": 1206.796,
  "validation_accuracy": 0.5468221135765325,
  "validation_loss": 0.9251806856620879,
  "validation_reg_loss": 0.0,
  "best_validation_accuracy": 0.5393004889056036,
  "best_validation_loss": 0.9226408324071339,
  "best_validation_reg_loss": 0.0
}