{
  "best_epoch": 1,
  "peak_cpu_memory_MB": 1317.476,
  "training_duration": "0:03:56.366787",
  "training_start_epoch": 0,
  "training_epochs": 10,
  "epoch": 10,
  "training_accuracy": 0.9899888765294772,
  "training_loss": 0.029875546623551255,
  "training_reg_loss": 0.0,
  "training_cpu_memory_MB": 1317.448,
  "validation_accuracy": 0.41,
  "validation_loss": 2.423639638083322,
  "validation_reg_loss": 0.0,
  "best_validation_accuracy": 0.48,
  "best_validation_loss": 1.0300910472869873,
  "best_validation_reg_loss": 0.0
}