{
    "dataset_reader": {
        "type": "semeval-reader-2",
        "token_indexers": {
            "token_characters": {
                "type": "characters"
            },
            "tokens": {
                "type": "single_id"
            }
        }
    },
    "model": {
        "type": "basic_classifier",
        "dropout": 0.5,
        "seq2vec_encoder": {
            "_pretrained": {
                "archive_file": "allennlp_tests/modelv6/model.tar.gz",
                "freeze": false,
                "module_path": "_seq2vec_encoder"
            }
        },
        "text_field_embedder": {
            "_pretrained": {
                "archive_file": "allennlp_tests/modelv6/model.tar.gz",
                "freeze": false,
                "module_path": "_text_field_embedder"
            }
        }
    },
    "train_data_path": "allennlp_tests/datasets/new_tta_train.txt",
    "validation_data_path": "allennlp_tests/datasets/new_tta_val.txt",
    "trainer": {
        "cuda_device": -1,
        "num_epochs": 30,
        "optimizer": "adam",
        "patience": 10
    },
    "data_loader": {
        "type": "default",
        "batch_size": 32
    }
}