{
  "best_epoch": 6,
  "peak_cpu_memory_MB": 498.228,
  "training_duration": "0:00:57.458091",
  "training_start_epoch": 0,
  "training_epochs": 15,
  "epoch": 15,
  "training_accuracy": 0.7597330367074527,
  "training_loss": 0.5756723729187044,
  "training_reg_loss": 0.0,
  "training_cpu_memory_MB": 498.228,
  "validation_accuracy": 0.515,
  "validation_loss": 1.2055882470948356,
  "validation_reg_loss": 0.0,
  "best_validation_accuracy": 0.48,
  "best_validation_loss": 1.0310075708797999,
  "best_validation_reg_loss": 0.0
}