{
  "best_epoch": 0,
  "peak_cpu_memory_MB": 1164.768,
  "training_duration": "0:01:29.425904",
  "training_start_epoch": 0,
  "training_epochs": 1,
  "epoch": 1,
  "training_accuracy": 0.6473647364736473,
  "training_loss": 0.7745791591775303,
  "training_reg_loss": 0.0,
  "training_cpu_memory_MB": 1164.768,
  "validation_accuracy": 0.5344114328694998,
  "validation_loss": 1.0133509706883204,
  "validation_reg_loss": 0.0,
  "best_validation_accuracy": 0.5430613012410681,
  "best_validation_loss": 0.9285466216859364,
  "best_validation_reg_loss": 0.0
}