{
  "best_epoch": 0,
  "peak_cpu_memory_MB": 1530.456,
  "training_duration": "0:03:37.675678",
  "training_start_epoch": 0,
  "training_epochs": 4,
  "epoch": 4,
  "training_accuracy": 0.9755975597559756,
  "training_loss": 0.08795532548633485,
  "training_reg_loss": 0.0,
  "training_cpu_memory_MB": 1530.456,
  "validation_accuracy": 0.5178638585934562,
  "validation_loss": 2.294701249826522,
  "validation_reg_loss": 0.0,
  "best_validation_accuracy": 0.5430613012410681,
  "best_validation_loss": 0.9285466216859364,
  "best_validation_reg_loss": 0.0
}