@@UNKNOWN@@
a
i
e
h
n
r
o
t
s
k
l
d
u
m
y
b
p
.
g
c
@
j
w
A
f
v
S
M
I
T
R
B
P
K
H
N
_
D
J
C
z
1
,
G
0
E
O
#
L
2
Y
W
!
4
U
5
3
9
?
😂
F
7
8
V
…
q
'
6
ा
x
-
क
र
े
’
🙏
ी
Z
ह
/
न
्
स
:
"
त
ि
म
️
ं
❤
ो
&
)
🤣
ल
😍
(
ا
😭
द
प
;
ی
य
ज
Q
*
😘
व
🇮
ग
🇳
ब
ै
ु
ر
😊
ک
و
💜
श
ن
ہ
م
😡
ے
💕
X
“
🎂
भ
🌹
़
%
😁
ट
ل
💐
🏻
अ
”
👏
।
ت
👍
😜
ड
आ
च
ए
د
ध
😆
ू
ख
ب
🎉
+
😀
‍
س
👌
🤔
😠
🙄
ں
थ
फ
🤗
😋
پ
😅
🚩
💓
♥
💋
✌
😎
😉
😝
☺
🌷
ई
इ
😢
💖
😇
|
🤪
💔
~
😌
ष
ھ
😔
🔥
‘
🌸
💪
ج
💙
😄
उ
छ
🎊
औ
😑
ौ
💯
💑
ز
😒
🙈
💗
😬
گ
[
🇵
🇰
🏼
😏
🙌
♂
🖕
🏆
ش
ف
😛
😹
🙂
=
]
🥰
♀
ق
😪
😃
🤦
—
é
🤬
🤩
💚
ع
ئ
😤
😐
ح
ٹ
✨
ā
💞
ठ
😩
☹
😕
✅
ण
🎁
🙇
🏾
🏽
😮
👎
🌺
🌱
۔
🙊
👇
🎈
á
🤧
🥺
🤨
💃
$
ँ
چ
💏
خ
ص
ृ
😣
🏏
🌈
آ
😈
💝
🖤
–
😳
💘
😥
₹
ढ
😶
🤷
<
🤘
🙃
😙
ñ
घ
➡
🌚
💛
🌼
>
😞
💮
،
ओ
💩
🔯
👑
😫
😷
🙆
😴
😨
❣
í
🤓
ط
👉
🥳
`
ı
󠁧
🍰
⚫
🦄
🏵
🍾
ض
؟
ᴇ
👈
া
🍖
😚
్
✊
👀
😻
💀
🤭
👩
•
ظ
ऐ
ে
🍺
😓
🤞
🗿
🦋
🐍
✔
👻
🧡
🎶
👨
ü
ॉ
ः
ڑ
🕎
🤡
😖
😱
💫
🌿
🌲
👫
스
🇦
😯
ş
⬆
❓
^
ᴀ
🎼
ー
🥴
⃣
🖐
ऊ
✍
র
ক
🍗
の
✖
👋
🍫
🙉
å
🤙
💁
✋
ర
´
⛳
☝
🕺
🇩
🏴
󠁢
󠁿
🌙
❗
ã
🤟
⬇
😗
ç
😰
🎵
🤲
ؤ
ᴛ
ञ
기
🐅
ু
झ
🇪
と
⁦
🍧
ä
📄
ê
👿
ి
ా
🐱
😟
🇧
󠁥
󠁮
👊
💥
🇸
่
‼
🤝
🧐
🎧
🤯
╭
╮
Á
غ
ڈ
す
ɪ
ɴ
ᴍ
🍦
に
🤐
🏳
🔺
🐵
ত
্
ো
ম
য
🗣
🎄
𝗲
か
⁩
🕴
ᵒ
ᵉ
🍨
🍬
🐯
🎇
ô
ł
📃
🌵
자
క
ు
స
ం
డ
ప
🔫
🇿
🌴
✈
🇬
💸
🔨
น
ค
ุ
ก
🚨
🏿
ý
🍀
🔴
⭐
ö
ř
っ
𝄞
ਂ
👅
ʀ
ゃ
이
다
🥇
특
🕋
ُ
👹
🐟
আ
ঋ
ি
ল
ও
খ
থ
ন
🍻
👠
🍎
🍏
🐶
🌻
🌟
𝘀
🎋
ī
🎀
い
は
だ
う
ま
ે
日
🔝
ˢ
ン
ó
🌝
👾
ㅠ
ي
ة
đ
ż
🙋
🧚
ﷺ
한
మ
న
ద
త
ో
య
ల
ఉ
ష
ů
🇫
🇺
🇱
💌
ꕊ
𝐡
𝐞
ผ
ป
ี
อ
บ
ท
🥵
ۃ
č
👐
🙅
🤒
🐼
🙁
🐂
¡
·
¯
˘
̩
♡
🚴
⃑
ਹ
ੁ
ਤ
ੀ
ਰ
―
🎓
🦍
🌎
💟
🤕
👼
👰
👸
ᴋ
ғ
ᴅ
💬
ᴏ
ᴘ
💡
ذ
こ
ん
🏡
☀
😦
💍
{
}
🤑
ء
｡
‿
◉
🚶
트
레
키
즈
প
ষ
ব
়
🤫
🎤
🍍
Ɩ
📸
🐕
🕉
🥁
☘
𝗶
𝗰
🌘
間
つ
ら
ろ
た
。
イ
る
વ
ર
મ
િ
🍇
🍁
🥫
🤮
Ş
🌍
📻
ル
💎
🎬
👺
⠀
🇭
〣
º
ᵐ
ʸ
ᵍ
ᵘ
ᵃ
ᶦ
ダ
ヒ
ョ
限
定
で
Í
ē
⤴
î
🐖
¿
🤠
🏖
ế
ồ
ủ
ề
ố
Ć
ę
Ś
↑
🐸
👆
🛐
ﷻ
𝐹
𝒾
𝑔
𝒽
𝓉
𝒻
𝑜
𝓇
𝓊
𝓈
📝
국
댄
러
시
팀
약
제
일
은
행
🐈
ధ
బ
ే
ఇ
అ
ూ
వ
చ
ě
š
🏁
🎩
🦁
🙀
😲
🔚
𝐂
𝐚
𝐩
𝐭
𝐫
𝟔
𝟏
𝟐
𝐉
𝐮
𝐧
𝐖
𝐢
𝐬
︎
า
ไ
แ
ล
้
ว
ร
ึ
ง
ข
ณ
ย
ู
ั
🚬
⚔
ň
⚪
󠁳
󠁣
󠁴
🛍
ò
à
🍱
⚽
👞
🥾
👟
😼
❌
🤤
🌊
🐥
🐿
Č
🔪
▂
🏋
🌶
¥
ਣ
ਸ
ਨ
ਕ
ੋ
ਗ
ੇ
ਾ
ਫ
ਿ
🔁
🦳
🌄
🐓
🦉
É
°
ú
🌏
🔔
✴
❔
⁉
お
や
☪
ؑ
ʟ
👥
ɢ
💾
ᴠ
ᴄ
ʏ
ᴜ
ʜ
🎸
🎻
📷
王
君
豪
왕
군
호
구
노
โ
ฮ
프
로
듀
®
猫
ね
ネ
コ
💣
ऑ
극
찬
글
라
돔
나
도
있
🔃
🏹
♆
♅
🚛
ū
ه
\
জ
ণ
ঘ
ৃ
ী
চ
ট
স
ছ
ঁ
দ
এ
ড
ই
ভ
Ã
â
Š
🔈
⌚
🍟
🍓
🍒
🍊
🍑
🍐
Լ
Ɣ
Є
Ɲ
📺
🤚
☔
🐰
🔗
👮
🥈
👶
👧
🍭
🏟
🤸
👯
ً
🤥
𝗣
𝘂
𝗯
𝗹
𝗿
𝘃
𝗺
𝗮
𝗴
🍸
⚕
📧
🤳
🏈
入
場
待
ち
気
怠
時
人
結
構
な
思
今
ケ
タ
あ
違
け
ど
થ
ી
ટ
ન
હ
જ
ગ
ા
ં
✉
🍔
🧀
🍕
🍿
🐒
è
Ç
॥
©
⚡
✒
🔙
℅
ì
🇨
❇
👃
☃
明
メ
し
⛹
🐽
🍃
🔐
🐐
🥭
멀
티
뷰
와
함
께
즐
는
머
터
실
황
생
중
계
만
립
니
😵
🎟
🕌
Δ
ʰ
ᵈ
ʳ
ᶜ
ᵗ
ᵛ
ᵏ
😿
🎥
🔟
🎆
🎗
🦅
誕
生
当
、
ベ
ト
ス
テ
ジ
が
開
放
べ
て
パ
ズ
を
ク
リ
ア
ム
ビ
ỉ
ư
ờ
⛽
™
📈
📣
🇾
🌌
👒
⚘
