{
  "best_epoch": 38,
  "peak_cpu_memory_MB": 336.176,
  "training_duration": "0:02:29.420358",
  "training_start_epoch": 0,
  "training_epochs": 39,
  "epoch": 39,
  "training_accuracy": 0.6061606160616062,
  "training_loss": 0.8264021418346003,
  "training_reg_loss": 0.0,
  "training_cpu_memory_MB": 336.176,
  "validation_accuracy": 0.5806694245957127,
  "validation_loss": 0.8731058019967306,
  "validation_reg_loss": 0.0,
  "best_validation_accuracy": 0.5900714554343738,
  "best_validation_loss": 0.8714190366722289,
  "best_validation_reg_loss": 0.0
}