{
  "best_epoch": 1,
  "peak_cpu_memory_MB": 334.976,
  "training_duration": "0:00:07.060067",
  "training_start_epoch": 0,
  "training_epochs": 1,
  "epoch": 1,
  "training_accuracy": 0.5260526052605261,
  "training_loss": 0.9428939312791672,
  "training_reg_loss": 0.0,
  "training_cpu_memory_MB": 334.976,
  "validation_accuracy": 0.5144791274915381,
  "validation_loss": 0.9450724706763313,
  "validation_reg_loss": 0.0,
  "best_validation_accuracy": 0.5144791274915381,
  "best_validation_loss": 0.9450724706763313,
  "best_validation_reg_loss": 0.0
}