{
  "best_epoch": 9,
  "peak_cpu_memory_MB": 335.356,
  "training_duration": "0:00:40.864066",
  "training_start_epoch": 0,
  "training_epochs": 10,
  "epoch": 10,
  "training_accuracy": 0.5658565856585659,
  "training_loss": 0.8966385807853918,
  "training_reg_loss": 0.0,
  "training_cpu_memory_MB": 335.356,
  "validation_accuracy": 0.5686348251222264,
  "validation_loss": 0.9060570313816979,
  "validation_reg_loss": 0.0,
  "best_validation_accuracy": 0.5731477999247837,
  "best_validation_loss": 0.8909887068328404,
  "best_validation_reg_loss": 0.0
}