{
  "best_epoch": 14,
  "peak_cpu_memory_MB": 335.644,
  "training_duration": "0:01:10.650259",
  "training_start_epoch": 0,
  "training_epochs": 18,
  "epoch": 18,
  "training_accuracy": 0.577957795779578,
  "training_loss": 0.8799425167397569,
  "training_reg_loss": 0.0,
  "training_cpu_memory_MB": 335.644,
  "validation_accuracy": 0.5791650996615268,
  "validation_loss": 0.8832045942544937,
  "validation_reg_loss": 0.0,
  "best_validation_accuracy": 0.5844302369311771,
  "best_validation_loss": 0.88309987953731,
  "best_validation_reg_loss": 0.0
}