{
  "best_epoch": 38,
  "peak_cpu_memory_MB": 336.176,
  "training_duration": "0:02:59.188224",
  "training_start_epoch": 0,
  "training_epochs": 47,
  "epoch": 47,
  "training_accuracy": 0.6263626362636263,
  "training_loss": 0.8072323194517496,
  "training_reg_loss": 0.0,
  "training_cpu_memory_MB": 336.176,
  "validation_accuracy": 0.5911996991350131,
  "validation_loss": 0.8789583912917546,
  "validation_reg_loss": 0.0,
  "best_validation_accuracy": 0.5900714554343738,
  "best_validation_loss": 0.8714190366722289,
  "best_validation_reg_loss": 0.0
}