{
  "best_epoch": 4,
  "peak_cpu_memory_MB": 1192.544,
  "training_duration": "0:03:20.578065",
  "training_start_epoch": 0,
  "training_epochs": 4,
  "epoch": 4,
  "training_accuracy": 0.4877584330794342,
  "training_loss": 0.9834682051686273,
  "training_reg_loss": 0.0,
  "training_cpu_memory_MB": 1192.544,
  "validation_accuracy": 0.4883578431372549,
  "validation_loss": 0.9987690331889134,
  "validation_reg_loss": 0.0,
  "best_validation_accuracy": 0.4883578431372549,
  "best_validation_loss": 0.9987690331889134,
  "best_validation_reg_loss": 0.0
}