{
  "best_epoch": 6,
  "peak_cpu_memory_MB": 1192.7,
  "training_duration": "0:04:39.303402",
  "training_start_epoch": 0,
  "training_epochs": 6,
  "epoch": 6,
  "training_accuracy": 0.5191331157054769,
  "training_loss": 0.9534802956857543,
  "training_reg_loss": 0.0,
  "training_cpu_memory_MB": 1192.7,
  "validation_accuracy": 0.4895833333333333,
  "validation_loss": 0.9947549104690552,
  "validation_reg_loss": 0.0,
  "best_validation_accuracy": 0.4895833333333333,
  "best_validation_loss": 0.9947549104690552,
  "best_validation_reg_loss": 0.0
}