{
  "best_epoch": 1,
  "peak_cpu_memory_MB": 1102.744,
  "training_duration": "0:01:21.710531",
  "training_start_epoch": 0,
  "training_epochs": 1,
  "epoch": 1,
  "training_accuracy": 0.40007254261878855,
  "training_loss": 1.0729195295900538,
  "training_reg_loss": 0.0,
  "training_cpu_memory_MB": 1102.744,
  "validation_accuracy": 0.47610294117647056,
  "validation_loss": 1.0293698462785459,
  "validation_reg_loss": 0.0,
  "best_validation_accuracy": 0.47610294117647056,
  "best_validation_loss": 1.0293698462785459,
  "best_validation_reg_loss": 0.0
}