{
  "best_epoch": 3,
  "peak_cpu_memory_MB": 1192.344,
  "training_duration": "0:02:41.268339",
  "training_start_epoch": 0,
  "training_epochs": 3,
  "epoch": 3,
  "training_accuracy": 0.47143634385201305,
  "training_loss": 1.0014450508615245,
  "training_reg_loss": 0.0,
  "training_cpu_memory_MB": 1192.344,
  "validation_accuracy": 0.4852941176470588,
  "validation_loss": 1.0037855389071446,
  "validation_reg_loss": 0.0,
  "best_validation_accuracy": 0.4852941176470588,
  "best_validation_loss": 1.0037855389071446,
  "best_validation_reg_loss": 0.0
}