{
  "best_epoch": 5,
  "peak_cpu_memory_MB": 1192.692,
  "training_duration": "0:03:59.758805",
  "training_start_epoch": 0,
  "training_epochs": 5,
  "epoch": 5,
  "training_accuracy": 0.5011788175553138,
  "training_loss": 0.9700242085733275,
  "training_reg_loss": 0.0,
  "training_cpu_memory_MB": 1192.692,
  "validation_accuracy": 0.4877450980392157,
  "validation_loss": 0.9980740628990472,
  "validation_reg_loss": 0.0,
  "best_validation_accuracy": 0.4877450980392157,
  "best_validation_loss": 0.9980740628990472,
  "best_validation_reg_loss": 0.0
}