{
    "dataset_reader": {
        "type": "laser-reader"
    },
    "model": {
        "type": "laser-hinglish-classifier",
        "dropout": 0.5,
        "feedforward": {
            "_pretrained": {
                "archive_file": "allennlp_tests/modelv26/model.tar.gz",
                "freeze": false,
                "module_path": "_feedforward"
            }
        }
    },
    "train_data_path": "allennlp_tests/datasets/tta_train.raw#allennlp_tests/datasets/tta_sent_train.npy",
    "validation_data_path": "allennlp_tests/datasets/tta_val.raw#allennlp_tests/datasets/tta_sent_val.npy",
    "trainer": {
        "cuda_device": -1,
        "num_epochs": 40,
        "optimizer": "adam",
        "patience": 6
    },
    "data_loader": {
        "type": "default",
        "batch_size": 32
    }
}