{
  "best_epoch": 21,
  "peak_cpu_memory_MB": 278.044,
  "training_duration": "0:00:10.886761",
  "training_start_epoch": 0,
  "training_epochs": 21,
  "epoch": 21,
  "training_accuracy": 0.4688888888888889,
  "training_loss": 1.0191274203103164,
  "training_reg_loss": 0.0,
  "training_cpu_memory_MB": 278.044,
  "validation_accuracy": 0.44,
  "validation_loss": 1.0442683015550887,
  "validation_reg_loss": 0.0,
  "best_validation_accuracy": 0.44,
  "best_validation_loss": 1.0442683015550887,
  "best_validation_reg_loss": 0.0
}