{
  "best_epoch": 18,
  "peak_cpu_memory_MB": 278.04,
  "training_duration": "0:00:09.401402",
  "training_start_epoch": 0,
  "training_epochs": 18,
  "epoch": 18,
  "training_accuracy": 0.45555555555555555,
  "training_loss": 1.03912602210867,
  "training_reg_loss": 0.0,
  "training_cpu_memory_MB": 278.04,
  "validation_accuracy": 0.44,
  "validation_loss": 1.0486094185284205,
  "validation_reg_loss": 0.0,
  "best_validation_accuracy": 0.44,
  "best_validation_loss": 1.0486094185284205,
  "best_validation_reg_loss": 0.0
}