{
  "best_epoch": 2,
  "peak_cpu_memory_MB": 1656.912,
  "training_duration": "0:05:39.675678",
  "training_start_epoch": 0,
  "training_epochs": 9,
  "epoch": 9,
  "training_accuracy": 0.7705770577057706,
  "training_loss": 0.5478776401985949,
  "training_reg_loss": 0.0,
  "training_cpu_memory_MB": 1656.912,
  "validation_accuracy": 0.5058292591199699,
  "validation_loss": 1.408627028266589,
  "validation_reg_loss": 0.0,
  "best_validation_accuracy": 0.505077096652877,
  "best_validation_loss": 0.9757059592576254,
  "best_validation_reg_loss": 0.0
}