0it [00:00, ?it/s]
793it [00:00, 7917.57it/s]
899it [00:00, 7923.46it/s]

0it [00:00, ?it/s]
200it [00:00, 7721.19it/s]

0it [00:00, ?it/s]
717it [00:00, 7152.92it/s]
1099it [00:00, 6578.38it/s]

  0%|          | 0/29 [00:00<?, ?it/s]
accuracy: 0.3125, loss: 1.0993, reg_loss: 0.0000 ||:   3%|3         | 1/29 [00:00<00:26,  1.07it/s]
accuracy: 0.2188, loss: 1.1202, reg_loss: 0.0000 ||:   7%|6         | 2/29 [00:01<00:23,  1.15it/s]
accuracy: 0.2917, loss: 1.1033, reg_loss: 0.0000 ||:  10%|#         | 3/29 [00:02<00:21,  1.22it/s]
accuracy: 0.2812, loss: 1.1029, reg_loss: 0.0000 ||:  14%|#3        | 4/29 [00:02<00:18,  1.32it/s]
accuracy: 0.2875, loss: 1.0990, reg_loss: 0.0000 ||:  17%|#7        | 5/29 [00:03<00:17,  1.37it/s]
accuracy: 0.2812, loss: 1.1005, reg_loss: 0.0000 ||:  21%|##        | 6/29 [00:04<00:17,  1.35it/s]
accuracy: 0.2857, loss: 1.1001, reg_loss: 0.0000 ||:  24%|##4       | 7/29 [00:05<00:15,  1.41it/s]
accuracy: 0.2852, loss: 1.1001, reg_loss: 0.0000 ||:  28%|##7       | 8/29 [00:05<00:14,  1.44it/s]
accuracy: 0.2917, loss: 1.1000, reg_loss: 0.0000 ||:  31%|###1      | 9/29 [00:06<00:13,  1.47it/s]
accuracy: 0.2938, loss: 1.1044, reg_loss: 0.0000 ||:  34%|###4      | 10/29 [00:07<00:13,  1.44it/s]
accuracy: 0.2955, loss: 1.1049, reg_loss: 0.0000 ||:  38%|###7      | 11/29 [00:15<00:53,  2.98s/it]
accuracy: 0.3177, loss: 1.1021, reg_loss: 0.0000 ||:  41%|####1     | 12/29 [00:16<00:38,  2.29s/it]
accuracy: 0.3125, loss: 1.1053, reg_loss: 0.0000 ||:  45%|####4     | 13/29 [00:16<00:28,  1.81s/it]
accuracy: 0.3170, loss: 1.1051, reg_loss: 0.0000 ||:  48%|####8     | 14/29 [00:17<00:21,  1.45s/it]
accuracy: 0.3250, loss: 1.1023, reg_loss: 0.0000 ||:  52%|#####1    | 15/29 [00:17<00:16,  1.19s/it]
accuracy: 0.3223, loss: 1.1012, reg_loss: 0.0000 ||:  55%|#####5    | 16/29 [00:18<00:13,  1.02s/it]
accuracy: 0.3199, loss: 1.1020, reg_loss: 0.0000 ||:  59%|#####8    | 17/29 [00:19<00:10,  1.13it/s]
accuracy: 0.3316, loss: 1.0993, reg_loss: 0.0000 ||:  62%|######2   | 18/29 [00:19<00:08,  1.26it/s]
accuracy: 0.3388, loss: 1.0975, reg_loss: 0.0000 ||:  66%|######5   | 19/29 [00:20<00:07,  1.36it/s]
accuracy: 0.3375, loss: 1.0961, reg_loss: 0.0000 ||:  69%|######8   | 20/29 [00:20<00:06,  1.43it/s]
accuracy: 0.3408, loss: 1.0954, reg_loss: 0.0000 ||:  72%|#######2  | 21/29 [00:21<00:05,  1.48it/s]
accuracy: 0.3423, loss: 1.0930, reg_loss: 0.0000 ||:  76%|#######5  | 22/29 [00:22<00:04,  1.52it/s]
accuracy: 0.3383, loss: 1.0945, reg_loss: 0.0000 ||:  79%|#######9  | 23/29 [00:22<00:03,  1.55it/s]
accuracy: 0.3411, loss: 1.0936, reg_loss: 0.0000 ||:  83%|########2 | 24/29 [00:23<00:03,  1.55it/s]
accuracy: 0.3438, loss: 1.0923, reg_loss: 0.0000 ||:  86%|########6 | 25/29 [00:24<00:02,  1.58it/s]
accuracy: 0.3474, loss: 1.0911, reg_loss: 0.0000 ||:  90%|########9 | 26/29 [00:24<00:01,  1.59it/s]
accuracy: 0.3507, loss: 1.0907, reg_loss: 0.0000 ||:  93%|#########3| 27/29 [00:25<00:01,  1.59it/s]
accuracy: 0.3504, loss: 1.0890, reg_loss: 0.0000 ||:  97%|#########6| 28/29 [00:25<00:00,  1.57it/s]
accuracy: 0.3504, loss: 1.0841, reg_loss: 0.0000 ||: 100%|##########| 29/29 [00:26<00:00,  1.66it/s]
accuracy: 0.3504, loss: 1.0841, reg_loss: 0.0000 ||: 100%|##########| 29/29 [00:26<00:00,  1.10it/s]

  0%|          | 0/7 [00:00<?, ?it/s]
accuracy: 0.4250, loss: 1.0733, reg_loss: 0.0000 ||:  71%|#######1  | 5/7 [00:00<00:00, 41.82it/s]
accuracy: 0.4450, loss: 1.0708, reg_loss: 0.0000 ||: 100%|##########| 7/7 [00:00<00:00, 46.63it/s]

  0%|          | 0/29 [00:00<?, ?it/s]
accuracy: 0.2812, loss: 1.1411, reg_loss: 0.0000 ||:   3%|3         | 1/29 [00:00<00:24,  1.13it/s]
accuracy: 0.3750, loss: 1.1043, reg_loss: 0.0000 ||:   7%|6         | 2/29 [00:01<00:21,  1.23it/s]
accuracy: 0.3333, loss: 1.1042, reg_loss: 0.0000 ||:  10%|#         | 3/29 [00:02<00:19,  1.31it/s]
accuracy: 0.3203, loss: 1.1115, reg_loss: 0.0000 ||:  14%|#3        | 4/29 [00:02<00:18,  1.38it/s]
accuracy: 0.3063, loss: 1.1258, reg_loss: 0.0000 ||:  17%|#7        | 5/29 [00:03<00:16,  1.42it/s]
accuracy: 0.3229, loss: 1.1504, reg_loss: 0.0000 ||:  21%|##        | 6/29 [00:04<00:15,  1.47it/s]
accuracy: 0.3348, loss: 1.1371, reg_loss: 0.0000 ||:  24%|##4       | 7/29 [00:04<00:14,  1.50it/s]
accuracy: 0.3516, loss: 1.1271, reg_loss: 0.0000 ||:  28%|##7       | 8/29 [00:05<00:13,  1.52it/s]
accuracy: 0.3507, loss: 1.1163, reg_loss: 0.0000 ||:  31%|###1      | 9/29 [00:05<00:12,  1.56it/s]
accuracy: 0.3469, loss: 1.1144, reg_loss: 0.0000 ||:  34%|###4      | 10/29 [00:06<00:12,  1.54it/s]
accuracy: 0.3466, loss: 1.1198, reg_loss: 0.0000 ||:  38%|###7      | 11/29 [00:07<00:11,  1.58it/s]
accuracy: 0.3516, loss: 1.1154, reg_loss: 0.0000 ||:  41%|####1     | 12/29 [00:07<00:10,  1.58it/s]
accuracy: 0.3534, loss: 1.1097, reg_loss: 0.0000 ||:  45%|####4     | 13/29 [00:08<00:09,  1.60it/s]
accuracy: 0.3616, loss: 1.1078, reg_loss: 0.0000 ||:  48%|####8     | 14/29 [00:09<00:09,  1.63it/s]
accuracy: 0.3667, loss: 1.1032, reg_loss: 0.0000 ||:  52%|#####1    | 15/29 [00:09<00:08,  1.66it/s]
accuracy: 0.3691, loss: 1.0972, reg_loss: 0.0000 ||:  55%|#####5    | 16/29 [00:10<00:07,  1.66it/s]
accuracy: 0.3768, loss: 1.0936, reg_loss: 0.0000 ||:  59%|#####8    | 17/29 [00:10<00:07,  1.70it/s]
accuracy: 0.3802, loss: 1.0884, reg_loss: 0.0000 ||:  62%|######2   | 18/29 [00:11<00:06,  1.72it/s]
accuracy: 0.3750, loss: 1.0895, reg_loss: 0.0000 ||:  66%|######5   | 19/29 [00:11<00:05,  1.72it/s]
accuracy: 0.3812, loss: 1.0857, reg_loss: 0.0000 ||:  69%|######8   | 20/29 [00:12<00:05,  1.70it/s]
accuracy: 0.3795, loss: 1.0857, reg_loss: 0.0000 ||:  72%|#######2  | 21/29 [00:13<00:04,  1.69it/s]
accuracy: 0.3835, loss: 1.0803, reg_loss: 0.0000 ||:  76%|#######5  | 22/29 [00:13<00:04,  1.66it/s]
accuracy: 0.3872, loss: 1.0805, reg_loss: 0.0000 ||:  79%|#######9  | 23/29 [00:14<00:03,  1.66it/s]
accuracy: 0.3945, loss: 1.0780, reg_loss: 0.0000 ||:  83%|########2 | 24/29 [00:15<00:03,  1.64it/s]
accuracy: 0.3950, loss: 1.0753, reg_loss: 0.0000 ||:  86%|########6 | 25/29 [00:15<00:02,  1.66it/s]
accuracy: 0.3942, loss: 1.0727, reg_loss: 0.0000 ||:  90%|########9 | 26/29 [00:16<00:01,  1.69it/s]
accuracy: 0.4005, loss: 1.0706, reg_loss: 0.0000 ||:  93%|#########3| 27/29 [00:16<00:01,  1.65it/s]
accuracy: 0.3996, loss: 1.0678, reg_loss: 0.0000 ||:  97%|#########6| 28/29 [00:17<00:00,  1.60it/s]
accuracy: 0.4004, loss: 1.0555, reg_loss: 0.0000 ||: 100%|##########| 29/29 [00:17<00:00,  1.70it/s]
accuracy: 0.4004, loss: 1.0555, reg_loss: 0.0000 ||: 100%|##########| 29/29 [00:17<00:00,  1.61it/s]

  0%|          | 0/7 [00:00<?, ?it/s]
accuracy: 0.4583, loss: 1.0568, reg_loss: 0.0000 ||:  86%|########5 | 6/7 [00:00<00:00, 56.67it/s]
accuracy: 0.4550, loss: 1.0528, reg_loss: 0.0000 ||: 100%|##########| 7/7 [00:00<00:00, 63.01it/s]

  0%|          | 0/29 [00:00<?, ?it/s]
accuracy: 0.5938, loss: 1.1082, reg_loss: 0.0000 ||:   3%|3         | 1/29 [00:00<00:25,  1.09it/s]
accuracy: 0.5781, loss: 1.0231, reg_loss: 0.0000 ||:   7%|6         | 2/29 [00:01<00:22,  1.20it/s]
accuracy: 0.5417, loss: 1.0834, reg_loss: 0.0000 ||:  10%|#         | 3/29 [00:02<00:20,  1.28it/s]
accuracy: 0.5078, loss: 1.0939, reg_loss: 0.0000 ||:  14%|#3        | 4/29 [00:02<00:18,  1.38it/s]
accuracy: 0.4750, loss: 1.0953, reg_loss: 0.0000 ||:  17%|#7        | 5/29 [00:03<00:16,  1.44it/s]
accuracy: 0.4375, loss: 1.1044, reg_loss: 0.0000 ||:  21%|##        | 6/29 [00:04<00:15,  1.49it/s]
accuracy: 0.4107, loss: 1.1058, reg_loss: 0.0000 ||:  24%|##4       | 7/29 [00:04<00:14,  1.52it/s]
accuracy: 0.4219, loss: 1.0893, reg_loss: 0.0000 ||:  28%|##7       | 8/29 [00:05<00:13,  1.54it/s]
accuracy: 0.4167, loss: 1.0800, reg_loss: 0.0000 ||:  31%|###1      | 9/29 [00:05<00:12,  1.58it/s]
accuracy: 0.4250, loss: 1.0695, reg_loss: 0.0000 ||:  34%|###4      | 10/29 [00:06<00:12,  1.56it/s]
accuracy: 0.4261, loss: 1.0647, reg_loss: 0.0000 ||:  38%|###7      | 11/29 [00:07<00:11,  1.59it/s]
accuracy: 0.4167, loss: 1.0615, reg_loss: 0.0000 ||:  41%|####1     | 12/29 [00:07<00:10,  1.59it/s]
accuracy: 0.4183, loss: 1.0573, reg_loss: 0.0000 ||:  45%|####4     | 13/29 [00:08<00:09,  1.61it/s]
accuracy: 0.4174, loss: 1.0601, reg_loss: 0.0000 ||:  48%|####8     | 14/29 [00:08<00:09,  1.63it/s]
accuracy: 0.4167, loss: 1.0577, reg_loss: 0.0000 ||:  52%|#####1    | 15/29 [00:09<00:08,  1.65it/s]
accuracy: 0.4355, loss: 1.0509, reg_loss: 0.0000 ||:  55%|#####5    | 16/29 [00:10<00:07,  1.66it/s]
accuracy: 0.4320, loss: 1.0486, reg_loss: 0.0000 ||:  59%|#####8    | 17/29 [00:10<00:07,  1.69it/s]
accuracy: 0.4358, loss: 1.0416, reg_loss: 0.0000 ||:  62%|######2   | 18/29 [00:11<00:06,  1.72it/s]
accuracy: 0.4359, loss: 1.0380, reg_loss: 0.0000 ||:  66%|######5   | 19/29 [00:11<00:05,  1.72it/s]
accuracy: 0.4359, loss: 1.0340, reg_loss: 0.0000 ||:  69%|######8   | 20/29 [00:12<00:05,  1.69it/s]
accuracy: 0.4420, loss: 1.0305, reg_loss: 0.0000 ||:  72%|#######2  | 21/29 [00:13<00:04,  1.68it/s]
accuracy: 0.4432, loss: 1.0268, reg_loss: 0.0000 ||:  76%|#######5  | 22/29 [00:13<00:04,  1.66it/s]
accuracy: 0.4389, loss: 1.0272, reg_loss: 0.0000 ||:  79%|#######9  | 23/29 [00:14<00:03,  1.66it/s]
accuracy: 0.4349, loss: 1.0247, reg_loss: 0.0000 ||:  83%|########2 | 24/29 [00:14<00:03,  1.65it/s]
accuracy: 0.4350, loss: 1.0231, reg_loss: 0.0000 ||:  86%|########6 | 25/29 [00:15<00:02,  1.67it/s]
accuracy: 0.4387, loss: 1.0184, reg_loss: 0.0000 ||:  90%|########9 | 26/29 [00:16<00:01,  1.67it/s]
accuracy: 0.4387, loss: 1.0164, reg_loss: 0.0000 ||:  93%|#########3| 27/29 [00:16<00:01,  1.64it/s]
accuracy: 0.4475, loss: 1.0121, reg_loss: 0.0000 ||:  97%|#########6| 28/29 [00:17<00:00,  1.62it/s]
accuracy: 0.4483, loss: 1.0010, reg_loss: 0.0000 ||: 100%|##########| 29/29 [00:17<00:00,  1.71it/s]
accuracy: 0.4483, loss: 1.0010, reg_loss: 0.0000 ||: 100%|##########| 29/29 [00:17<00:00,  1.62it/s]

  0%|          | 0/7 [00:00<?, ?it/s]
accuracy: 0.4479, loss: 1.0457, reg_loss: 0.0000 ||:  86%|########5 | 6/7 [00:00<00:00, 56.07it/s]
accuracy: 0.4450, loss: 1.0400, reg_loss: 0.0000 ||: 100%|##########| 7/7 [00:00<00:00, 62.25it/s]

  0%|          | 0/29 [00:00<?, ?it/s]
accuracy: 0.4375, loss: 1.0254, reg_loss: 0.0000 ||:   3%|3         | 1/29 [00:00<00:25,  1.09it/s]
accuracy: 0.4219, loss: 0.9976, reg_loss: 0.0000 ||:   7%|6         | 2/29 [00:01<00:22,  1.18it/s]
accuracy: 0.4062, loss: 0.9918, reg_loss: 0.0000 ||:  10%|#         | 3/29 [00:02<00:20,  1.26it/s]
accuracy: 0.3828, loss: 1.0092, reg_loss: 0.0000 ||:  14%|#3        | 4/29 [00:02<00:18,  1.36it/s]
accuracy: 0.3812, loss: 1.0087, reg_loss: 0.0000 ||:  17%|#7        | 5/29 [00:03<00:16,  1.42it/s]
accuracy: 0.3958, loss: 1.0135, reg_loss: 0.0000 ||:  21%|##        | 6/29 [00:04<00:15,  1.47it/s]
accuracy: 0.4018, loss: 1.0145, reg_loss: 0.0000 ||:  24%|##4       | 7/29 [00:04<00:14,  1.51it/s]
accuracy: 0.4219, loss: 0.9930, reg_loss: 0.0000 ||:  28%|##7       | 8/29 [00:05<00:13,  1.53it/s]
accuracy: 0.4236, loss: 0.9945, reg_loss: 0.0000 ||:  31%|###1      | 9/29 [00:06<00:13,  1.54it/s]
accuracy: 0.4344, loss: 0.9835, reg_loss: 0.0000 ||:  34%|###4      | 10/29 [00:06<00:12,  1.52it/s]
accuracy: 0.4432, loss: 0.9844, reg_loss: 0.0000 ||:  38%|###7      | 11/29 [00:07<00:11,  1.56it/s]
accuracy: 0.4557, loss: 0.9796, reg_loss: 0.0000 ||:  41%|####1     | 12/29 [00:07<00:10,  1.57it/s]
accuracy: 0.4567, loss: 0.9770, reg_loss: 0.0000 ||:  45%|####4     | 13/29 [00:08<00:10,  1.49it/s]
accuracy: 0.4732, loss: 0.9691, reg_loss: 0.0000 ||:  48%|####8     | 14/29 [00:09<00:09,  1.53it/s]
accuracy: 0.4688, loss: 0.9671, reg_loss: 0.0000 ||:  52%|#####1    | 15/29 [00:09<00:08,  1.57it/s]
accuracy: 0.4688, loss: 0.9645, reg_loss: 0.0000 ||:  55%|#####5    | 16/29 [00:10<00:08,  1.60it/s]
accuracy: 0.4743, loss: 0.9573, reg_loss: 0.0000 ||:  59%|#####8    | 17/29 [00:11<00:07,  1.64it/s]
accuracy: 0.4792, loss: 0.9513, reg_loss: 0.0000 ||:  62%|######2   | 18/29 [00:11<00:06,  1.66it/s]
accuracy: 0.4885, loss: 0.9490, reg_loss: 0.0000 ||:  66%|######5   | 19/29 [00:12<00:06,  1.66it/s]
accuracy: 0.4922, loss: 0.9443, reg_loss: 0.0000 ||:  69%|######8   | 20/29 [00:12<00:05,  1.64it/s]
accuracy: 0.4940, loss: 0.9442, reg_loss: 0.0000 ||:  72%|#######2  | 21/29 [00:13<00:04,  1.64it/s]
accuracy: 0.4986, loss: 0.9372, reg_loss: 0.0000 ||:  76%|#######5  | 22/29 [00:14<00:04,  1.63it/s]
accuracy: 0.5027, loss: 0.9365, reg_loss: 0.0000 ||:  79%|#######9  | 23/29 [00:14<00:03,  1.64it/s]
accuracy: 0.5039, loss: 0.9350, reg_loss: 0.0000 ||:  83%|########2 | 24/29 [00:15<00:03,  1.61it/s]
accuracy: 0.5038, loss: 0.9329, reg_loss: 0.0000 ||:  86%|########6 | 25/29 [00:15<00:02,  1.63it/s]
accuracy: 0.5072, loss: 0.9275, reg_loss: 0.0000 ||:  90%|########9 | 26/29 [00:16<00:01,  1.65it/s]
accuracy: 0.5069, loss: 0.9252, reg_loss: 0.0000 ||:  93%|#########3| 27/29 [00:17<00:01,  1.63it/s]
accuracy: 0.5112, loss: 0.9180, reg_loss: 0.0000 ||:  97%|#########6| 28/29 [00:17<00:00,  1.60it/s]
accuracy: 0.5128, loss: 0.9074, reg_loss: 0.0000 ||: 100%|##########| 29/29 [00:18<00:00,  1.69it/s]
accuracy: 0.5128, loss: 0.9074, reg_loss: 0.0000 ||: 100%|##########| 29/29 [00:18<00:00,  1.58it/s]

  0%|          | 0/7 [00:00<?, ?it/s]
accuracy: 0.4688, loss: 1.0457, reg_loss: 0.0000 ||:  86%|########5 | 6/7 [00:00<00:00, 50.34it/s]
accuracy: 0.4700, loss: 1.0293, reg_loss: 0.0000 ||: 100%|##########| 7/7 [00:00<00:00, 56.03it/s]

  0%|          | 0/29 [00:00<?, ?it/s]
accuracy: 0.5938, loss: 0.9215, reg_loss: 0.0000 ||:   3%|3         | 1/29 [00:00<00:25,  1.08it/s]
accuracy: 0.5156, loss: 0.8812, reg_loss: 0.0000 ||:   7%|6         | 2/29 [00:01<00:22,  1.18it/s]
accuracy: 0.5417, loss: 0.8829, reg_loss: 0.0000 ||:  10%|#         | 3/29 [00:02<00:20,  1.26it/s]
accuracy: 0.5469, loss: 0.8690, reg_loss: 0.0000 ||:  14%|#3        | 4/29 [00:02<00:18,  1.34it/s]
accuracy: 0.5500, loss: 0.8769, reg_loss: 0.0000 ||:  17%|#7        | 5/29 [00:03<00:17,  1.39it/s]
accuracy: 0.5573, loss: 0.8759, reg_loss: 0.0000 ||:  21%|##        | 6/29 [00:04<00:16,  1.43it/s]
accuracy: 0.5312, loss: 0.8862, reg_loss: 0.0000 ||:  24%|##4       | 7/29 [00:04<00:14,  1.48it/s]
accuracy: 0.5547, loss: 0.8659, reg_loss: 0.0000 ||:  28%|##7       | 8/29 [00:05<00:13,  1.51it/s]
accuracy: 0.5729, loss: 0.8587, reg_loss: 0.0000 ||:  31%|###1      | 9/29 [00:06<00:13,  1.53it/s]
accuracy: 0.5844, loss: 0.8494, reg_loss: 0.0000 ||:  34%|###4      | 10/29 [00:06<00:12,  1.53it/s]
accuracy: 0.5824, loss: 0.8540, reg_loss: 0.0000 ||:  38%|###7      | 11/29 [00:07<00:11,  1.56it/s]
accuracy: 0.5964, loss: 0.8542, reg_loss: 0.0000 ||:  41%|####1     | 12/29 [00:07<00:10,  1.57it/s]
accuracy: 0.6010, loss: 0.8503, reg_loss: 0.0000 ||:  45%|####4     | 13/29 [00:08<00:10,  1.59it/s]
accuracy: 0.6027, loss: 0.8448, reg_loss: 0.0000 ||:  48%|####8     | 14/29 [00:09<00:09,  1.60it/s]
accuracy: 0.6062, loss: 0.8397, reg_loss: 0.0000 ||:  52%|#####1    | 15/29 [00:09<00:08,  1.63it/s]
accuracy: 0.6113, loss: 0.8305, reg_loss: 0.0000 ||:  55%|#####5    | 16/29 [00:10<00:08,  1.62it/s]
accuracy: 0.6158, loss: 0.8193, reg_loss: 0.0000 ||:  59%|#####8    | 17/29 [00:10<00:07,  1.66it/s]
accuracy: 0.6233, loss: 0.8107, reg_loss: 0.0000 ||:  62%|######2   | 18/29 [00:11<00:06,  1.69it/s]
accuracy: 0.6283, loss: 0.8042, reg_loss: 0.0000 ||:  66%|######5   | 19/29 [00:12<00:05,  1.67it/s]
accuracy: 0.6375, loss: 0.7971, reg_loss: 0.0000 ||:  69%|######8   | 20/29 [00:12<00:05,  1.66it/s]
accuracy: 0.6429, loss: 0.7888, reg_loss: 0.0000 ||:  72%|#######2  | 21/29 [00:13<00:04,  1.64it/s]
accuracy: 0.6491, loss: 0.7837, reg_loss: 0.0000 ||:  76%|#######5  | 22/29 [00:14<00:04,  1.64it/s]
accuracy: 0.6495, loss: 0.7811, reg_loss: 0.0000 ||:  79%|#######9  | 23/29 [00:14<00:03,  1.63it/s]
accuracy: 0.6523, loss: 0.7771, reg_loss: 0.0000 ||:  83%|########2 | 24/29 [00:15<00:03,  1.62it/s]
accuracy: 0.6538, loss: 0.7744, reg_loss: 0.0000 ||:  86%|########6 | 25/29 [00:15<00:02,  1.64it/s]
accuracy: 0.6623, loss: 0.7651, reg_loss: 0.0000 ||:  90%|########9 | 26/29 [00:16<00:01,  1.63it/s]
accuracy: 0.6620, loss: 0.7640, reg_loss: 0.0000 ||:  93%|#########3| 27/29 [00:17<00:01,  1.62it/s]
accuracy: 0.6696, loss: 0.7558, reg_loss: 0.0000 ||:  97%|#########6| 28/29 [00:17<00:00,  1.60it/s]
accuracy: 0.6707, loss: 0.7432, reg_loss: 0.0000 ||: 100%|##########| 29/29 [00:18<00:00,  1.69it/s]
accuracy: 0.6707, loss: 0.7432, reg_loss: 0.0000 ||: 100%|##########| 29/29 [00:18<00:00,  1.59it/s]

  0%|          | 0/7 [00:00<?, ?it/s]
accuracy: 0.5156, loss: 1.0750, reg_loss: 0.0000 ||:  86%|########5 | 6/7 [00:00<00:00, 53.80it/s]
accuracy: 0.5150, loss: 1.0530, reg_loss: 0.0000 ||: 100%|##########| 7/7 [00:00<00:00, 59.84it/s]

  0%|          | 0/29 [00:00<?, ?it/s]
accuracy: 0.8125, loss: 0.6480, reg_loss: 0.0000 ||:   3%|3         | 1/29 [00:00<00:25,  1.12it/s]
accuracy: 0.7656, loss: 0.7413, reg_loss: 0.0000 ||:   7%|6         | 2/29 [00:01<00:22,  1.21it/s]
accuracy: 0.7604, loss: 0.7122, reg_loss: 0.0000 ||:  10%|#         | 3/29 [00:02<00:20,  1.30it/s]
accuracy: 0.7500, loss: 0.7014, reg_loss: 0.0000 ||:  14%|#3        | 4/29 [00:02<00:18,  1.38it/s]
accuracy: 0.7562, loss: 0.6877, reg_loss: 0.0000 ||:  17%|#7        | 5/29 [00:03<00:16,  1.42it/s]
accuracy: 0.7448, loss: 0.6914, reg_loss: 0.0000 ||:  21%|##        | 6/29 [00:04<00:15,  1.47it/s]
accuracy: 0.7366, loss: 0.6892, reg_loss: 0.0000 ||:  24%|##4       | 7/29 [00:04<00:14,  1.50it/s]
accuracy: 0.7461, loss: 0.6709, reg_loss: 0.0000 ||:  28%|##7       | 8/29 [00:05<00:13,  1.51it/s]
accuracy: 0.7500, loss: 0.6618, reg_loss: 0.0000 ||:  31%|###1      | 9/29 [00:06<00:13,  1.49it/s]
accuracy: 0.7625, loss: 0.6509, reg_loss: 0.0000 ||:  34%|###4      | 10/29 [00:06<00:13,  1.46it/s]
accuracy: 0.7500, loss: 0.6691, reg_loss: 0.0000 ||:  38%|###7      | 11/29 [00:07<00:11,  1.51it/s]
accuracy: 0.7500, loss: 0.6667, reg_loss: 0.0000 ||:  41%|####1     | 12/29 [00:08<00:11,  1.52it/s]
accuracy: 0.7572, loss: 0.6626, reg_loss: 0.0000 ||:  45%|####4     | 13/29 [00:08<00:10,  1.55it/s]
accuracy: 0.7567, loss: 0.6564, reg_loss: 0.0000 ||:  48%|####8     | 14/29 [00:09<00:09,  1.58it/s]
accuracy: 0.7646, loss: 0.6459, reg_loss: 0.0000 ||:  52%|#####1    | 15/29 [00:09<00:08,  1.61it/s]
accuracy: 0.7734, loss: 0.6333, reg_loss: 0.0000 ||:  55%|#####5    | 16/29 [00:10<00:08,  1.62it/s]
accuracy: 0.7794, loss: 0.6229, reg_loss: 0.0000 ||:  59%|#####8    | 17/29 [00:11<00:07,  1.67it/s]
accuracy: 0.7812, loss: 0.6173, reg_loss: 0.0000 ||:  62%|######2   | 18/29 [00:11<00:06,  1.70it/s]
accuracy: 0.7829, loss: 0.6107, reg_loss: 0.0000 ||:  66%|######5   | 19/29 [00:12<00:05,  1.69it/s]
accuracy: 0.7875, loss: 0.5961, reg_loss: 0.0000 ||:  69%|######8   | 20/29 [00:12<00:05,  1.67it/s]
accuracy: 0.7917, loss: 0.5866, reg_loss: 0.0000 ||:  72%|#######2  | 21/29 [00:13<00:04,  1.66it/s]
accuracy: 0.7969, loss: 0.5772, reg_loss: 0.0000 ||:  76%|#######5  | 22/29 [00:14<00:04,  1.65it/s]
accuracy: 0.7989, loss: 0.5739, reg_loss: 0.0000 ||:  79%|#######9  | 23/29 [00:14<00:03,  1.64it/s]
accuracy: 0.8008, loss: 0.5704, reg_loss: 0.0000 ||:  83%|########2 | 24/29 [00:15<00:03,  1.63it/s]
accuracy: 0.8000, loss: 0.5659, reg_loss: 0.0000 ||:  86%|########6 | 25/29 [00:15<00:02,  1.65it/s]
accuracy: 0.8053, loss: 0.5570, reg_loss: 0.0000 ||:  90%|########9 | 26/29 [00:16<00:01,  1.66it/s]
accuracy: 0.8032, loss: 0.5544, reg_loss: 0.0000 ||:  93%|#########3| 27/29 [00:17<00:01,  1.63it/s]
accuracy: 0.8069, loss: 0.5456, reg_loss: 0.0000 ||:  97%|#########6| 28/29 [00:17<00:00,  1.60it/s]
accuracy: 0.8076, loss: 0.5346, reg_loss: 0.0000 ||: 100%|##########| 29/29 [00:18<00:00,  1.68it/s]
accuracy: 0.8076, loss: 0.5346, reg_loss: 0.0000 ||: 100%|##########| 29/29 [00:18<00:00,  1.59it/s]

  0%|          | 0/7 [00:00<?, ?it/s]
accuracy: 0.4740, loss: 1.1406, reg_loss: 0.0000 ||:  86%|########5 | 6/7 [00:00<00:00, 56.22it/s]
accuracy: 0.4800, loss: 1.0998, reg_loss: 0.0000 ||: 100%|##########| 7/7 [00:00<00:00, 62.47it/s]

  0%|          | 0/29 [00:00<?, ?it/s]
accuracy: 0.8438, loss: 0.4253, reg_loss: 0.0000 ||:   3%|3         | 1/29 [00:00<00:24,  1.12it/s]
accuracy: 0.8750, loss: 0.4120, reg_loss: 0.0000 ||:   7%|6         | 2/29 [00:01<00:22,  1.22it/s]
accuracy: 0.8646, loss: 0.4321, reg_loss: 0.0000 ||:  10%|#         | 3/29 [00:02<00:20,  1.30it/s]
accuracy: 0.8672, loss: 0.4475, reg_loss: 0.0000 ||:  14%|#3        | 4/29 [00:02<00:18,  1.39it/s]
accuracy: 0.8750, loss: 0.4325, reg_loss: 0.0000 ||:  17%|#7        | 5/29 [00:03<00:16,  1.44it/s]
accuracy: 0.8594, loss: 0.4471, reg_loss: 0.0000 ||:  21%|##        | 6/29 [00:04<00:15,  1.47it/s]
accuracy: 0.8661, loss: 0.4487, reg_loss: 0.0000 ||:  24%|##4       | 7/29 [00:04<00:14,  1.50it/s]
accuracy: 0.8711, loss: 0.4321, reg_loss: 0.0000 ||:  28%|##7       | 8/29 [00:05<00:13,  1.53it/s]
accuracy: 0.8681, loss: 0.4297, reg_loss: 0.0000 ||:  31%|###1      | 9/29 [00:05<00:12,  1.54it/s]
accuracy: 0.8781, loss: 0.4174, reg_loss: 0.0000 ||:  34%|###4      | 10/29 [00:06<00:12,  1.51it/s]
accuracy: 0.8693, loss: 0.4235, reg_loss: 0.0000 ||:  38%|###7      | 11/29 [00:07<00:11,  1.55it/s]
accuracy: 0.8698, loss: 0.4202, reg_loss: 0.0000 ||:  41%|####1     | 12/29 [00:07<00:10,  1.57it/s]
accuracy: 0.8726, loss: 0.4202, reg_loss: 0.0000 ||:  45%|####4     | 13/29 [00:08<00:10,  1.59it/s]
accuracy: 0.8817, loss: 0.4100, reg_loss: 0.0000 ||:  48%|####8     | 14/29 [00:09<00:09,  1.60it/s]
accuracy: 0.8792, loss: 0.4089, reg_loss: 0.0000 ||:  52%|#####1    | 15/29 [00:09<00:08,  1.63it/s]
accuracy: 0.8828, loss: 0.4000, reg_loss: 0.0000 ||:  55%|#####5    | 16/29 [00:10<00:07,  1.63it/s]
accuracy: 0.8860, loss: 0.3906, reg_loss: 0.0000 ||:  59%|#####8    | 17/29 [00:10<00:07,  1.66it/s]
accuracy: 0.8854, loss: 0.3859, reg_loss: 0.0000 ||:  62%|######2   | 18/29 [00:11<00:06,  1.69it/s]
accuracy: 0.8865, loss: 0.3835, reg_loss: 0.0000 ||:  66%|######5   | 19/29 [00:12<00:05,  1.68it/s]
accuracy: 0.8922, loss: 0.3769, reg_loss: 0.0000 ||:  69%|######8   | 20/29 [00:12<00:05,  1.66it/s]
accuracy: 0.8973, loss: 0.3673, reg_loss: 0.0000 ||:  72%|#######2  | 21/29 [00:13<00:04,  1.64it/s]
accuracy: 0.8991, loss: 0.3625, reg_loss: 0.0000 ||:  76%|#######5  | 22/29 [00:13<00:04,  1.64it/s]
accuracy: 0.9008, loss: 0.3586, reg_loss: 0.0000 ||:  79%|#######9  | 23/29 [00:14<00:03,  1.65it/s]
accuracy: 0.9023, loss: 0.3584, reg_loss: 0.0000 ||:  83%|########2 | 24/29 [00:15<00:03,  1.63it/s]
accuracy: 0.9012, loss: 0.3578, reg_loss: 0.0000 ||:  86%|########6 | 25/29 [00:15<00:02,  1.66it/s]
accuracy: 0.9038, loss: 0.3509, reg_loss: 0.0000 ||:  90%|########9 | 26/29 [00:16<00:01,  1.55it/s]
accuracy: 0.9051, loss: 0.3493, reg_loss: 0.0000 ||:  93%|#########3| 27/29 [00:17<00:01,  1.56it/s]
accuracy: 0.9085, loss: 0.3416, reg_loss: 0.0000 ||:  97%|#########6| 28/29 [00:17<00:00,  1.55it/s]
accuracy: 0.9088, loss: 0.3353, reg_loss: 0.0000 ||: 100%|##########| 29/29 [00:18<00:00,  1.65it/s]
accuracy: 0.9088, loss: 0.3353, reg_loss: 0.0000 ||: 100%|##########| 29/29 [00:18<00:00,  1.59it/s]

  0%|          | 0/7 [00:00<?, ?it/s]
accuracy: 0.4583, loss: 1.3218, reg_loss: 0.0000 ||:  86%|########5 | 6/7 [00:00<00:00, 53.15it/s]
accuracy: 0.4650, loss: 1.2487, reg_loss: 0.0000 ||: 100%|##########| 7/7 [00:00<00:00, 59.01it/s]

  0%|          | 0/29 [00:00<?, ?it/s]
accuracy: 0.9062, loss: 0.2571, reg_loss: 0.0000 ||:   3%|3         | 1/29 [00:00<00:26,  1.06it/s]
accuracy: 0.9219, loss: 0.2408, reg_loss: 0.0000 ||:   7%|6         | 2/29 [00:01<00:23,  1.17it/s]
accuracy: 0.9375, loss: 0.2366, reg_loss: 0.0000 ||:  10%|#         | 3/29 [00:02<00:20,  1.26it/s]
accuracy: 0.9531, loss: 0.2261, reg_loss: 0.0000 ||:  14%|#3        | 4/29 [00:02<00:18,  1.36it/s]
accuracy: 0.9437, loss: 0.2329, reg_loss: 0.0000 ||:  17%|#7        | 5/29 [00:03<00:16,  1.43it/s]
accuracy: 0.9427, loss: 0.2364, reg_loss: 0.0000 ||:  21%|##        | 6/29 [00:04<00:15,  1.49it/s]
accuracy: 0.9464, loss: 0.2354, reg_loss: 0.0000 ||:  24%|##4       | 7/29 [00:04<00:14,  1.52it/s]
accuracy: 0.9453, loss: 0.2277, reg_loss: 0.0000 ||:  28%|##7       | 8/29 [00:05<00:13,  1.54it/s]
accuracy: 0.9410, loss: 0.2389, reg_loss: 0.0000 ||:  31%|###1      | 9/29 [00:05<00:12,  1.56it/s]
accuracy: 0.9406, loss: 0.2385, reg_loss: 0.0000 ||:  34%|###4      | 10/29 [00:06<00:12,  1.54it/s]
accuracy: 0.9347, loss: 0.2492, reg_loss: 0.0000 ||:  38%|###7      | 11/29 [00:07<00:11,  1.57it/s]
accuracy: 0.9297, loss: 0.2511, reg_loss: 0.0000 ||:  41%|####1     | 12/29 [00:07<00:10,  1.56it/s]
accuracy: 0.9279, loss: 0.2521, reg_loss: 0.0000 ||:  45%|####4     | 13/29 [00:08<00:10,  1.58it/s]
accuracy: 0.9308, loss: 0.2493, reg_loss: 0.0000 ||:  48%|####8     | 14/29 [00:09<00:09,  1.60it/s]
accuracy: 0.9313, loss: 0.2461, reg_loss: 0.0000 ||:  52%|#####1    | 15/29 [00:09<00:08,  1.62it/s]
accuracy: 0.9336, loss: 0.2407, reg_loss: 0.0000 ||:  55%|#####5    | 16/29 [00:10<00:08,  1.62it/s]
accuracy: 0.9357, loss: 0.2358, reg_loss: 0.0000 ||:  59%|#####8    | 17/29 [00:10<00:07,  1.66it/s]
accuracy: 0.9358, loss: 0.2314, reg_loss: 0.0000 ||:  62%|######2   | 18/29 [00:11<00:06,  1.69it/s]
accuracy: 0.9342, loss: 0.2382, reg_loss: 0.0000 ||:  66%|######5   | 19/29 [00:12<00:05,  1.68it/s]
accuracy: 0.9375, loss: 0.2303, reg_loss: 0.0000 ||:  69%|######8   | 20/29 [00:12<00:05,  1.66it/s]
accuracy: 0.9390, loss: 0.2252, reg_loss: 0.0000 ||:  72%|#######2  | 21/29 [00:13<00:04,  1.65it/s]
accuracy: 0.9403, loss: 0.2220, reg_loss: 0.0000 ||:  76%|#######5  | 22/29 [00:13<00:04,  1.62it/s]
accuracy: 0.9416, loss: 0.2194, reg_loss: 0.0000 ||:  79%|#######9  | 23/29 [00:14<00:03,  1.63it/s]
accuracy: 0.9414, loss: 0.2191, reg_loss: 0.0000 ||:  83%|########2 | 24/29 [00:15<00:03,  1.62it/s]
accuracy: 0.9387, loss: 0.2244, reg_loss: 0.0000 ||:  86%|########6 | 25/29 [00:15<00:02,  1.64it/s]
accuracy: 0.9411, loss: 0.2193, reg_loss: 0.0000 ||:  90%|########9 | 26/29 [00:16<00:01,  1.66it/s]
accuracy: 0.9410, loss: 0.2189, reg_loss: 0.0000 ||:  93%|#########3| 27/29 [00:16<00:01,  1.64it/s]
accuracy: 0.9420, loss: 0.2136, reg_loss: 0.0000 ||:  97%|#########6| 28/29 [00:17<00:00,  1.62it/s]
accuracy: 0.9422, loss: 0.2070, reg_loss: 0.0000 ||: 100%|##########| 29/29 [00:18<00:00,  1.69it/s]
accuracy: 0.9422, loss: 0.2070, reg_loss: 0.0000 ||: 100%|##########| 29/29 [00:18<00:00,  1.60it/s]

  0%|          | 0/7 [00:00<?, ?it/s]
accuracy: 0.4375, loss: 1.5663, reg_loss: 0.0000 ||:  86%|########5 | 6/7 [00:00<00:00, 55.26it/s]
accuracy: 0.4400, loss: 1.4756, reg_loss: 0.0000 ||: 100%|##########| 7/7 [00:00<00:00, 61.45it/s]

  0%|          | 0/29 [00:00<?, ?it/s]
accuracy: 1.0000, loss: 0.1030, reg_loss: 0.0000 ||:   3%|3         | 1/29 [00:00<00:24,  1.13it/s]
accuracy: 1.0000, loss: 0.1026, reg_loss: 0.0000 ||:   7%|6         | 2/29 [00:01<00:22,  1.22it/s]
accuracy: 1.0000, loss: 0.1118, reg_loss: 0.0000 ||:  10%|#         | 3/29 [00:02<00:19,  1.30it/s]
accuracy: 0.9766, loss: 0.1223, reg_loss: 0.0000 ||:  14%|#3        | 4/29 [00:02<00:18,  1.39it/s]
accuracy: 0.9750, loss: 0.1380, reg_loss: 0.0000 ||:  17%|#7        | 5/29 [00:03<00:16,  1.44it/s]
accuracy: 0.9792, loss: 0.1344, reg_loss: 0.0000 ||:  21%|##        | 6/29 [00:04<00:15,  1.49it/s]
accuracy: 0.9777, loss: 0.1308, reg_loss: 0.0000 ||:  24%|##4       | 7/29 [00:04<00:14,  1.52it/s]
accuracy: 0.9766, loss: 0.1259, reg_loss: 0.0000 ||:  28%|##7       | 8/29 [00:05<00:13,  1.54it/s]
accuracy: 0.9688, loss: 0.1324, reg_loss: 0.0000 ||:  31%|###1      | 9/29 [00:05<00:12,  1.56it/s]
accuracy: 0.9625, loss: 0.1389, reg_loss: 0.0000 ||:  34%|###4      | 10/29 [00:06<00:12,  1.54it/s]
accuracy: 0.9545, loss: 0.1462, reg_loss: 0.0000 ||:  38%|###7      | 11/29 [00:07<00:11,  1.56it/s]
accuracy: 0.9531, loss: 0.1480, reg_loss: 0.0000 ||:  41%|####1     | 12/29 [00:07<00:10,  1.57it/s]
accuracy: 0.9519, loss: 0.1531, reg_loss: 0.0000 ||:  45%|####4     | 13/29 [00:08<00:10,  1.58it/s]
accuracy: 0.9554, loss: 0.1496, reg_loss: 0.0000 ||:  48%|####8     | 14/29 [00:09<00:09,  1.60it/s]
accuracy: 0.9563, loss: 0.1451, reg_loss: 0.0000 ||:  52%|#####1    | 15/29 [00:09<00:08,  1.63it/s]
accuracy: 0.9590, loss: 0.1392, reg_loss: 0.0000 ||:  55%|#####5    | 16/29 [00:10<00:08,  1.61it/s]
accuracy: 0.9596, loss: 0.1367, reg_loss: 0.0000 ||:  59%|#####8    | 17/29 [00:10<00:07,  1.65it/s]
accuracy: 0.9601, loss: 0.1363, reg_loss: 0.0000 ||:  62%|######2   | 18/29 [00:11<00:06,  1.67it/s]
accuracy: 0.9589, loss: 0.1381, reg_loss: 0.0000 ||:  66%|######5   | 19/29 [00:12<00:06,  1.66it/s]
accuracy: 0.9609, loss: 0.1329, reg_loss: 0.0000 ||:  69%|######8   | 20/29 [00:12<00:05,  1.65it/s]
accuracy: 0.9628, loss: 0.1289, reg_loss: 0.0000 ||:  72%|#######2  | 21/29 [00:13<00:04,  1.64it/s]
accuracy: 0.9631, loss: 0.1274, reg_loss: 0.0000 ||:  76%|#######5  | 22/29 [00:13<00:04,  1.63it/s]
accuracy: 0.9647, loss: 0.1233, reg_loss: 0.0000 ||:  79%|#######9  | 23/29 [00:14<00:03,  1.65it/s]
accuracy: 0.9661, loss: 0.1202, reg_loss: 0.0000 ||:  83%|########2 | 24/29 [00:15<00:03,  1.64it/s]
accuracy: 0.9663, loss: 0.1207, reg_loss: 0.0000 ||:  86%|########6 | 25/29 [00:15<00:02,  1.66it/s]
accuracy: 0.9675, loss: 0.1179, reg_loss: 0.0000 ||:  90%|########9 | 26/29 [00:16<00:01,  1.66it/s]
accuracy: 0.9676, loss: 0.1174, reg_loss: 0.0000 ||:  93%|#########3| 27/29 [00:16<00:01,  1.64it/s]
accuracy: 0.9688, loss: 0.1140, reg_loss: 0.0000 ||:  97%|#########6| 28/29 [00:17<00:00,  1.62it/s]
accuracy: 0.9689, loss: 0.1103, reg_loss: 0.0000 ||: 100%|##########| 29/29 [00:18<00:00,  1.70it/s]
accuracy: 0.9689, loss: 0.1103, reg_loss: 0.0000 ||: 100%|##########| 29/29 [00:18<00:00,  1.60it/s]

  0%|          | 0/7 [00:00<?, ?it/s]
accuracy: 0.4583, loss: 1.7447, reg_loss: 0.0000 ||:  86%|########5 | 6/7 [00:00<00:00, 55.94it/s]
accuracy: 0.4600, loss: 1.6256, reg_loss: 0.0000 ||: 100%|##########| 7/7 [00:00<00:00, 62.16it/s]

  0%|          | 0/29 [00:00<?, ?it/s]
accuracy: 1.0000, loss: 0.0561, reg_loss: 0.0000 ||:   3%|3         | 1/29 [00:00<00:25,  1.11it/s]
accuracy: 1.0000, loss: 0.0611, reg_loss: 0.0000 ||:   7%|6         | 2/29 [00:01<00:22,  1.22it/s]
accuracy: 1.0000, loss: 0.0634, reg_loss: 0.0000 ||:  10%|#         | 3/29 [00:02<00:20,  1.30it/s]
accuracy: 1.0000, loss: 0.0619, reg_loss: 0.0000 ||:  14%|#3        | 4/29 [00:02<00:18,  1.39it/s]
accuracy: 0.9938, loss: 0.0751, reg_loss: 0.0000 ||:  17%|#7        | 5/29 [00:03<00:16,  1.44it/s]
accuracy: 0.9896, loss: 0.0772, reg_loss: 0.0000 ||:  21%|##        | 6/29 [00:04<00:15,  1.46it/s]
accuracy: 0.9821, loss: 0.0871, reg_loss: 0.0000 ||:  24%|##4       | 7/29 [00:04<00:14,  1.50it/s]
accuracy: 0.9844, loss: 0.0824, reg_loss: 0.0000 ||:  28%|##7       | 8/29 [00:05<00:13,  1.52it/s]
accuracy: 0.9826, loss: 0.0849, reg_loss: 0.0000 ||:  31%|###1      | 9/29 [00:05<00:12,  1.54it/s]
accuracy: 0.9781, loss: 0.0964, reg_loss: 0.0000 ||:  34%|###4      | 10/29 [00:06<00:12,  1.52it/s]
accuracy: 0.9744, loss: 0.1005, reg_loss: 0.0000 ||:  38%|###7      | 11/29 [00:07<00:11,  1.56it/s]
accuracy: 0.9714, loss: 0.1018, reg_loss: 0.0000 ||:  41%|####1     | 12/29 [00:07<00:10,  1.57it/s]
accuracy: 0.9688, loss: 0.1035, reg_loss: 0.0000 ||:  45%|####4     | 13/29 [00:08<00:10,  1.59it/s]
accuracy: 0.9710, loss: 0.1019, reg_loss: 0.0000 ||:  48%|####8     | 14/29 [00:09<00:09,  1.59it/s]
accuracy: 0.9708, loss: 0.0999, reg_loss: 0.0000 ||:  52%|#####1    | 15/29 [00:09<00:08,  1.62it/s]
accuracy: 0.9727, loss: 0.0952, reg_loss: 0.0000 ||:  55%|#####5    | 16/29 [00:10<00:08,  1.62it/s]
accuracy: 0.9724, loss: 0.0939, reg_loss: 0.0000 ||:  59%|#####8    | 17/29 [00:10<00:07,  1.66it/s]
accuracy: 0.9722, loss: 0.0926, reg_loss: 0.0000 ||:  62%|######2   | 18/29 [00:11<00:06,  1.68it/s]
accuracy: 0.9737, loss: 0.0914, reg_loss: 0.0000 ||:  66%|######5   | 19/29 [00:12<00:05,  1.67it/s]
accuracy: 0.9750, loss: 0.0887, reg_loss: 0.0000 ||:  69%|######8   | 20/29 [00:12<00:05,  1.66it/s]
accuracy: 0.9747, loss: 0.0875, reg_loss: 0.0000 ||:  72%|#######2  | 21/29 [00:13<00:04,  1.64it/s]
accuracy: 0.9744, loss: 0.0861, reg_loss: 0.0000 ||:  76%|#######5  | 22/29 [00:13<00:04,  1.64it/s]
accuracy: 0.9742, loss: 0.0854, reg_loss: 0.0000 ||:  79%|#######9  | 23/29 [00:14<00:03,  1.64it/s]
accuracy: 0.9753, loss: 0.0840, reg_loss: 0.0000 ||:  83%|########2 | 24/29 [00:15<00:03,  1.62it/s]
accuracy: 0.9762, loss: 0.0822, reg_loss: 0.0000 ||:  86%|########6 | 25/29 [00:15<00:02,  1.65it/s]
accuracy: 0.9760, loss: 0.0812, reg_loss: 0.0000 ||:  90%|########9 | 26/29 [00:16<00:01,  1.64it/s]
accuracy: 0.9769, loss: 0.0795, reg_loss: 0.0000 ||:  93%|#########3| 27/29 [00:17<00:01,  1.63it/s]
accuracy: 0.9777, loss: 0.0772, reg_loss: 0.0000 ||:  97%|#########6| 28/29 [00:17<00:00,  1.61it/s]
accuracy: 0.9778, loss: 0.0755, reg_loss: 0.0000 ||: 100%|##########| 29/29 [00:18<00:00,  1.70it/s]
accuracy: 0.9778, loss: 0.0755, reg_loss: 0.0000 ||: 100%|##########| 29/29 [00:18<00:00,  1.60it/s]

  0%|          | 0/7 [00:00<?, ?it/s]
accuracy: 0.4740, loss: 1.9050, reg_loss: 0.0000 ||:  86%|########5 | 6/7 [00:00<00:00, 51.61it/s]
accuracy: 0.4700, loss: 1.7693, reg_loss: 0.0000 ||: 100%|##########| 7/7 [00:00<00:00, 57.65it/s]

